{
  "sharedLoading": "\u062a\u062d\u0645\u064a\u0644...",
  "sharedHide": "\u0625\u062e\u0641\u0627\u0621",
  "sharedSave": "\u064a\u062d\u0641\u0638",
  "sharedSet": "\u062a\u0639\u064a\u064a\u0646",
  "sharedCancel": "\u064a\u0644\u063a\u064a",
  "sharedAdd": "\u064a\u0636\u064a\u0641",
  "sharedEdit": "\u062a\u0639\u062f\u064a\u0644",
  "sharedRemove": "\u064a\u0632\u064a\u0644",
  "sharedRemoveConfirm": "\u0625\u0632\u0627\u0644\u0629 \u0628\u0646\u062f\u061f",
  "sharedNoData": "\u0644\u0627\u064a\u0648\u062c\u062f \u0628\u064a\u0627\u0646\u0627\u062a",
  "sharedYes": "\u0646\u0639\u0645",
  "sharedNo": "\u0644\u0627",
  "sharedKm": "\u0643\u0645",
  "sharedMi": "\u0645\u064a\u0644",
  "sharedNmi": "\u0646\u0645\u064a",
  "sharedMeters": "\u0645",
  "sharedFeet": "\u0642\u062f\u0645",
  "sharedKn": "\u0643\u0646",
  "sharedKmh": "\u0643\u0645 / \u0633\u0627\u0639\u0629",
  "sharedMph": "\u0645\u064a\u0644\u0627 \u0641\u064a \u0627\u0644\u0633\u0627\u0639\u0629",
  "sharedHour": "\u0633\u0627\u0639\u0629",
  "sharedMinute": "\u0627\u0644\u0644\u062d\u0638\u0629",
  "sharedSecond": "\u062b\u0627\u0646\u064a\u0629",
  "sharedDays": "\u0623\u064a\u0627\u0645",
  "sharedHours": "\u0633\u0627\u0639\u0627\u062a",
  "sharedMinutes": "\u0645\u062d\u0636\u0631 \u062c\u0644\u0633\u0629",
  "sharedDecimalDegrees": "\u0627\u0644\u062f\u0631\u062c\u0627\u062a \u0627\u0644\u0639\u0634\u0631\u064a\u0629",
  "sharedDegreesDecimalMinutes": "\u0627\u0644\u062f\u0631\u062c\u0627\u062a \u0627\u0644\u0639\u0634\u0631\u064a\u0629 \u0628\u0627\u0644\u062f\u0642\u0627\u0626\u0642",
  "sharedDegreesMinutesSeconds": "\u0627\u0644\u062f\u0631\u062c\u0627\u062a \u0627\u0644\u062f\u0642\u0627\u0626\u0642 \u0627\u0644\u062b\u0648\u0627\u0646\u064a",
  "sharedName": "\u0627\u0633\u0645",
  "sharedDescription": "\u0648\u0635\u0641",
  "sharedSearch": "\u0628\u062d\u062b",
  "sharedIconScale": "\u0645\u0642\u064a\u0627\u0633 \u0627\u0644\u0623\u064a\u0642\u0648\u0646\u0629",
  "sharedGeofence": "\u0633\u064a\u0627\u062c \u062c\u063a\u0631\u0627\u0641\u064a",
  "sharedGeofences": "\u0627\u0644\u0623\u0633\u0648\u0627\u0631 \u0627\u0644\u062c\u063a\u0631\u0627\u0641\u064a\u0629",
  "sharedCreateGeofence": "\u0625\u0646\u0634\u0627\u0621 \u0633\u064a\u0627\u062c \u062c\u063a\u0631\u0627\u0641\u064a",
  "sharedNotifications": "\u0625\u0634\u0639\u0627\u0631\u0627\u062a",
  "sharedNotification": "\u0625\u0634\u0639\u0627\u0631",
  "sharedAttributes": "\u0635\u0641\u0627\u062a",
  "sharedAttribute": "\u064a\u0646\u0633\u0628",
  "sharedDrivers": "\u0627\u0644\u0633\u0627\u0626\u0642\u064a\u0646",
  "sharedDriver": "\u0633\u0627\u0626\u0642",
  "sharedArea": "\u0645\u0646\u0637\u0642\u0629",
  "sharedSound": "\u0635\u0648\u062a \u0627\u0644\u0625\u0634\u0639\u0627\u0631",
  "sharedType": "\u064a\u0643\u062a\u0628",
  "sharedDistance": "\u0645\u0633\u0627\u0641\u0629",
  "sharedHourAbbreviation": "\u062d",
  "sharedMinuteAbbreviation": "\u0645",
  "sharedSecondAbbreviation": "\u0633",
  "sharedVoltAbbreviation": "\u0627\u0644\u062e\u0627\u0645\u0633",
  "sharedLiterAbbreviation": "\u0644",
  "sharedGallonAbbreviation": "\u0641\u062a\u0627\u0647",
  "sharedLiter": "\u0644\u062a\u0631",
  "sharedImpGallon": "\u0639\u0641\u0631\u064a\u062a. \u062c\u0627\u0644\u0648\u0646",
  "sharedUsGallon": "\u062c\u0627\u0644\u0648\u0646 \u0623\u0645\u0631\u064a\u0643\u064a",
  "sharedLiterPerHourAbbreviation": "\u0644\u062a\u0631 / \u0633\u0627\u0639\u0629",
  "sharedGetMapState": "\u0627\u062d\u0635\u0644 \u0639\u0644\u0649 Map State",
  "sharedComputedAttribute": "\u0627\u0644\u0633\u0645\u0629 \u0627\u0644\u0645\u062d\u0633\u0648\u0628\u0629",
  "sharedComputedAttributes": "\u0627\u0644\u0633\u0645\u0627\u062a \u0627\u0644\u0645\u062d\u0633\u0648\u0628\u0629",
  "sharedCheckComputedAttribute": "\u062a\u062d\u0642\u0642 \u0645\u0646 \u0627\u0644\u0633\u0645\u0629 \u0627\u0644\u0645\u062d\u0633\u0648\u0628\u0629",
  "sharedExpression": "\u062a\u0639\u0628\u064a\u0631",
  "sharedDevice": "\u062c\u0647\u0627\u0632",
  "sharedTest": "\u0627\u0645\u062a\u062d\u0627\u0646",
  "sharedTestNotification": "\u0625\u0631\u0633\u0627\u0644 \u0625\u062e\u0637\u0627\u0631 \u0627\u0644\u0627\u062e\u062a\u0628\u0627\u0631",
  "sharedTestNotificators": "\u0642\u0646\u0648\u0627\u062a \u0627\u0644\u0627\u062e\u062a\u0628\u0627\u0631",
  "sharedTestExpression": "\u0627\u062e\u062a\u0628\u0627\u0631 \u0627\u0644\u062a\u0639\u0628\u064a\u0631",
  "sharedCalendar": "\u0627\u0644\u062a\u0642\u0648\u064a\u0645",
  "sharedCalendars": "\u0627\u0644\u062a\u0642\u0648\u064a\u0645\u0627\u062a",
  "sharedFile": "\u0645\u0644\u0641",
  "sharedSearchDevices": "\u0623\u062c\u0647\u0632\u0629 \u0627\u0644\u0628\u062d\u062b",
  "sharedSortBy": "\u0635\u0646\u0641 \u062d\u0633\u0628",
  "sharedFilterMap": "\u062a\u0635\u0641\u064a\u0629 \u0639\u0644\u0649 \u0627\u0644\u062e\u0631\u064a\u0637\u0629",
  "sharedSelectFile": "\u062d\u062f\u062f \u0645\u0644\u0641",
  "sharedPhone": "\u0647\u0627\u062a\u0641",
  "sharedRequired": "\u0645\u0637\u0644\u0648\u0628",
  "sharedPreferences": "\u0627\u0644\u062a\u0641\u0636\u064a\u0644\u0627\u062a",
  "sharedPermissions": "\u0623\u0630\u0648\u0646\u0627\u062a",
  "sharedConnections": "\u0631\u0648\u0627\u0628\u0637",
  "sharedExtra": "\u0625\u0636\u0627\u0641\u064a",
  "sharedPrimary": "\u0627\u0628\u062a\u062f\u0627\u0626\u064a",
  "sharedSecondary": "\u062b\u0627\u0646\u0648\u064a",
  "sharedTypeString": "\u0633\u0644\u0633\u0644\u0629",
  "sharedTypeNumber": "\u0639\u062f\u062f",
  "sharedTypeBoolean": "\u0642\u064a\u0645\u0629 \u0645\u0646\u0637\u0642\u064a\u0629",
  "sharedTimezone": "\u0648\u062d\u062f\u0629 \u0632\u0645\u0646\u064a\u0629",
  "sharedInfoTitle": "\u0645\u0639\u0644\u0648\u0645\u0627\u062a",
  "sharedSavedCommand": "\u0627\u0644\u0623\u0645\u0631 \u0627\u0644\u0645\u062d\u0641\u0648\u0638",
  "sharedSavedCommands": "\u0627\u0644\u0623\u0648\u0627\u0645\u0631 \u0627\u0644\u0645\u062d\u0641\u0648\u0638\u0629",
  "sharedNew": "\u062c\u062f\u064a\u062f",
  "sharedShowAddress": "\u0625\u0638\u0647\u0627\u0631 \u0627\u0644\u0639\u0646\u0648\u0627\u0646",
  "sharedShowDetails": "\u0627\u0644\u0645\u0632\u064a\u062f \u0645\u0646 \u0627\u0644\u062a\u0641\u0627\u0635\u064a\u0644",
  "sharedDisabled": "\u0645\u0639\u0627\u0642",
  "sharedMaintenance": "\u0627\u0639\u0645\u0627\u0644 \u0635\u064a\u0627\u0646\u0629",
  "sharedDeviceAccumulators": "\u0627\u0644\u0645\u0631\u0627\u0643\u0645",
  "sharedAlarms": "\u0625\u0646\u0630\u0627\u0631",
  "sharedLocation": "\u0645\u0648\u0642\u0639",
  "sharedImport": "\u064a\u0633\u062a\u0648\u0631\u062f",
  "sharedColumns": "\u0627\u0644\u0623\u0639\u0645\u062f\u0629",
  "sharedDropzoneText": "\u0642\u0645 \u0628\u0633\u062d\u0628 \u0648\u0625\u0633\u0642\u0627\u0637 \u0645\u0644\u0641 \u0647\u0646\u0627 \u0623\u0648 \u0627\u0646\u0642\u0631",
  "calendarSimple": "\u0628\u0633\u064a\u0637",
  "calendarRecurrence": "\u062a\u0643\u0631\u0627\u0631",
  "calendarOnce": "\u0645\u0631\u0629 \u0648\u0627\u062d\u062f\u0629",
  "calendarDaily": "\u0627\u0644\u064a\u0648\u0645\u064a",
  "calendarWeekly": "\u0623\u0633\u0628\u0648\u0639\u064a",
  "calendarMonthly": "\u0634\u0647\u0631\u064a\u0627",
  "calendarDays": "\u0623\u064a\u0627\u0645",
  "calendarSunday": "\u0627\u0644\u0623\u062d\u062f",
  "calendarMonday": "\u0627\u0644\u0627\u062b\u0646\u064a\u0646",
  "calendarTuesday": "\u064a\u0648\u0645 \u0627\u0644\u062b\u0644\u0627\u062b\u0627\u0621",
  "calendarWednesday": "\u0627\u0644\u0623\u0631\u0628\u0639\u0627\u0621",
  "calendarThursday": "\u064a\u0648\u0645 \u0627\u0644\u062e\u0645\u064a\u0633",
  "calendarFriday": "\u062c\u0645\u0639\u0629",
  "calendarSaturday": "\u0627\u0644\u0633\u0628\u062a",
  "attributeShowGeofences": "\u0625\u0638\u0647\u0627\u0631 \u0627\u0644\u0633\u064a\u0627\u062c \u0627\u0644\u062c\u063a\u0631\u0627\u0641\u064a",
  "attributeSpeedLimit": "\u0627\u0644\u062d\u062f \u0627\u0644\u0623\u0642\u0635\u0649 \u0644\u0644\u0633\u0631\u0639\u0629",
  "attributeFuelDropThreshold": "\u0639\u062a\u0628\u0629 \u0627\u0646\u062e\u0641\u0627\u0636 \u0627\u0644\u0648\u0642\u0648\u062f",
  "attributeFuelIncreaseThreshold": "\u062d\u062f \u0632\u064a\u0627\u062f\u0629 \u0627\u0644\u0648\u0642\u0648\u062f",
  "attributePolylineDistance": "\u0645\u0633\u0627\u0641\u0629 \u0645\u062a\u0639\u062f\u062f \u0627\u0644\u062e\u0637\u0648\u0637",
  "attributeReportIgnoreOdometer": "\u062a\u0642\u0631\u064a\u0631: \u062a\u062c\u0627\u0647\u0644 \u0639\u062f\u0627\u062f \u0627\u0644\u0645\u0633\u0627\u0641\u0627\u062a",
  "attributeWebReportColor": "\u0627\u0644\u0648\u064a\u0628: \u0644\u0648\u0646 \u0627\u0644\u062a\u0642\u0631\u064a\u0631",
  "attributeDevicePassword": "\u0643\u0644\u0645\u0647 \u0645\u0631\u0648\u0631 \u0627\u0644\u062c\u0647\u0627\u0632",
  "attributeDeviceImage": "\u0635\u0648\u0631\u0629 \u0627\u0644\u062c\u0647\u0627\u0632",
  "attributeDeviceInactivityStart": "\u0628\u062f\u0621 \u062e\u0645\u0648\u0644 \u0627\u0644\u062c\u0647\u0627\u0632",
  "attributeDeviceInactivityPeriod": "\u0641\u062a\u0631\u0629 \u062e\u0645\u0648\u0644 \u0627\u0644\u062c\u0647\u0627\u0632",
  "attributeProcessingCopyAttributes": "\u0627\u0644\u0645\u0639\u0627\u0644\u062c\u0629: \u0646\u0633\u062e \u0627\u0644\u0633\u0645\u0627\u062a",
  "attributeColor": "\u0627\u0644\u0644\u0648\u0646",
  "attributeWebLiveRouteLength": "\u0627\u0644\u0648\u064a\u0628: \u0637\u0648\u0644 \u0627\u0644\u0645\u0633\u0627\u0631 \u0627\u0644\u0645\u0628\u0627\u0634\u0631",
  "attributeWebSelectZoom": "\u0627\u0644\u0648\u064a\u0628: \u062a\u0643\u0628\u064a\u0631 \u062a\u062d\u062f\u064a\u062f",
  "attributeWebMaxZoom": "\u0627\u0644\u0648\u064a\u0628: \u0623\u0642\u0635\u0649 \u062a\u0643\u0628\u064a\u0631",
  "attributeTelegramChatId": "\u0645\u0639\u0631\u0641 \u0627\u0644\u062f\u0631\u062f\u0634\u0629 Telegram",
  "attributePushoverUserKey": "\u0645\u0641\u062a\u0627\u062d \u0645\u0633\u062a\u062e\u062f\u0645 \u0627\u0644\u062a\u0645\u0631\u064a\u0631",
  "attributePushoverDeviceNames": "\u0623\u0633\u0645\u0627\u0621 \u0623\u062c\u0647\u0632\u0629 \u0627\u0644\u062a\u0645\u0631\u064a\u0631",
  "attributeMailSmtpHost": "\u0627\u0644\u0628\u0631\u064a\u062f: SMTP Host",
  "attributeMailSmtpPort": "\u0627\u0644\u0628\u0631\u064a\u062f: \u0645\u0646\u0641\u0630 SMTP",
  "attributeMailSmtpStarttlsEnable": "\u0627\u0644\u0628\u0631\u064a\u062f: \u062a\u0645\u0643\u064a\u0646 SMTP STARTTLS",
  "attributeMailSmtpStarttlsRequired": "\u0627\u0644\u0628\u0631\u064a\u062f: \u0645\u0637\u0644\u0648\u0628 STARTTLS SMTP",
  "attributeMailSmtpSslEnable": "\u0627\u0644\u0628\u0631\u064a\u062f: \u062a\u0645\u0643\u064a\u0646 \u0628\u0631\u0648\u062a\u0648\u0643\u0648\u0644 SMTP SSL",
  "attributeMailSmtpSslTrust": "\u0627\u0644\u0628\u0631\u064a\u062f: SMTP SSL Trust",
  "attributeMailSmtpSslProtocols": "\u0627\u0644\u0628\u0631\u064a\u062f: \u0628\u0631\u0648\u062a\u0648\u0643\u0648\u0644\u0627\u062a SMTP SSL",
  "attributeMailSmtpFrom": "\u0627\u0644\u0628\u0631\u064a\u062f: SMTP \u0645\u0646",
  "attributeMailSmtpAuth": "\u0627\u0644\u0628\u0631\u064a\u062f: \u062a\u0645\u0643\u064a\u0646 \u0645\u0635\u0627\u062f\u0642\u0629 SMTP",
  "attributeMailSmtpUsername": "\u0627\u0644\u0628\u0631\u064a\u062f: \u0627\u0633\u0645 \u0645\u0633\u062a\u062e\u062f\u0645 SMTP",
  "attributeMailSmtpPassword": "\u0627\u0644\u0628\u0631\u064a\u062f: \u0643\u0644\u0645\u0629 \u0645\u0631\u0648\u0631 SMTP",
  "attributeUiDisableAttributes": "\u0648\u0627\u062c\u0647\u0629 \u0627\u0644\u0645\u0633\u062a\u062e\u062f\u0645: \u062a\u0639\u0637\u064a\u0644 \u0627\u0644\u0633\u0645\u0627\u062a",
  "attributeUiDisableGroups": "\u0648\u0627\u062c\u0647\u0629 \u0627\u0644\u0645\u0633\u062a\u062e\u062f\u0645: \u062a\u0639\u0637\u064a\u0644 \u0627\u0644\u0645\u062c\u0645\u0648\u0639\u0627\u062a",
  "attributeUiDisableEvents": "\u0648\u0627\u062c\u0647\u0629 \u0627\u0644\u0645\u0633\u062a\u062e\u062f\u0645: \u062a\u0639\u0637\u064a\u0644 \u0627\u0644\u0623\u062d\u062f\u0627\u062b",
  "attributeUiDisableVehicleFetures": "\u0648\u0627\u062c\u0647\u0629 \u0627\u0644\u0645\u0633\u062a\u062e\u062f\u0645: \u062a\u0639\u0637\u064a\u0644 \u0645\u0631\u0643\u0628\u0629 Fetures",
  "attributeUiDisableDrivers": "\u0648\u0627\u062c\u0647\u0629 \u0627\u0644\u0645\u0633\u062a\u062e\u062f\u0645: \u062a\u0639\u0637\u064a\u0644 \u0628\u0631\u0627\u0645\u062c \u0627\u0644\u062a\u0634\u063a\u064a\u0644",
  "attributeUiDisableComputedAttributes": "\u0648\u0627\u062c\u0647\u0629 \u0627\u0644\u0645\u0633\u062a\u062e\u062f\u0645: \u062a\u0639\u0637\u064a\u0644 \u0627\u0644\u0633\u0645\u0627\u062a \u0627\u0644\u0645\u062d\u0633\u0648\u0628\u0629",
  "attributeUiDisableCalendars": "UI: \u062a\u0639\u0637\u064a\u0644 \u0627\u0644\u062a\u0642\u0648\u064a\u0645\u0627\u062a",
  "attributeUiDisableMaintenance": "\u0648\u0627\u062c\u0647\u0629 \u0627\u0644\u0645\u0633\u062a\u062e\u062f\u0645: \u062a\u0639\u0637\u064a\u0644 \u0627\u0644\u0635\u064a\u0627\u0646\u0629",
  "attributeUiHidePositionAttributes": "\u0648\u0627\u062c\u0647\u0629 \u0627\u0644\u0645\u0633\u062a\u062e\u062f\u0645: \u0625\u062e\u0641\u0627\u0621 \u0633\u0645\u0627\u062a \u0627\u0644\u0645\u0648\u0636\u0639",
  "attributeUiDisableLoginLanguage": "\u0648\u0627\u062c\u0647\u0629 \u0627\u0644\u0645\u0633\u062a\u062e\u062f\u0645: \u062a\u0639\u0637\u064a\u0644 \u0644\u063a\u0629 \u062a\u0633\u062c\u064a\u0644 \u0627\u0644\u062f\u062e\u0648\u0644",
  "attributeNotificationTokens": "\u0631\u0645\u0648\u0632 \u0627\u0644\u0625\u062e\u0637\u0627\u0631",
  "attributePopupInfo": "\u0645\u0639\u0644\u0648\u0645\u0627\u062a \u0645\u0646\u0628\u062b\u0642\u0629",
  "errorTitle": "\u062e\u0637\u0623",
  "errorGeneral": "\u0627\u0644\u0645\u0639\u0644\u0645\u0627\u062a \u063a\u064a\u0631 \u0635\u0627\u0644\u062d\u0629 \u0623\u0648 \u0627\u0646\u062a\u0647\u0627\u0643 \u0627\u0644\u0642\u064a\u0648\u062f",
  "errorConnection": "\u062e\u0637\u0623 \u0641\u064a \u0627\u0644\u0625\u062a\u0635\u0627\u0644",
  "errorSocket": "\u062e\u0637\u0623 \u0641\u064a \u0627\u062a\u0635\u0627\u0644 \u0645\u0642\u0628\u0633 \u0627\u0644\u0648\u064a\u0628",
  "errorZero": "\u0644\u0627 \u064a\u0645\u0643\u0646 \u0623\u0646 \u062a\u0643\u0648\u0646 \u0635\u0641\u0631\u064b\u0627",
  "userEmail": "\u0628\u0631\u064a\u062f \u0625\u0644\u0643\u062a\u0631\u0648\u0646\u064a",
  "userPassword": "\u0643\u0644\u0645\u0629 \u0627\u0644\u0645\u0631\u0648\u0631",
  "userAdmin": "\u0645\u0633\u0624\u0644",
  "userRemember": "\u062a\u0630\u0643\u0631",
  "userExpirationTime": "\u0627\u0646\u062a\u0647\u0627\u0621 \u0627\u0644\u0635\u0644\u0627\u062d\u064a\u0629",
  "userDeviceLimit": "\u062d\u062f \u0627\u0644\u062c\u0647\u0627\u0632",
  "userUserLimit": "\u062d\u062f \u0627\u0644\u0645\u0633\u062a\u062e\u062f\u0645",
  "userDeviceReadonly": "\u0627\u0644\u062c\u0647\u0627\u0632 \u0644\u0644\u0642\u0631\u0627\u0621\u0629 \u0641\u0642\u0637",
  "userLimitCommands": "\u0623\u0648\u0627\u0645\u0631 \u0627\u0644\u062d\u062f",
  "userDisableReports": "\u062a\u0639\u0637\u064a\u0644 \u0627\u0644\u062a\u0642\u0627\u0631\u064a\u0631",
  "userFixedEmail": "\u0644\u0627 \u062a\u063a\u064a\u064a\u0631 \u0627\u0644\u0628\u0631\u064a\u062f \u0627\u0644\u0625\u0644\u0643\u062a\u0631\u0648\u0646\u064a",
  "userToken": "\u0631\u0645\u0632",
  "userDeleteAccount": "\u062d\u0630\u0641 \u0627\u0644\u062d\u0633\u0627\u0628",
  "loginTitle": "\u062a\u0633\u062c\u064a\u0644 \u0627\u0644\u062f\u062e\u0648\u0644",
  "loginLanguage": "\u0644\u063a\u0629",
  "loginReset": "\u0625\u0639\u0627\u062f\u0629 \u062a\u0639\u064a\u064a\u0646 \u0643\u0644\u0645\u0629 \u0627\u0644\u0645\u0631\u0648\u0631",
  "loginRegister": "\u064a\u0633\u062c\u0644",
  "loginLogin": "\u062a\u0633\u062c\u064a\u0644 \u0627\u0644\u062f\u062e\u0648\u0644",
  "loginFailed": "\u0639\u0646\u0648\u0627\u0646 \u0627\u0644\u0628\u0631\u064a\u062f \u0627\u0644\u0625\u0644\u0643\u062a\u0631\u0648\u0646\u064a \u0623\u0648 \u0643\u0644\u0645\u0629 \u0627\u0644\u0645\u0631\u0648\u0631 \u063a\u064a\u0631 \u0635\u062d\u064a\u062d\u0629",
  "loginCreated": "\u062a\u0645 \u062a\u0633\u062c\u064a\u0644 \u0645\u0633\u062a\u062e\u062f\u0645 \u062c\u062f\u064a\u062f",
  "loginResetSuccess": "\u062a\u062d\u0642\u0642 \u0645\u0646 \u0628\u0631\u064a\u062f\u0643 \u0627\u0644\u0627\u0644\u0643\u062a\u0631\u0648\u0646\u064a",
  "loginUpdateSuccess": "\u062a\u0645 \u062a\u0639\u064a\u064a\u0646 \u0643\u0644\u0645\u0629 \u0645\u0631\u0648\u0631 \u062c\u062f\u064a\u062f\u0629",
  "loginLogout": "\u062a\u0633\u062c\u064a\u0644 \u062e\u0631\u0648\u062c",
  "loginLogo": "\u0634\u0639\u0627\u0631",
  "devicesAndState": "\u0627\u0644\u0623\u062c\u0647\u0632\u0629 \u0648\u0627\u0644\u062f\u0648\u0644\u0629",
  "deviceSelected": "\u0627\u0644\u062c\u0647\u0627\u0632 \u0627\u0644\u0645\u062d\u062f\u062f",
  "deviceTitle": "\u0627\u0644\u0623\u062c\u0647\u0632\u0629",
  "devicePrimaryInfo": "\u0639\u0646\u0648\u0627\u0646 \u0627\u0644\u062c\u0647\u0627\u0632",
  "deviceSecondaryInfo": "\u062a\u0641\u0627\u0635\u064a\u0644 \u0627\u0644\u062c\u0647\u0627\u0632",
  "deviceIdentifier": "\u0627\u0644\u0645\u0639\u0631\u0641",
  "deviceModel": "\u0646\u0645\u0648\u0630\u062c",
  "deviceContact": "\u0627\u062a\u0635\u0627\u0644",
  "deviceCategory": "\u0641\u0626\u0629",
  "deviceLastUpdate": "\u0627\u062e\u0631 \u062a\u062d\u062f\u064a\u062b",
  "deviceCommand": "\u064a\u0623\u0645\u0631",
  "deviceFollow": "\u064a\u062a\u0628\u0639",
  "deviceTotalDistance": "\u0627\u0644\u0645\u0633\u0627\u0641\u0629 \u0627\u0644\u0643\u0644\u064a\u0629",
  "deviceStatus": "\u062d\u0627\u0644\u0629",
  "deviceStatusOnline": "\u0645\u062a\u0635\u0644",
  "deviceStatusOffline": "\u063a\u064a\u0631 \u0645\u062a\u0635\u0644 \u0639\u0644\u0649 \u0627\u0644\u0627\u0646\u062a\u0631\u0646\u062a",
  "deviceStatusUnknown": "\u0645\u062c\u0647\u0648\u0644",
  "groupDialog": "\u0645\u062c\u0645\u0648\u0639\u0629",
  "groupParent": "\u0645\u062c\u0645\u0648\u0639\u0629",
  "groupNoGroup": "\u0644\u0627 \u0645\u062c\u0645\u0648\u0639\u0629",
  "settingsTitle": "\u0625\u0639\u062f\u0627\u062f\u0627\u062a",
  "settingsUser": "\u062d\u0633\u0627\u0628",
  "settingsGroups": "\u0645\u062c\u0645\u0648\u0639\u0627\u062a",
  "settingsServer": "\u0627\u0644\u062e\u0627\u062f\u0645",
  "settingsUsers": "\u0627\u0644\u0645\u0633\u062a\u062e\u062f\u0645\u0648\u0646",
  "settingsDistanceUnit": "\u0648\u062d\u062f\u0629 \u0627\u0644\u0645\u0633\u0627\u0641\u0629",
  "settingsAltitudeUnit": "\u0648\u062d\u062f\u0629 \u0627\u0644\u0627\u0631\u062a\u0641\u0627\u0639",
  "settingsSpeedUnit": "\u0648\u062d\u062f\u0629 \u0627\u0644\u0633\u0631\u0639\u0629",
  "settingsVolumeUnit": "\u0648\u062d\u062f\u0629 \u0627\u0644\u0635\u0648\u062a",
  "settingsTwelveHourFormat": "\u062a\u0646\u0633\u064a\u0642 12 \u0633\u0627\u0639\u0629",
  "settingsCoordinateFormat": "\u062a\u0646\u0633\u064a\u0642 \u0627\u0644\u0625\u062d\u062f\u0627\u062b\u064a\u0627\u062a",
  "settingsServerVersion": "\u0625\u0635\u062f\u0627\u0631 \u0627\u0644\u062e\u0627\u062f\u0645",
  "settingsAppVersion": "\u0646\u0633\u062e\u0629 \u0627\u0644\u062a\u0637\u0628\u064a\u0642",
  "settingsConnection": "\u0627\u062a\u0635\u0627\u0644",
  "reportTitle": "\u0627\u0644\u062a\u0642\u0627\u0631\u064a\u0631",
  "reportDevice": "\u062c\u0647\u0627\u0632",
  "reportGroup": "\u0645\u062c\u0645\u0648\u0639\u0629",
  "reportFrom": "\u0645\u0646",
  "reportTo": "\u0625\u0644\u0649",
  "reportShow": "\u062a\u0628\u064a\u0646",
  "reportClear": "\u0635\u0627\u0641\u064a",
  "linkGoogleMaps": "\u062e\u0631\u0627\u0626\u0637 \u062c\u0648\u062c\u0644",
  "linkAppleMaps": "\u062e\u0631\u0627\u0626\u0637 \u0622\u0628\u0644",
  "linkStreetView": "\u0645\u0646\u0638\u0631 \u0627\u0644\u0634\u0627\u0631\u0639",
  "positionFixTime": "\u0648\u0642\u062a \u0627\u0644\u0625\u0635\u0644\u0627\u062d",
  "positionDeviceTime": "\u0648\u0642\u062a \u0627\u0644\u062c\u0647\u0627\u0632",
  "positionServerTime": "\u0648\u0642\u062a \u0627\u0644\u062e\u0627\u062f\u0645",
  "positionValid": "\u0635\u0627\u0644\u062d",
  "positionAccuracy": "\u0635\u062d\u0629",
  "positionLatitude": "\u062e\u0637 \u0627\u0644\u0639\u0631\u0636",
  "positionLongitude": "\u062e\u0637 \u0627\u0644\u0637\u0648\u0644",
  "positionAltitude": "\u0627\u0631\u062a\u0641\u0627\u0639",
  "positionSpeed": "\u0633\u0631\u0639\u0629",
  "positionCourse": "\u0645\u0633\u0627\u0631",
  "positionAddress": "\u062a\u0628\u0648\u0643",
  "positionProtocol": "\u0628\u0631\u0648\u062a\u0648\u0643\u0648\u0644",
  "positionDistance": "\u0645\u0633\u0627\u0641\u0629",
  "positionRpm": "\u062f\u0648\u0631\u0629 \u0641\u064a \u0627\u0644\u062f\u0642\u064a\u0642\u0629",
  "positionFuel": "\u0627\u0644\u0648\u0642\u0648\u062f",
  "positionPower": "\u0642\u0648\u0629",
  "positionBattery": "\u0628\u0637\u0627\u0631\u064a\u0629",
  "positionRaw": "\u0627\u0644\u062e\u0627\u0645",
  "positionIndex": "\u0641\u0650\u0647\u0631\u0650\u0633",
  "positionHdop": "HDOP",
  "positionVdop": "VDOP",
  "positionPdop": "PDOP",
  "positionSat": "\u0627\u0644\u0623\u0642\u0645\u0627\u0631 \u0627\u0644\u0635\u0646\u0627\u0639\u064a\u0629",
  "positionSatVisible": "\u0627\u0644\u0623\u0642\u0645\u0627\u0631 \u0627\u0644\u0635\u0646\u0627\u0639\u064a\u0629 \u0627\u0644\u0645\u0631\u0626\u064a\u0629",
  "positionRssi": "RSSI",
  "positionGps": "GPS",
  "positionRoaming": "\u0627\u0644\u062a\u062c\u0648\u0627\u0644",
  "positionEvent": "\u062d\u062f\u062b",
  "positionAlarm": "\u0625\u0646\u0630\u0627\u0631",
  "positionStatus": "\u062d\u0627\u0644\u0629",
  "positionOdometer": "\u0639\u062f\u0627\u062f \u0627\u0644\u0645\u0633\u0627\u0641\u0627\u062a",
  "positionServiceOdometer": "\u0639\u062f\u0627\u062f \u0627\u0644\u0645\u0633\u0627\u0641\u0627\u062a \u0627\u0644\u062e\u062f\u0645\u0629",
  "positionTripOdometer": "\u0631\u062d\u0644\u0629 \u0639\u062f\u0627\u062f \u0627\u0644\u0645\u0633\u0627\u0641\u0627\u062a",
  "positionHours": "\u0633\u0627\u0639\u0627\u062a",
  "positionSteps": "\u062e\u0637\u0648\u0627\u062a",
  "positionInput": "\u0625\u062f\u062e\u0627\u0644",
  "positionOutput": "\u0627\u0646\u062a\u0627\u062c |",
  "positionBatteryLevel": "\u0645\u0633\u062a\u0648\u0649 \u0627\u0644\u0628\u0637\u0627\u0631\u064a\u0629",
  "positionFuelConsumption": "\u0627\u0633\u062a\u0647\u0644\u0627\u0643 \u0627\u0644\u0648\u0642\u0648\u062f",
  "positionRfid": "RFID",
  "positionVersionFw": "\u0646\u0633\u062e\u0629 \u0628\u0631\u0646\u0627\u0645\u062c \u062b\u0627\u0628\u062a",
  "positionVersionHw": "\u0627\u0644\u0646\u0633\u062e\u0629 \u0627\u0644\u0623\u062c\u0647\u0632\u0629",
  "positionIgnition": "\u0627\u0634\u062a\u0639\u0627\u0644",
  "positionFlags": "\u0623\u0639\u0644\u0627\u0645",
  "positionCharge": "\u062a\u0647\u0645\u0629. \u0634\u062d\u0646. \u064a\u062d\u0627\u0633\u0628",
  "positionIp": "IP",
  "positionArchive": "\u0623\u0631\u0634\u064a\u0641",
  "positionVin": "\u0641\u064a\u0646",
  "positionApproximate": "\u062a\u0642\u0631\u064a\u0628\u064a",
  "positionThrottle": "\u062e\u0646\u0642",
  "positionMotion": "\u0627\u0642\u062a\u0631\u0627\u062d",
  "positionArmed": "\u0645\u0633\u0644\u062d",
  "positionAcceleration": "\u0627\u0644\u062a\u0633\u0631\u064a\u0639",
  "positionTemp": "\u062f\u0631\u062c\u0629 \u0627\u0644\u062d\u0631\u0627\u0631\u0629",
  "positionDeviceTemp": "\u062f\u0631\u062c\u0629 \u062d\u0631\u0627\u0631\u0629 \u0627\u0644\u062c\u0647\u0627\u0632",
  "positionOperator": "\u0627\u0644\u0645\u0634\u063a\u0644 \u0623\u0648 \u0627\u0644\u0639\u0627\u0645\u0644",
  "positionCommand": "\u064a\u0623\u0645\u0631",
  "positionBlocked": "\u0645\u0645\u0646\u0648\u0639",
  "positionDtcs": "DTCs",
  "positionObdSpeed": "\u0633\u0631\u0639\u0629 OBD",
  "positionObdOdometer": "OBD \u0639\u062f\u0627\u062f \u0627\u0644\u0645\u0633\u0627\u0641\u0627\u062a",
  "positionDriverUniqueId": "\u0645\u0639\u0631\u0641 \u0641\u0631\u064a\u062f \u0644\u0644\u0633\u0627\u0626\u0642",
  "positionImage": "\u0635\u0648\u0631\u0629",
  "positionVideo": "\u0641\u064a\u062f\u064a\u0648",
  "positionAudio": "\u0635\u0648\u062a\u064a",
  "serverTitle": "\u0627\u0639\u062f\u0627\u062f\u0627\u062a \u0627\u0644\u062e\u0627\u062f\u0645",
  "serverZoom": "\u062a\u0643\u0628\u064a\u0631",
  "serverRegistration": "\u062a\u0633\u062c\u064a\u0644",
  "serverReadonly": "\u064a\u0642\u0631\u0623 \u0641\u0642\u0637",
  "serverForceSettings": "\u0641\u0631\u0636 \u0627\u0644\u0625\u0639\u062f\u0627\u062f\u0627\u062a",
  "serverAnnouncement": "\u0625\u0639\u0644\u0627\u0646",
  "mapTitle": "\u062e\u0631\u064a\u0637\u0629",
  "mapActive": "\u062e\u0631\u0627\u0626\u0637 \u0646\u0634\u0637\u0629",
  "mapOverlay": "\u062a\u0631\u0627\u0643\u0628 \u0627\u0644\u062e\u0631\u064a\u0637\u0629",
  "mapOverlayCustom": "\u062a\u0631\u0627\u0643\u0628 \u0645\u062e\u0635\u0635",
  "mapOpenSeaMap": "OpenSeaMap",
  "mapOpenWeatherKey": "\u0645\u0641\u062a\u0627\u062d OpenWeather API",
  "mapOpenWeatherClouds": "OpenWeather Clouds",
  "mapOpenWeatherPrecipitation": "OpenWeather \u0647\u0637\u0648\u0644 \u0627\u0644\u0623\u0645\u0637\u0627\u0631",
  "mapOpenWeatherPressure": "\u0636\u063a\u0637 \u0627\u0644\u0637\u0642\u0633 \u0627\u0644\u0645\u0641\u062a\u0648\u062d",
  "mapOpenWeatherWind": "OpenWeather Wind",
  "mapOpenWeatherTemperature": "OpenWeather \u062f\u0631\u062c\u0629 \u0627\u0644\u062d\u0631\u0627\u0631\u0629",
  "mapLayer": "\u0637\u0628\u0642\u0629 \u0627\u0644\u062e\u0631\u064a\u0637\u0629",
  "mapCustom": "\u0645\u062e\u0635\u0635 (\u0633 \u0635 \u0639)",
  "mapCustomArcgis": "\u0645\u062e\u0635\u0635 (ArcGIS)",
  "mapCustomLabel": "\u062e\u0631\u064a\u0637\u0629 \u0645\u062e\u0635\u0635\u0629",
  "mapCarto": "\u062e\u0631\u0627\u0626\u0637 \u0627\u0644\u0623\u0633\u0627\u0633 \u0643\u0627\u0631\u062a\u0648",
  "mapOsm": "OpenStreetMap",
  "mapGoogleRoad": "\u062c\u0648\u062c\u0644 \u0631\u0648\u062f",
  "mapGoogleHybrid": "\u062c\u0648\u062c\u0644 \u0627\u0644\u0647\u062c\u064a\u0646",
  "mapGoogleSatellite": "\u062c\u0648\u062c\u0644 \u0627\u0644\u0642\u0645\u0631 \u0627\u0644\u0635\u0646\u0627\u0639\u064a",
  "mapOpenTopoMap": "OpenTopoMap",
  "mapBingKey": "\u0645\u0641\u062a\u0627\u062d \u062e\u0631\u0627\u0626\u0637 Bing",
  "mapBingRoad": "\u0637\u0631\u064a\u0642 \u062e\u0631\u0627\u0626\u0637 \u0628\u0646\u062c",
  "mapBingAerial": "\u062e\u0631\u0627\u0626\u0637 \u0628\u0646\u062c \u0627\u0644\u062c\u0648\u064a\u0629",
  "mapBingHybrid": "\u062e\u0631\u0627\u0626\u0637 Bing \u0627\u0644\u0647\u062c\u064a\u0646\u0629",
  "mapBaidu": "\u0628\u0627\u064a\u062f\u0648",
  "mapAutoNavi": "AutoNavi",
  "mapYandexMap": "\u062e\u0631\u064a\u0637\u0629 Yandex",
  "mapYandexSat": "\u064a\u0627\u0646\u062f\u0643\u0633 \u0633\u0627\u062a\u0644\u0627\u064a\u062a",
  "mapWikimedia": "\u0648\u064a\u0643\u064a\u0645\u064a\u062f\u064a\u0627 \u200b\u200b\u0643\u0648\u0645\u0646\u0632",
  "mapOrdnanceSurvey": "\u0645\u0633\u062d \u0627\u0644\u0630\u062e\u0627\u0626\u0631",
  "mapMapboxStreets": "\u0634\u0648\u0627\u0631\u0639 Mapbox",
  "mapMapboxOutdoors": "Mapbox \u0641\u064a \u0627\u0644\u0647\u0648\u0627\u0621 \u0627\u0644\u0637\u0644\u0642",
  "mapMapboxSatellite": "\u0627\u0644\u0642\u0645\u0631 \u0627\u0644\u0635\u0646\u0627\u0639\u064a Mapbox",
  "mapMapboxKey": "\u0631\u0645\u0632 \u0627\u0644\u0648\u0635\u0648\u0644 \u0625\u0644\u0649 Mapbox",
  "mapMapTilerBasic": "MapTiler \u0627\u0644\u0623\u0633\u0627\u0633\u064a\u0629",
  "mapMapTilerHybrid": "\u0647\u062c\u064a\u0646 MapTiler",
  "mapMapTilerKey": "\u0645\u0641\u062a\u0627\u062d MapTiler API",
  "mapLocationIqStreets": "\u0634\u0648\u0627\u0631\u0639 \u0622\u064a \u0643\u064a\u0648",
  "mapLocationIqKey": "LocationIQ Access Token",
  "mapTomTomBasic": "TomTom Basic",
  "mapTomTomFlow": "\u062a\u062f\u0641\u0642 \u062d\u0631\u0643\u0629 \u062a\u0648\u0645 \u062a\u0648\u0645",
  "mapTomTomIncidents": "\u062d\u0648\u0627\u062f\u062b \u0645\u0631\u0648\u0631 \u062a\u0648\u0645 \u062a\u0648\u0645",
  "mapTomTomKey": "\u0645\u0641\u062a\u0627\u062d TomTom API",
  "mapHereBasic": "\u0647\u0646\u0627 \u0627\u0644\u0623\u0633\u0627\u0633\u064a",
  "mapHereHybrid": "\u0647\u0646\u0627 \u0627\u0644\u0647\u062c\u064a\u0646",
  "mapHereSatellite": "\u0647\u0646\u0627 \u0627\u0644\u0642\u0645\u0631 \u0627\u0644\u0635\u0646\u0627\u0639\u064a",
  "mapHereFlow": "\u0647\u0646\u0627 \u062a\u062f\u0641\u0642 \u062d\u0631\u0643\u0629 \u0627\u0644\u0645\u0631\u0648\u0631",
  "mapHereKey": "\u0647\u0646\u0627 \u0645\u0641\u062a\u0627\u062d API",
  "mapShapePolygon": "\u0645\u0636\u0644\u0639",
  "mapShapeCircle": "\u062f\u0627\u0626\u0631\u0629",
  "mapShapePolyline": "\u0645\u062a\u0639\u062f\u062f \u0627\u0644\u062e\u0637\u0648\u0637",
  "mapLiveRoutes": "\u0645\u0633\u0627\u0631\u0627\u062a \u062d\u064a\u0629",
  "mapCurrentLocation": "\u0627\u0644\u0645\u0648\u0642\u0639 \u0627\u0644\u062d\u0627\u0644\u064a",
  "mapPoiLayer": "\u0637\u0628\u0642\u0627\u062a POI",
  "mapClustering": "\u0639\u0644\u0627\u0645\u0627\u062a \u0627\u0644\u0639\u0646\u0642\u0648\u062f\u064a\u0629",
  "mapOnSelect": "\u0625\u0638\u0647\u0627\u0631 \u0627\u0644\u062e\u0631\u064a\u0637\u0629 \u0639\u0646\u062f \u0627\u0644\u062a\u062d\u062f\u064a\u062f",
  "mapDefault": "\u0627\u0644\u062e\u0631\u064a\u0637\u0629 \u0627\u0644\u0627\u0641\u062a\u0631\u0627\u0636\u064a\u0629",
  "stateTitle": "\u062f\u0648\u0644\u0629",
  "stateName": "\u064a\u0646\u0633\u0628",
  "stateValue": "\u0642\u064a\u0645\u0629",
  "commandTitle": "\u064a\u0623\u0645\u0631",
  "commandSend": "\u064a\u0631\u0633\u0644",
  "commandSent": "\u062a\u0645 \u0625\u0631\u0633\u0627\u0644 \u0627\u0644\u0623\u0645\u0631",
  "commandQueued": "\u0627\u0644\u0623\u0645\u0631 \u0641\u064a \u0642\u0627\u0626\u0645\u0629 \u0627\u0644\u0627\u0646\u062a\u0638\u0627\u0631",
  "commandUnit": "\u0648\u062d\u062f\u0629",
  "commandCustom": "\u0623\u0645\u0631 \u0645\u062e\u0635\u0635",
  "commandDeviceIdentification": "\u062a\u0639\u0631\u064a\u0641 \u0627\u0644\u062c\u0647\u0627\u0632",
  "commandPositionSingle": "\u0627\u0644\u0625\u0628\u0644\u0627\u063a \u0627\u0644\u0641\u0631\u062f\u064a",
  "commandPositionPeriodic": "\u0627\u0644\u062a\u0642\u0627\u0631\u064a\u0631 \u0627\u0644\u062f\u0648\u0631\u064a\u0629",
  "commandPositionStop": "\u062a\u0648\u0642\u0641 \u0639\u0646 \u0627\u0644\u0625\u0628\u0644\u0627\u063a",
  "commandEngineStop": "\u062a\u0648\u0642\u0641 \u0627\u0644\u0645\u062d\u0631\u0643",
  "commandEngineResume": "\u0627\u0633\u062a\u0626\u0646\u0627\u0641 \u0627\u0644\u0645\u062d\u0631\u0643",
  "commandAlarmArm": "\u062a\u0646\u0628\u064a\u0647 \u0627\u0644\u0630\u0631\u0627\u0639",
  "commandAlarmDisarm": "\u0646\u0632\u0639 \u0633\u0644\u0627\u062d \u0627\u0644\u0625\u0646\u0630\u0627\u0631",
  "commandAlarmDismiss": "\u062a\u062c\u0627\u0647\u0644 \u0627\u0644\u062a\u0646\u0628\u064a\u0647",
  "commandSetTimezone": "\u062a\u0639\u064a\u064a\u0646 \u0627\u0644\u0645\u0646\u0637\u0642\u0629 \u0627\u0644\u0632\u0645\u0646\u064a\u0629",
  "commandRequestPhoto": "\u0637\u0644\u0628 \u0635\u0648\u0631\u0629",
  "commandPowerOff": "\u062c\u0647\u0627\u0632 \u0642\u0637\u0639 \u0627\u0644\u062a\u064a\u0627\u0631 \u0627\u0644\u0643\u0647\u0631\u0628\u0627\u0626\u064a",
  "commandRebootDevice": "\u062c\u0647\u0627\u0632 \u0625\u0639\u0627\u062f\u0629 \u0627\u0644\u062a\u0634\u063a\u064a\u0644",
  "commandFactoryReset": "\u0627\u0639\u062f\u0627\u062f\u0627\u062a \u0627\u0644\u0645\u0635\u0646\u0639",
  "commandSendSms": "\u0623\u0631\u0633\u0644 \u0631\u0633\u0627\u0644\u0629 \u0646\u0635\u064a\u0629 \u0642\u0635\u064a\u0631\u0629",
  "commandSendUssd": "\u0623\u0631\u0633\u0644 USSD",
  "commandSosNumber": "\u0642\u0645 \u0628\u062a\u0639\u064a\u064a\u0646 \u0631\u0642\u0645 SOS",
  "commandSilenceTime": "\u0636\u0628\u0637 \u0648\u0642\u062a \u0627\u0644\u0635\u0645\u062a",
  "commandSetPhonebook": "\u0636\u0628\u0637 \u062f\u0644\u064a\u0644 \u0627\u0644\u0647\u0627\u062a\u0641",
  "commandVoiceMessage": "\u0631\u0633\u0627\u0644\u0629 \u0635\u0648\u062a\u064a\u0629",
  "commandOutputControl": "\u0627\u0644\u062a\u062d\u0643\u0645 \u0641\u064a \u0627\u0644\u0625\u062e\u0631\u0627\u062c",
  "commandVoiceMonitoring": "\u0645\u0631\u0627\u0642\u0628\u0629 \u0627\u0644\u0635\u0648\u062a",
  "commandSetAgps": "\u062a\u0639\u064a\u064a\u0646 AGPS",
  "commandSetIndicator": "\u0636\u0628\u0637 \u0627\u0644\u0645\u0624\u0634\u0631",
  "commandConfiguration": "\u062a\u0631\u062a\u064a\u0628",
  "commandGetVersion": "\u0627\u062d\u0635\u0644 \u0639\u0644\u0649 \u0627\u0644\u0625\u0635\u062f\u0627\u0631",
  "commandFirmwareUpdate": "\u062a\u062d\u062f\u064a\u062b \u0627\u0644\u0628\u0631\u0627\u0645\u062c \u0627\u0644\u062b\u0627\u0628\u062a\u0629",
  "commandSetConnection": "\u0636\u0628\u0637 \u0627\u0644\u0627\u062a\u0635\u0627\u0644",
  "commandSetOdometer": "\u062a\u0639\u064a\u064a\u0646 \u0639\u062f\u0627\u062f \u0627\u0644\u0645\u0633\u0627\u0641\u0627\u062a",
  "commandGetModemStatus": "\u0627\u062d\u0635\u0644 \u0639\u0644\u0649 \u062d\u0627\u0644\u0629 \u0627\u0644\u0645\u0648\u062f\u0645",
  "commandGetDeviceStatus": "\u0627\u062d\u0635\u0644 \u0639\u0644\u0649 \u062d\u0627\u0644\u0629 \u0627\u0644\u062c\u0647\u0627\u0632",
  "commandSetSpeedLimit": "\u062a\u0639\u064a\u064a\u0646 \u062d\u062f \u0627\u0644\u0633\u0631\u0639\u0629",
  "commandModePowerSaving": "\u0648\u0636\u0639 \u062a\u0648\u0641\u064a\u0631 \u0627\u0644\u0637\u0627\u0642\u0629",
  "commandModeDeepSleep": "\u0648\u0636\u0639 \u0627\u0644\u0646\u0648\u0645 \u0627\u0644\u0639\u0645\u064a\u0642",
  "commandAlarmGeofence": "\u0636\u0628\u0637 \u0645\u0646\u0628\u0647 \u0627\u0644\u0633\u064a\u0627\u062c \u0627\u0644\u062c\u063a\u0631\u0627\u0641\u064a",
  "commandAlarmBattery": "\u0636\u0628\u0637 \u0645\u0646\u0628\u0647 \u0627\u0644\u0628\u0637\u0627\u0631\u064a\u0629",
  "commandAlarmSos": "\u0636\u0628\u0637 \u0625\u0646\u0630\u0627\u0631 SOS",
  "commandAlarmRemove": "\u0642\u0645 \u0628\u062a\u0639\u064a\u064a\u0646 \"\u0625\u0632\u0627\u0644\u0629 \u0627\u0644\u0645\u0646\u0628\u0647\"",
  "commandAlarmClock": "\u0636\u0628\u0637 \u0627\u0644\u0645\u0646\u0628\u0647 \u0639\u0644\u0649 \u0645\u062f\u0627\u0631 \u0627\u0644\u0633\u0627\u0639\u0629",
  "commandAlarmSpeed": "\u0636\u0628\u0637 \u0625\u0646\u0630\u0627\u0631 \u0627\u0644\u0633\u0631\u0639\u0629",
  "commandAlarmFall": "\u0636\u0628\u0637 \u0645\u0646\u0628\u0647 \u0627\u0644\u0633\u0642\u0648\u0637",
  "commandAlarmVibration": "\u0636\u0628\u0637 \u0645\u0646\u0628\u0647 \u0627\u0644\u0627\u0647\u062a\u0632\u0627\u0632",
  "commandFrequency": "\u062a\u0643\u0631\u0631",
  "commandTimezone": "\u0625\u0632\u0627\u062d\u0629 \u0627\u0644\u0645\u0646\u0637\u0642\u0629 \u0627\u0644\u0632\u0645\u0646\u064a\u0629",
  "commandMessage": "\u0631\u0633\u0627\u0644\u0629",
  "commandRadius": "\u0646\u0635\u0641 \u0627\u0644\u0642\u0637\u0631",
  "commandEnable": "\u0645\u0645\u0643\u0646",
  "commandData": "\u0628\u064a\u0627\u0646\u0627\u062a",
  "commandIndex": "\u0641\u0650\u0647\u0631\u0650\u0633",
  "commandPhone": "\u0631\u0642\u0645 \u0627\u0644\u062a\u0644\u064a\u0641\u0648\u0646",
  "commandServer": "\u0627\u0644\u062e\u0627\u062f\u0645",
  "commandPort": "\u0645\u064a\u0646\u0627\u0621",
  "eventAll": "\u0643\u0644 \u0627\u0644\u0623\u062d\u062f\u0627\u062b",
  "eventDeviceOnline": "\u0627\u0644\u062d\u0627\u0644\u0629 \u0645\u062a\u0635\u0644",
  "eventDeviceUnknown": "\u0627\u0644\u062d\u0627\u0644\u0629 \u063a\u064a\u0631 \u0645\u0639\u0631\u0648\u0641\u0629",
  "eventDeviceOffline": "\u0627\u0644\u0648\u0636\u0639 \u062d\u0627\u0644\u064a\u0627",
  "eventDeviceInactive": "\u0627\u0644\u062c\u0647\u0627\u0632 \u063a\u064a\u0631 \u0646\u0634\u0637",
  "eventDeviceMoving": "\u0627\u0644\u062c\u0647\u0627\u0632 \u064a\u062a\u062d\u0631\u0643",
  "eventDeviceStopped": "\u062a\u0648\u0642\u0641 \u0627\u0644\u062c\u0647\u0627\u0632",
  "eventDeviceOverspeed": "\u062a\u0645 \u062a\u062c\u0627\u0648\u0632 \u062d\u062f \u0627\u0644\u0633\u0631\u0639\u0629",
  "eventDeviceFuelDrop": "\u0642\u0637\u0631\u0629 \u0627\u0644\u0648\u0642\u0648\u062f",
  "eventDeviceFuelIncrease": "\u0632\u064a\u0627\u062f\u0629 \u0627\u0644\u0648\u0642\u0648\u062f",
  "eventCommandResult": "\u0646\u062a\u064a\u062c\u0629 \u0627\u0644\u0623\u0645\u0631",
  "eventGeofenceEnter": "\u062f\u062e\u0644\u062a Geofence",
  "eventGeofenceExit": "\u062a\u0645 \u0627\u0644\u062e\u0631\u0648\u062c \u0645\u0646 Geofence",
  "eventAlarm": "\u0625\u0646\u0630\u0627\u0631",
  "eventIgnitionOn": "\u0627\u0634\u062a\u0639\u0627\u0644",
  "eventIgnitionOff": "\u0627\u0634\u062a\u0639\u0627\u0644",
  "eventMaintenance": "\u0635\u064a\u0627\u0646\u0629 \u0645\u0637\u0644\u0648\u0628\u0629",
  "eventTextMessage": "\u062a\u0645 \u0627\u0633\u062a\u0644\u0627\u0645 \u0631\u0633\u0627\u0644\u0629 \u0646\u0635\u064a\u0629",
  "eventDriverChanged": "\u062a\u063a\u064a\u0631 \u0627\u0644\u0633\u0627\u0626\u0642",
  "eventMedia": "\u0648\u0633\u0627\u0626\u0644 \u0627\u0644\u0625\u0639\u0644\u0627\u0645",
  "eventsScrollToLast": "\u0627\u0646\u062a\u0642\u0644 \u0625\u0644\u0649 \u0627\u0644\u0623\u062e\u064a\u0631",
  "eventsSoundEvents": "\u0623\u062d\u062f\u0627\u062b \u0627\u0644\u0635\u0648\u062a",
  "eventsSoundAlarms": "\u0627\u0644\u0625\u0646\u0630\u0627\u0631\u0627\u062a \u0627\u0644\u0635\u0648\u062a\u064a\u0629",
  "alarmGeneral": "\u0639\u0627\u0645",
  "alarmSos": "SOS",
  "alarmVibration": "\u0627\u0647\u062a\u0632\u0627\u0632",
  "alarmMovement": "\u062d\u0631\u0643\u0629",
  "alarmLowspeed": "\u0633\u0631\u0639\u0629 \u0645\u0646\u062e\u0641\u0636\u0629",
  "alarmOverspeed": "\u0627\u0644\u0633\u0631\u0639\u0629 \u0627\u0644\u0632\u0627\u0626\u062f\u0629",
  "alarmFallDown": "\u0633\u0642\u0637",
  "alarmLowPower": "\u0637\u0627\u0642\u0629 \u0645\u0646\u062e\u0641\u0636\u0629",
  "alarmLowBattery": "\u0627\u0644\u0628\u0637\u0627\u0631\u064a\u0629 \u0636\u0639\u064a\u0641\u0629",
  "alarmFault": "\u062e\u0637\u0623",
  "alarmPowerOff": "\u0627\u0646\u0642\u0637\u0627\u0639 \u0627\u0644\u062a\u064a\u0627\u0631 \u0627\u0644\u0643\u0647\u0631\u0628\u0627\u0626\u064a",
  "alarmPowerOn": "\u062a\u0634\u063a\u064a\u0644",
  "alarmDoor": "\u0628\u0627\u0628",
  "alarmLock": "\u0642\u0641\u0644",
  "alarmUnlock": "\u0627\u0644\u063a\u0627\u0621 \u0627\u0644\u0642\u0641\u0644",
  "alarmGeofence": "\u0633\u064a\u0627\u062c \u062c\u063a\u0631\u0627\u0641\u064a",
  "alarmGeofenceEnter": "\u0623\u062f\u062e\u0644 \u0627\u0644\u0633\u064a\u0627\u062c \u0627\u0644\u062c\u063a\u0631\u0627\u0641\u064a",
  "alarmGeofenceExit": "\u062e\u0631\u0648\u062c \u0627\u0644\u0633\u064a\u0627\u062c \u0627\u0644\u062c\u063a\u0631\u0627\u0641\u064a",
  "alarmGpsAntennaCut": "\u0642\u0637\u0639 \u0647\u0648\u0627\u0626\u064a GPS",
  "alarmAccident": "\u062d\u0627\u062f\u062b\u0629",
  "alarmTow": "\u064a\u0633\u062d\u0628",
  "alarmIdle": "\u0639\u0627\u0637\u0644",
  "alarmHighRpm": "\u0627\u0631\u062a\u0641\u0627\u0639 \u0639\u062f\u062f \u0627\u0644\u062f\u0648\u0631\u0627\u062a \u0641\u064a \u0627\u0644\u062f\u0642\u064a\u0642\u0629",
  "alarmHardAcceleration": "\u062a\u0633\u0631\u064a\u0639 \u0635\u0639\u0628",
  "alarmHardBraking": "\u0627\u0644\u0643\u0628\u062d \u0627\u0644\u0635\u0639\u0628",
  "alarmHardCornering": "\u0627\u0644\u0645\u0646\u0639\u0637\u0641\u0627\u062a \u0627\u0644\u0635\u0639\u0628\u0629",
  "alarmLaneChange": "\u062a\u063a\u064a\u064a\u0631 \u0627\u0644\u062d\u0627\u0631\u0629",
  "alarmFatigueDriving": "\u0627\u0644\u0642\u064a\u0627\u062f\u0629 \u0627\u0644\u0645\u062a\u0639\u0628\u0629",
  "alarmPowerCut": "\u0627\u0646\u0642\u0637\u0627\u0639 \u0627\u0644\u062a\u064a\u0627\u0631",
  "alarmPowerRestored": "\u0627\u0633\u062a\u0639\u0627\u062f\u0629 \u0627\u0644\u0637\u0627\u0642\u0629",
  "alarmJamming": "\u0627\u0644\u062a\u0634\u0648\u064a\u0634",
  "alarmTemperature": "\u062f\u0631\u062c\u0629 \u0627\u0644\u062d\u0631\u0627\u0631\u0629",
  "alarmParking": "\u0645\u0648\u0642\u0641 \u0633\u064a\u0627\u0631\u0627\u062a",
  "alarmBonnet": "\u063a\u0637\u0627\u0621 \u0645\u062d\u0631\u0643 \u0627\u0644\u0633\u064a\u0627\u0631\u0629",
  "alarmFootBrake": "\u0641\u0631\u0627\u0645\u0644 \u0627\u0644\u0642\u062f\u0645",
  "alarmFuelLeak": "\u062a\u0633\u0631\u0628 \u0627\u0644\u0648\u0642\u0648\u062f",
  "alarmTampering": "\u0627\u0644\u0639\u0628\u062b",
  "alarmRemoving": "\u0625\u0632\u0627\u0644\u0629",
  "notificationType": "\u0646\u0648\u0639 \u0627\u0644\u0625\u062e\u0637\u0627\u0631",
  "notificationAlways": "\u062c\u0645\u064a\u0639 \u0627\u0644\u0627\u062c\u0647\u0632\u0629",
  "notificationNotificators": "\u0627\u0644\u0642\u0646\u0648\u0627\u062a",
  "notificatorWeb": "\u0627\u0644\u0648\u064a\u0628",
  "notificatorMail": "\u0628\u0631\u064a\u062f",
  "notificatorSms": "\u0631\u0633\u0627\u0644\u0629 \u0642\u0635\u064a\u0631\u0629",
  "notificatorFirebase": "Firebase",
  "notificatorTraccar": "\u0645\u0633\u0627\u0631",
  "notificatorTelegram": "\u0628\u0631\u0642\u064a\u0629",
  "notificatorPushover": "\u0645\u0647\u0645\u0629 \u0633\u0647\u0644\u0629",
  "reportReplay": "\u0627\u0639\u0627\u062f\u062a\u0647\u0627",
  "reportRoute": "\u0637\u0631\u064a\u0642",
  "reportEvents": "\u0627\u0644\u0623\u062d\u062f\u0627\u062b",
  "reportTrips": "\u0631\u062d\u0644\u0627\u062a",
  "reportStops": "\u062a\u0648\u0642\u0641",
  "reportSummary": "\u0645\u0644\u062e\u0635",
  "reportDaily": "\u0645\u0644\u062e\u0635 \u064a\u0648\u0645\u064a",
  "reportChart": "\u062c\u062f\u0648\u0644",
  "reportConfigure": "\u062a\u0647\u064a\u0626\u0629",
  "reportEventTypes": "\u0623\u0646\u0648\u0627\u0639 \u0627\u0644\u0623\u062d\u062f\u0627\u062b",
  "reportChartType": "\u0646\u0648\u0639 \u0627\u0644\u062a\u062e\u0637\u064a\u0637",
  "reportShowMarkers": "\u0625\u0638\u0647\u0627\u0631 \u0627\u0644\u0639\u0644\u0627\u0645\u0627\u062a",
  "reportExport": "\u064a\u0635\u062f\u0651\u0631",
  "reportEmail": "\u062a\u0642\u0631\u064a\u0631 \u0628\u0627\u0644\u0628\u0631\u064a\u062f \u0627\u0644\u0625\u0644\u0643\u062a\u0631\u0648\u0646\u064a",
  "reportPeriod": "\u0641\u062a\u0631\u0629",
  "reportCustom": "\u0627\u0644\u0639\u0627\u062f\u0629",
  "reportToday": "\u0627\u0644\u064a\u0648\u0645",
  "reportYesterday": "\u0641\u064a \u0627\u0644\u0627\u0645\u0633",
  "reportThisWeek": "\u0647\u0630\u0627 \u0627\u0644\u0627\u0633\u0628\u0648\u0639",
  "reportPreviousWeek": "\u0627\u0644\u0623\u0633\u0628\u0648\u0639 \u0627\u0644\u0633\u0627\u0628\u0642",
  "reportThisMonth": "\u0647\u0630\u0627 \u0627\u0644\u0634\u0647\u0631",
  "reportPreviousMonth": "\u0627\u0644\u0634\u0647\u0631 \u0627\u0644\u0645\u0627\u0636\u0649",
  "reportDeviceName": "\u0627\u0633\u0645 \u0627\u0644\u062c\u0647\u0627\u0632",
  "reportAverageSpeed": "\u0645\u062a\u0648\u0633\u0637 \u200b\u200b\u0627\u0644\u0633\u0631\u0639\u0629",
  "reportMaximumSpeed": "\u0627\u0644\u0633\u0631\u0639\u0629 \u0627\u0644\u0642\u0635\u0648\u0649",
  "reportEngineHours": "\u0633\u0627\u0639\u0627\u062a \u0645\u062d\u0631\u0643",
  "reportDuration": "\u0645\u062f\u0629",
  "reportStartDate": "\u062a\u0627\u0631\u064a\u062e \u0627\u0644\u0628\u062f\u0621",
  "reportStartTime": "\u0648\u0642\u062a \u0627\u0644\u0628\u062f\u0621",
  "reportStartAddress": "\u0639\u0646\u0648\u0627\u0646 \u0627\u0644\u0628\u062f\u0627\u064a\u0629",
  "reportEndTime": "\u0648\u0642\u062a \u0627\u0644\u0646\u0647\u0627\u064a\u0629",
  "reportEndAddress": "\u0639\u0646\u0648\u0627\u0646 \u0627\u0644\u0646\u0647\u0627\u064a\u0629",
  "reportSpentFuel": "\u0627\u0644\u0648\u0642\u0648\u062f \u0627\u0644\u0645\u0633\u062a\u0646\u0641\u062f",
  "reportStartOdometer": "\u0628\u062f\u0621 \u0639\u062f\u0627\u062f \u0627\u0644\u0645\u0633\u0627\u0641\u0627\u062a",
  "reportEndOdometer": "\u0646\u0647\u0627\u064a\u0629 \u0639\u062f\u0627\u062f \u0627\u0644\u0645\u0633\u0627\u0641\u0627\u062a",
  "statisticsTitle": "\u0625\u062d\u0635\u0627\u0626\u064a\u0627\u062a",
  "statisticsCaptureTime": "\u0648\u0642\u062a \u0627\u0644\u0627\u0644\u062a\u0642\u0627\u0637",
  "statisticsActiveUsers": "\u0627\u0644\u0645\u0633\u062a\u062e\u062f\u0645\u064a\u0646 \u0627\u0644\u0646\u0634\u0637\u064a\u0646",
  "statisticsActiveDevices": "\u0627\u0644\u0623\u062c\u0647\u0632\u0629 \u0627\u0644\u0646\u0634\u0637\u0629",
  "statisticsRequests": "\u0627\u0644\u0637\u0644\u0628\u0627\u062a",
  "statisticsMessagesReceived": "\u062a\u0645 \u0627\u0633\u062a\u0644\u0627\u0645 \u0627\u0644\u0631\u0633\u0627\u0626\u0644",
  "statisticsMessagesStored": "\u0627\u0644\u0631\u0633\u0627\u0626\u0644 \u0627\u0644\u0645\u062e\u0632\u0646\u0629",
  "statisticsGeocoder": "\u0637\u0644\u0628\u0627\u062a \u0627\u0644\u0645\u0643\u0648\u062f \u0627\u0644\u062c\u063a\u0631\u0627\u0641\u064a",
  "statisticsGeolocation": "\u0637\u0644\u0628\u0627\u062a \u062a\u062d\u062f\u064a\u062f \u0627\u0644\u0645\u0648\u0642\u0639 \u0627\u0644\u062c\u063a\u0631\u0627\u0641\u064a",
  "categoryArrow": "\u0633\u0647\u0645",
  "categoryDefault": "\u062a\u0642\u0635\u064a\u0631",
  "categoryAnimal": "\u062d\u064a\u0648\u0627\u0646",
  "categoryBicycle": "\u062f\u0631\u0627\u062c\u0629",
  "categoryBoat": "\u0642\u0627\u0631\u0628",
  "categoryBus": "\u0623\u0648\u062a\u0648\u0628\u064a\u0633",
  "categoryCar": "\u0633\u064a\u0627\u0631\u0629",
  "categoryCrane": "\u0631\u0627\u0641\u0639\u0647",
  "categoryHelicopter": "\u0647\u0644\u064a\u0643\u0648\u0628\u062a\u0631",
  "categoryMotorcycle": "\u062f\u0631\u0627\u062c\u0629 \u0646\u0627\u0631\u064a\u0629",
  "categoryOffroad": "\u062e\u0627\u0631\u062c \u0627\u0644\u0645\u0633\u0627\u0631",
  "categoryPerson": "\u0634\u062e\u0635",
  "categoryPickup": "\u064a\u0644\u062a\u0642\u0637",
  "categoryPlane": "\u0637\u0627\u0626\u0631\u0629",
  "categoryShip": "\u0633\u0641\u064a\u0646\u0629",
  "categoryTractor": "\u062c\u0631\u0627\u0631 \u0632\u0631\u0627\u0639\u0649",
  "categoryTrain": "\u0642\u0637\u0627\u0631",
  "categoryTram": "\u0646\u0648\u0639 \u0645\u0646 \u0627\u0644\u0642\u0637\u0627\u0631\u0627\u062a",
  "categoryTrolleybus": "\u062a\u0631\u0648\u0644\u064a\u0628\u0648\u0633",
  "categoryTruck": "\u0634\u0627\u062d\u0646\u0629",
  "categoryVan": "\u0633\u064a\u0627\u0631\u0629 \u0646\u0642\u0644",
  "categoryScooter": "\u0633\u0643\u0648\u062a\u0631",
  "maintenanceStart": "\u0628\u062f\u0627\u064a\u0629",
  "maintenancePeriod": "\u0641\u062a\u0631\u0629"
}