{
  "sharedLoading": "Y\u00fckleniyor...",
  "sharedHide": "Saklamak",
  "sharedSave": "Kay\u0131t etmek",
  "sharedSet": "Ayarlamak",
  "sharedCancel": "\u0130ptal etmek",
  "sharedAdd": "Eklemek",
  "sharedEdit": "D\u00fczenlemek",
  "sharedRemove": "Kald\u0131rmak",
  "sharedRemoveConfirm": "\u00d6\u011feyi kald\u0131rmak?",
  "sharedNoData": "Veri yok",
  "sharedYes": "Evet",
  "sharedNo": "Numara",
  "sharedKm": "km",
  "sharedMi": "mi",
  "sharedNmi": "nmi",
  "sharedMeters": "m",
  "sharedFeet": "ft",
  "sharedKn": "kn",
  "sharedKmh": "km/s",
  "sharedMph": "mil",
  "sharedHour": "Saat",
  "sharedMinute": "Dakika",
  "sharedSecond": "\u0130kinci",
  "sharedDays": "g\u00fcnler",
  "sharedHours": "saat",
  "sharedMinutes": "dakika",
  "sharedDecimalDegrees": "Ondal\u0131k Derece",
  "sharedDegreesDecimalMinutes": "Derece Ondal\u0131k Dakika",
  "sharedDegreesMinutesSeconds": "Derece Dakika Saniye",
  "sharedName": "\u0130sim",
  "sharedDescription": "A\u00e7\u0131klama",
  "sharedSearch": "Aramak",
  "sharedIconScale": "Simge \u00d6l\u00e7e\u011fi",
  "sharedGeofence": "Geofence",
  "sharedGeofences": "co\u011frafi \u00e7itler",
  "sharedCreateGeofence": "Geofence Olu\u015ftur",
  "sharedNotifications": "Bildirimler",
  "sharedNotification": "Bildiri",
  "sharedAttributes": "\u00d6znitellikler",
  "sharedAttribute": "Ba\u011flanmak",
  "sharedDrivers": "S\u00fcr\u00fcc\u00fcler",
  "sharedDriver": "s\u00fcr\u00fcc\u00fc",
  "sharedArea": "Alan",
  "sharedSound": "Bilgilendirme sesi",
  "sharedType": "Tip",
  "sharedDistance": "Mesafe",
  "sharedHourAbbreviation": "h",
  "sharedMinuteAbbreviation": "m",
  "sharedSecondAbbreviation": "s",
  "sharedVoltAbbreviation": "V",
  "sharedLiterAbbreviation": "ben",
  "sharedGallonAbbreviation": "gal",
  "sharedLiter": "Litre",
  "sharedImpGallon": "\u0130th. Galon",
  "sharedUsGallon": "ABD Galonu",
  "sharedLiterPerHourAbbreviation": "l/s",
  "sharedGetMapState": "Harita Durumunu Al\u0131n",
  "sharedComputedAttribute": "Hesaplanm\u0131\u015f \u00d6znitelik",
  "sharedComputedAttributes": "Hesaplanan Nitelikler",
  "sharedCheckComputedAttribute": "Hesaplanm\u0131\u015f \u00d6zelli\u011fi Kontrol Edin",
  "sharedExpression": "\u0130fade",
  "sharedDevice": "Cihaz",
  "sharedTest": "\u00d6l\u00e7ek",
  "sharedTestNotification": "Test Bildirimi G\u00f6nder",
  "sharedTestNotificators": "Test Kanallar\u0131",
  "sharedTestExpression": "Test \u0130fadesi",
  "sharedCalendar": "Takvim",
  "sharedCalendars": "Takvimler",
  "sharedFile": "Dosya",
  "sharedSearchDevices": "Arama Cihazlar\u0131",
  "sharedSortBy": "G\u00f6re s\u0131rala",
  "sharedFilterMap": "Haritada Filtrele",
  "sharedSelectFile": "Dosya Se\u00e7",
  "sharedPhone": "Telefon",
  "sharedRequired": "Gerekli",
  "sharedPreferences": "Tercihler",
  "sharedPermissions": "\u0130zinler",
  "sharedConnections": "Ba\u011flant\u0131lar",
  "sharedExtra": "Ekstra",
  "sharedPrimary": "\u00d6ncelik",
  "sharedSecondary": "\u0130kincil",
  "sharedTypeString": "Sicim",
  "sharedTypeNumber": "Say\u0131",
  "sharedTypeBoolean": "boole",
  "sharedTimezone": "Saat dilimi",
  "sharedInfoTitle": "Bilgi",
  "sharedSavedCommand": "Kay\u0131tl\u0131 Komut",
  "sharedSavedCommands": "Kay\u0131tl\u0131 Komutlar",
  "sharedNew": "Yeni\u00e2\u20ac\u00a6",
  "sharedShowAddress": "Adresi G\u00f6ster",
  "sharedShowDetails": "Daha fazla detay",
  "sharedDisabled": "Engelli",
  "sharedMaintenance": "Bak\u0131m onar\u0131m",
  "sharedDeviceAccumulators": "ak\u00fcm\u00fclat\u00f6rler",
  "sharedAlarms": "alarmlar",
  "sharedLocation": "Konum",
  "sharedImport": "\u0130\u00e7e aktarmak",
  "sharedColumns": "S\u00fctunlar",
  "sharedDropzoneText": "Bir dosyay\u0131 buraya s\u00fcr\u00fckleyip b\u0131rak\u0131n veya t\u0131klay\u0131n",
  "calendarSimple": "Basit",
  "calendarRecurrence": "N\u00fcks",
  "calendarOnce": "Bir kere",
  "calendarDaily": "G\u00fcnl\u00fck",
  "calendarWeekly": "Haftal\u0131k",
  "calendarMonthly": "Ayl\u0131k",
  "calendarDays": "g\u00fcn",
  "calendarSunday": "Pazar",
  "calendarMonday": "Pazartesi",
  "calendarTuesday": "Sal\u0131",
  "calendarWednesday": "\u00c7ar\u015famba",
  "calendarThursday": "Per\u015fembe",
  "calendarFriday": "Cuma",
  "calendarSaturday": "Cumartesi",
  "attributeShowGeofences": "Co\u011frafi S\u0131n\u0131rlar\u0131 G\u00f6ster",
  "attributeSpeedLimit": "H\u0131z Limiti",
  "attributeFuelDropThreshold": "Yak\u0131t D\u00fc\u015f\u00fcrme E\u015fi\u011fi",
  "attributeFuelIncreaseThreshold": "Yak\u0131t Art\u0131\u015f E\u015fi\u011fi",
  "attributePolylineDistance": "\u00c7oklu \u00c7izgi Mesafesi",
  "attributeReportIgnoreOdometer": "Rapor: Kilometre Sayac\u0131 Yoksay",
  "attributeWebReportColor": "Web: Rapor Rengi",
  "attributeDevicePassword": "Cihaz parolas\u0131",
  "attributeDeviceImage": "Cihaz Resmi",
  "attributeDeviceInactivityStart": "Cihaz Hareketsizlik Ba\u015flang\u0131\u00e7",
  "attributeDeviceInactivityPeriod": "Cihaz Hareketsizlik D\u00f6nemi",
  "attributeProcessingCopyAttributes": "\u0130\u015fleme: Nitelikleri Kopyala",
  "attributeColor": "Renk",
  "attributeWebLiveRouteLength": "Web: Canl\u0131 Rota Uzunlu\u011fu",
  "attributeWebSelectZoom": "Web: Se\u00e7imi Yak\u0131nla\u015ft\u0131r",
  "attributeWebMaxZoom": "Web: Maksimum Yak\u0131nla\u015ft\u0131rma",
  "attributeTelegramChatId": "Telgraf Sohbet Kimli\u011fi",
  "attributePushoverUserKey": "\u0130tme Kullan\u0131c\u0131 Anahtar\u0131",
  "attributePushoverDeviceNames": "\u0130tme Cihaz \u0130simleri",
  "attributeMailSmtpHost": "Posta: SMTP Ana Bilgisayar\u0131",
  "attributeMailSmtpPort": "Posta: SMTP Ba\u011flant\u0131 Noktas\u0131",
  "attributeMailSmtpStarttlsEnable": "Posta: SMTP STARTTLS Etkinle\u015ftir",
  "attributeMailSmtpStarttlsRequired": "Posta: SMTP STARTTLS Gerekli",
  "attributeMailSmtpSslEnable": "Posta: SMTP SSL Etkinle\u015ftir",
  "attributeMailSmtpSslTrust": "Posta: SMTP SSL G\u00fcveni",
  "attributeMailSmtpSslProtocols": "Posta: SMTP SSL Protokolleri",
  "attributeMailSmtpFrom": "Posta: SMTP G\u00f6nderen",
  "attributeMailSmtpAuth": "Posta: SMTP Kimlik Do\u011frulamay\u0131 Etkinle\u015ftir",
  "attributeMailSmtpUsername": "Posta: SMTP Kullan\u0131c\u0131 Ad\u0131",
  "attributeMailSmtpPassword": "Posta: SMTP \u015eifresi",
  "attributeUiDisableAttributes": "Kullan\u0131c\u0131 Aray\u00fcz\u00fc: Nitelikleri Devre D\u0131\u015f\u0131 B\u0131rak",
  "attributeUiDisableGroups": "Kullan\u0131c\u0131 Aray\u00fcz\u00fc: Gruplar\u0131 Devre D\u0131\u015f\u0131 B\u0131rak",
  "attributeUiDisableEvents": "Kullan\u0131c\u0131 Aray\u00fcz\u00fc: Etkinlikleri Devre D\u0131\u015f\u0131 B\u0131rak",
  "attributeUiDisableVehicleFetures": "Kullan\u0131c\u0131 Aray\u00fcz\u00fc: Ara\u00e7 \u00d6zelliklerini Devre D\u0131\u015f\u0131 B\u0131rak",
  "attributeUiDisableDrivers": "Kullan\u0131c\u0131 Aray\u00fcz\u00fc: S\u00fcr\u00fcc\u00fcleri Devre D\u0131\u015f\u0131 B\u0131rak",
  "attributeUiDisableComputedAttributes": "Kullan\u0131c\u0131 Aray\u00fcz\u00fc: Hesaplanan Nitelikleri Devre D\u0131\u015f\u0131 B\u0131rak",
  "attributeUiDisableCalendars": "Kullan\u0131c\u0131 Aray\u00fcz\u00fc: Takvimleri Devre D\u0131\u015f\u0131 B\u0131rak",
  "attributeUiDisableMaintenance": "Kullan\u0131c\u0131 Aray\u00fcz\u00fc: Bak\u0131m\u0131 Devre D\u0131\u015f\u0131 B\u0131rak",
  "attributeUiHidePositionAttributes": "Kullan\u0131c\u0131 Aray\u00fcz\u00fc: Konum Niteliklerini Gizle",
  "attributeUiDisableLoginLanguage": "Kullan\u0131c\u0131 Aray\u00fcz\u00fc: Oturum A\u00e7ma Dilini Devre D\u0131\u015f\u0131 B\u0131rak",
  "attributeNotificationTokens": "Bildirim Jetonlar\u0131",
  "attributePopupInfo": "A\u00e7\u0131l\u0131r Bilgi",
  "errorTitle": "Hata",
  "errorGeneral": "Ge\u00e7ersiz parametreler veya k\u0131s\u0131tlama ihlali",
  "errorConnection": "Ba\u011flant\u0131 hatas\u0131",
  "errorSocket": "Web soketi ba\u011flant\u0131 hatas\u0131",
  "errorZero": "s\u0131f\u0131r olamaz",
  "userEmail": "E-posta",
  "userPassword": "Parola",
  "userAdmin": "y\u00f6netici",
  "userRemember": "Unutma",
  "userExpirationTime": "Son",
  "userDeviceLimit": "Cihaz S\u0131n\u0131r\u0131",
  "userUserLimit": "Kullan\u0131c\u0131 S\u0131n\u0131r\u0131",
  "userDeviceReadonly": "Cihaz Salt Okunur",
  "userLimitCommands": "Limit Komutlar\u0131",
  "userDisableReports": "Raporlar\u0131 Devre D\u0131\u015f\u0131 B\u0131rak",
  "userFixedEmail": "E-posta De\u011fi\u015fikli\u011fi Yok",
  "userToken": "Jeton",
  "userDeleteAccount": "Hesab\u0131 sil",
  "loginTitle": "Giri\u015f yapmak",
  "loginLanguage": "Dil",
  "loginReset": "\u015eifreyi yenile",
  "loginRegister": "Kay\u0131t ol",
  "loginLogin": "Giri\u015f yapmak",
  "loginFailed": "Yanl\u0131\u015f e-posta adresi veya \u015fifre",
  "loginCreated": "Yeni kullan\u0131c\u0131 kaydedildi",
  "loginResetSuccess": "E-postan\u0131 kontrol et",
  "loginUpdateSuccess": "Yeni \u015fifre belirlendi",
  "loginLogout": "\u00c7\u0131k\u0131\u015f Yap",
  "loginLogo": "Logo",
  "devicesAndState": "Cihazlar ve Durum",
  "deviceSelected": "Se\u00e7ilen Cihaz",
  "deviceTitle": "Cihazlar",
  "devicePrimaryInfo": "Cihaz Ba\u015fl\u0131\u011f\u0131",
  "deviceSecondaryInfo": "Cihaz Detay\u0131",
  "deviceIdentifier": "tan\u0131mlay\u0131c\u0131",
  "deviceModel": "Modeli",
  "deviceContact": "Temas etmek",
  "deviceCategory": "Kategori",
  "deviceLastUpdate": "Son G\u00fcncelleme",
  "deviceCommand": "Emretmek",
  "deviceFollow": "Takip et",
  "deviceTotalDistance": "Toplam mesafe",
  "deviceStatus": "Durum",
  "deviceStatusOnline": "\u0130nternet \u00fczerinden",
  "deviceStatusOffline": "\u00e7evrimd\u0131\u015f\u0131",
  "deviceStatusUnknown": "Bilinmeyen",
  "groupDialog": "Grup",
  "groupParent": "Grup",
  "groupNoGroup": "Grup Yok",
  "settingsTitle": "Ayarlar",
  "settingsUser": "Hesap",
  "settingsGroups": "Gruplar",
  "settingsServer": "sunucu",
  "settingsUsers": "Kullan\u0131c\u0131lar",
  "settingsDistanceUnit": "Mesafe Birimi",
  "settingsAltitudeUnit": "Rak\u0131m Birimi",
  "settingsSpeedUnit": "H\u0131z Birimi",
  "settingsVolumeUnit": "Hacim Birimi",
  "settingsTwelveHourFormat": "12 saatlik Format",
  "settingsCoordinateFormat": "Koordinat Format\u0131",
  "settingsServerVersion": "Sunucu S\u00fcr\u00fcm\u00fc",
  "settingsAppVersion": "Uygulama s\u00fcr\u00fcm\u00fc",
  "settingsConnection": "Ba\u011flant\u0131",
  "reportTitle": "Raporlar",
  "reportDevice": "Cihaz",
  "reportGroup": "Grup",
  "reportFrom": "\u0130tibaren",
  "reportTo": "\u0130le",
  "reportShow": "G\u00f6stermek",
  "reportClear": "Temizlemek",
  "linkGoogleMaps": "Google Haritalar",
  "linkAppleMaps": "elma haritalar\u0131",
  "linkStreetView": "sokak G\u00f6r\u00fcn\u00fcm\u00fc",
  "positionFixTime": "D\u00fczeltme S\u00fcresi",
  "positionDeviceTime": "Cihaz Saati",
  "positionServerTime": "Sunucu zaman\u0131",
  "positionValid": "Ge\u00e7erli",
  "positionAccuracy": "Kesinlik",
  "positionLatitude": "Enlem",
  "positionLongitude": "Boylam",
  "positionAltitude": "Rak\u0131m",
  "positionSpeed": "H\u0131z",
  "positionCourse": "Kurs",
  "positionAddress": "Adres",
  "positionProtocol": "Protokol",
  "positionDistance": "Mesafe",
  "positionRpm": "RPM",
  "positionFuel": "Yak\u0131t",
  "positionPower": "G\u00fc\u00e7",
  "positionBattery": "Pil",
  "positionRaw": "\u00c7i\u011f",
  "positionIndex": "dizin",
  "positionHdop": "HDOP",
  "positionVdop": "VDOP",
  "positionPdop": "PDOP",
  "positionSat": "uydular",
  "positionSatVisible": "G\u00f6r\u00fcn\u00fcr Uydular",
  "positionRssi": "RSSI",
  "positionGps": "K\u00fcresel Konumlama Sistemi",
  "positionRoaming": "Roaming",
  "positionEvent": "Etkinlik",
  "positionAlarm": "Alarm",
  "positionStatus": "Durum",
  "positionOdometer": "Kilometre sayac\u0131",
  "positionServiceOdometer": "Servis Kilometre Sayac\u0131",
  "positionTripOdometer": "Yolculuk Kilometre Sayac\u0131",
  "positionHours": "Saat",
  "positionSteps": "Ad\u0131mlar",
  "positionInput": "Giri\u015f",
  "positionOutput": "\u00c7\u0131kt\u0131",
  "positionBatteryLevel": "Pil seviyesi",
  "positionFuelConsumption": "Yak\u0131t t\u00fcketimi",
  "positionRfid": "rfid",
  "positionVersionFw": "Donan\u0131m Yaz\u0131l\u0131m\u0131 S\u00fcr\u00fcm\u00fc",
  "positionVersionHw": "donan\u0131m versiyonu",
  "positionIgnition": "Ate\u015fleme",
  "positionFlags": "Bayraklar",
  "positionCharge": "\u015earj etmek",
  "positionIp": "IP",
  "positionArchive": "Ar\u015fiv",
  "positionVin": "VIN",
  "positionApproximate": "Yakla\u015f\u0131k",
  "positionThrottle": "K\u0131sma",
  "positionMotion": "Hareket",
  "positionArmed": "silahl\u0131",
  "positionAcceleration": "H\u0131zlanma",
  "positionTemp": "Hava s\u0131cakl\u0131\u011f\u0131",
  "positionDeviceTemp": "Cihaz S\u0131cakl\u0131\u011f\u0131",
  "positionOperator": "\u015eebeke",
  "positionCommand": "Emretmek",
  "positionBlocked": "Engellendi",
  "positionDtcs": "DTC'ler",
  "positionObdSpeed": "OBD H\u0131z\u0131",
  "positionObdOdometer": "OBD Kilometre Sayac\u0131",
  "positionDriverUniqueId": "S\u00fcr\u00fcc\u00fc Benzersiz Kimli\u011fi",
  "positionImage": "resim",
  "positionVideo": "Video",
  "positionAudio": "Ses",
  "serverTitle": "Sunucu Ayarlar\u0131",
  "serverZoom": "yak\u0131nla\u015ft\u0131r",
  "serverRegistration": "kay\u0131t",
  "serverReadonly": "Sadece oku",
  "serverForceSettings": "Ayarlar\u0131 Zorla",
  "serverAnnouncement": "Duyuru",
  "mapTitle": "Harita",
  "mapActive": "Aktif Haritalar",
  "mapOverlay": "Harita Yerle\u015fimi",
  "mapOverlayCustom": "\u00d6zel Bindirme",
  "mapOpenSeaMap": "OpenSeaMap",
  "mapOpenWeatherKey": "OpenWeather API Anahtar\u0131",
  "mapOpenWeatherClouds": "A\u00e7\u0131k Hava Bulutlar\u0131",
  "mapOpenWeatherPrecipitation": "A\u00e7\u0131k Hava Ya\u011f\u0131\u015f",
  "mapOpenWeatherPressure": "A\u00e7\u0131k Hava Bas\u0131nc\u0131",
  "mapOpenWeatherWind": "A\u00e7\u0131k Hava R\u00fczgar\u0131",
  "mapOpenWeatherTemperature": "A\u00e7\u0131kHava S\u0131cakl\u0131\u011f\u0131",
  "mapLayer": "Harita Katman\u0131",
  "mapCustom": "\u00d6zel (XYZ)",
  "mapCustomArcgis": "\u00d6zel (ArcGIS)",
  "mapCustomLabel": "\u00d6zel harita",
  "mapCarto": "Carto Altl\u0131k Haritalar\u0131",
  "mapOsm": "A\u00e7\u0131k Sokak Haritas\u0131",
  "mapGoogleRoad": "Google Yolu",
  "mapGoogleHybrid": "Google Karma",
  "mapGoogleSatellite": "Google Uydu",
  "mapOpenTopoMap": "OpenTopoMap",
  "mapBingKey": "Bing Haritalar Anahtar\u0131",
  "mapBingRoad": "Bing Haritalar Yolu",
  "mapBingAerial": "Bing Haritalar Anteni",
  "mapBingHybrid": "Bing Haritalar Karma",
  "mapBaidu": "Baidu",
  "mapAutoNavi": "Otomatik Navigasyon",
  "mapYandexMap": "Yandex Haritas\u0131",
  "mapYandexSat": "Yandex Uydu",
  "mapWikimedia": "Wikimedia Commons",
  "mapOrdnanceSurvey": "M\u00fchimmat Ara\u015ft\u0131rmas\u0131",
  "mapMapboxStreets": "Mapbox Sokaklar\u0131",
  "mapMapboxOutdoors": "Mapbox D\u0131\u015f Mekan",
  "mapMapboxSatellite": "Mapbox Uydu",
  "mapMapboxKey": "Mapbox Eri\u015fim Simgesi",
  "mapMapTilerBasic": "MapTiler Temel",
  "mapMapTilerHybrid": "MapTiler Hibrit",
  "mapMapTilerKey": "MapTiler API Anahtar\u0131",
  "mapLocationIqStreets": "KonumIQ Sokaklar\u0131",
  "mapLocationIqKey": "LocationIQ Eri\u015fim Simgesi",
  "mapTomTomBasic": "TomTom Temel",
  "mapTomTomFlow": "TomTom Trafik Ak\u0131\u015f\u0131",
  "mapTomTomIncidents": "TomTom Trafik Olaylar\u0131",
  "mapTomTomKey": "TomTom API Anahtar\u0131",
  "mapHereBasic": "\u0130\u015fte Temel",
  "mapHereHybrid": "\u0130\u015fte Hibrit",
  "mapHereSatellite": "\u0130\u015fte Uydu",
  "mapHereFlow": "\u0130\u015fte Trafik Ak\u0131\u015f\u0131",
  "mapHereKey": "\u0130\u015fte API Anahtar\u0131",
  "mapShapePolygon": "\u00c7okgen",
  "mapShapeCircle": "Daire",
  "mapShapePolyline": "\u00e7oklu \u00e7izgi",
  "mapLiveRoutes": "Canl\u0131 Rotalar",
  "mapCurrentLocation": "Mevcut konum",
  "mapPoiLayer": "\u0130\u00c7N Katmanlar\u0131",
  "mapClustering": "\u0130\u015faret\u00e7ileri K\u00fcmeleme",
  "mapOnSelect": "Se\u00e7imde Haritay\u0131 G\u00f6ster",
  "mapDefault": "Varsay\u0131lan Harita",
  "stateTitle": "Belirtmek, bildirmek",
  "stateName": "Ba\u011flanmak",
  "stateValue": "De\u011fer",
  "commandTitle": "Emretmek",
  "commandSend": "G\u00f6ndermek",
  "commandSent": "komut g\u00f6nderildi",
  "commandQueued": "Komut s\u0131raya al\u0131nd\u0131",
  "commandUnit": "Birim",
  "commandCustom": "\u00d6zel komut",
  "commandDeviceIdentification": "Cihaz Tan\u0131mlamas\u0131",
  "commandPositionSingle": "Tek Raporlama",
  "commandPositionPeriodic": "Periyodik Raporlama",
  "commandPositionStop": "Raporlamay\u0131 Durdur",
  "commandEngineStop": "Motor Durdurma",
  "commandEngineResume": "Motor Devam",
  "commandAlarmArm": "kol uyar\u0131s\u0131",
  "commandAlarmDisarm": "Alarm\u0131 Devre D\u0131\u015f\u0131 B\u0131rakma",
  "commandAlarmDismiss": "Alarm\u0131 Kapat",
  "commandSetTimezone": "Saat Dilimini Ayarla",
  "commandRequestPhoto": "Foto\u011fraf \u0130ste",
  "commandPowerOff": "Cihaz\u0131 Kapat\u0131n",
  "commandRebootDevice": "Cihaz\u0131 Yeniden Ba\u015flat",
  "commandFactoryReset": "Fabrika ayarlar\u0131",
  "commandSendSms": "SMS g\u00f6nder",
  "commandSendUssd": "USSD g\u00f6nder",
  "commandSosNumber": "SOS Numaras\u0131n\u0131 Ayarla",
  "commandSilenceTime": "Sessizlik S\u00fcresini Ayarla",
  "commandSetPhonebook": "Telefon Rehberini Ayarla",
  "commandVoiceMessage": "Sesli mesaj",
  "commandOutputControl": "\u00c7\u0131k\u0131\u015f Kontrol\u00fc",
  "commandVoiceMonitoring": "Ses \u0130zleme",
  "commandSetAgps": "AGPS'yi ayarla",
  "commandSetIndicator": "G\u00f6sterge Ayarla",
  "commandConfiguration": "Yap\u0131land\u0131rma",
  "commandGetVersion": "S\u00fcr\u00fcm\u00fc Al",
  "commandFirmwareUpdate": "Bellenimi G\u00fcncelle",
  "commandSetConnection": "Ba\u011flant\u0131y\u0131 Ayarla",
  "commandSetOdometer": "Kilometre Sayac\u0131 Ayarla",
  "commandGetModemStatus": "Modem Durumunu Al\u0131n",
  "commandGetDeviceStatus": "Cihaz Durumunu Al\u0131n",
  "commandSetSpeedLimit": "H\u0131z S\u0131n\u0131r\u0131n\u0131 Ayarla",
  "commandModePowerSaving": "Enerji tasarrufu modu",
  "commandModeDeepSleep": "Derin Uyku Modu",
  "commandAlarmGeofence": "Geofence Alarm\u0131n\u0131 Ayarla",
  "commandAlarmBattery": "Pil Alarm\u0131n\u0131 Ayarla",
  "commandAlarmSos": "SOS Alarm\u0131n\u0131 Ayarla",
  "commandAlarmRemove": "Alarm\u0131 Ayarla Kald\u0131r",
  "commandAlarmClock": "Saat Alarm\u0131n\u0131 Ayarla",
  "commandAlarmSpeed": "H\u0131z Alarm\u0131n\u0131 Ayarla",
  "commandAlarmFall": "D\u00fc\u015fme Alarm\u0131n\u0131 Ayarla",
  "commandAlarmVibration": "Titre\u015fim Alarm\u0131n\u0131 Ayarla",
  "commandFrequency": "S\u0131kl\u0131k",
  "commandTimezone": "Saat Dilimi Fark\u0131",
  "commandMessage": "\u0130leti",
  "commandRadius": "yar\u0131\u00e7ap",
  "commandEnable": "Olanak vermek",
  "commandData": "Veri",
  "commandIndex": "dizin",
  "commandPhone": "Telefon numaras\u0131",
  "commandServer": "sunucu",
  "commandPort": "Liman",
  "eventAll": "T\u00fcm Etkinlikler",
  "eventDeviceOnline": "Durum \u00e7evrimi\u00e7i",
  "eventDeviceUnknown": "Durum bilinmiyor",
  "eventDeviceOffline": "Durum \u00e7evrimd\u0131\u015f\u0131",
  "eventDeviceInactive": "Cihaz etkin de\u011fil",
  "eventDeviceMoving": "Cihaz hareket ediyor",
  "eventDeviceStopped": "Cihaz durduruldu",
  "eventDeviceOverspeed": "H\u0131z s\u0131n\u0131r\u0131 a\u015f\u0131ld\u0131",
  "eventDeviceFuelDrop": "yak\u0131t d\u00fc\u015f\u00fc\u015f\u00fc",
  "eventDeviceFuelIncrease": "yak\u0131t art\u0131\u015f\u0131",
  "eventCommandResult": "Komut sonucu",
  "eventGeofenceEnter": "Geofence girildi",
  "eventGeofenceExit": "Co\u011frafi s\u0131n\u0131rdan \u00e7\u0131k\u0131ld\u0131",
  "eventAlarm": "Alarm",
  "eventIgnitionOn": "Ate\u015fleme",
  "eventIgnitionOff": "Kontak kapal\u0131",
  "eventMaintenance": "Bak\u0131m gerekli",
  "eventTextMessage": "K\u0131sa mesaj al\u0131nd\u0131",
  "eventDriverChanged": "S\u00fcr\u00fcc\u00fc de\u011fi\u015fti",
  "eventMedia": "medya",
  "eventsScrollToLast": "Sona Kayd\u0131r",
  "eventsSoundEvents": "Ses Etkinlikleri",
  "eventsSoundAlarms": "Sesli Alarmlar",
  "alarmGeneral": "Genel",
  "alarmSos": "s.o.s.",
  "alarmVibration": "Titre\u015fim",
  "alarmMovement": "Hareket",
  "alarmLowspeed": "D\u00fc\u015f\u00fck h\u0131z",
  "alarmOverspeed": "a\u015f\u0131r\u0131 h\u0131z",
  "alarmFallDown": "D\u00fc\u015fmek",
  "alarmLowPower": "D\u00fc\u015f\u00fck G\u00fc\u00e7",
  "alarmLowBattery": "D\u00fc\u015f\u00fck pil",
  "alarmFault": "Ar\u0131za",
  "alarmPowerOff": "Kapat",
  "alarmPowerOn": "A\u00e7\u0131k",
  "alarmDoor": "Kap\u0131",
  "alarmLock": "Kilit",
  "alarmUnlock": "Kilidini a\u00e7",
  "alarmGeofence": "Geofence",
  "alarmGeofenceEnter": "Geofence Giri\u015fi",
  "alarmGeofenceExit": "Geofence \u00c7\u0131k\u0131\u015f\u0131",
  "alarmGpsAntennaCut": "GPS Anteni Kesimi",
  "alarmAccident": "Kaza",
  "alarmTow": "\u00e7ekici",
  "alarmIdle": "Bo\u015fta",
  "alarmHighRpm": "Y\u00fcksek devir",
  "alarmHardAcceleration": "Sert H\u0131zlanma",
  "alarmHardBraking": "Sert Frenleme",
  "alarmHardCornering": "Sert Viraj",
  "alarmLaneChange": "\u015eerit De\u011fi\u015ftirme",
  "alarmFatigueDriving": "Yorgun S\u00fcr\u00fc\u015f",
  "alarmPowerCut": "Elektrik kesintisi",
  "alarmPowerRestored": "G\u00fc\u00e7 Geri Y\u00fcklendi",
  "alarmJamming": "S\u0131k\u0131\u015fma",
  "alarmTemperature": "Hava s\u0131cakl\u0131\u011f\u0131",
  "alarmParking": "Otopark",
  "alarmBonnet": "bone",
  "alarmFootBrake": "Ayak freni",
  "alarmFuelLeak": "Yak\u0131t s\u0131z\u0131nt\u0131s\u0131",
  "alarmTampering": "kurcalama",
  "alarmRemoving": "Kald\u0131rma",
  "notificationType": "Bildirim T\u00fcr\u00fc",
  "notificationAlways": "T\u00fcm cihazlar",
  "notificationNotificators": "Kanallar",
  "notificatorWeb": "a\u011f",
  "notificatorMail": "Posta",
  "notificatorSms": "SMS",
  "notificatorFirebase": "Firebase",
  "notificatorTraccar": "\u0130zlemek",
  "notificatorTelegram": "Telgraf",
  "notificatorPushover": "itme",
  "reportReplay": "Tekrar oynat",
  "reportRoute": "Rota",
  "reportEvents": "Olaylar",
  "reportTrips": "Geziler",
  "reportStops": "duraklar",
  "reportSummary": "\u00d6zet",
  "reportDaily": "G\u00fcnl\u00fck \u00f6zet",
  "reportChart": "\u00c7izelge",
  "reportConfigure": "Yap\u0131land\u0131r",
  "reportEventTypes": "Etkinlik T\u00fcrleri",
  "reportChartType": "Grafik tipi",
  "reportShowMarkers": "\u0130\u015faret\u00e7ileri G\u00f6ster",
  "reportExport": "\u0130hracat",
  "reportEmail": "E-posta Raporu",
  "reportPeriod": "D\u00f6nem",
  "reportCustom": "Gelenek",
  "reportToday": "Bug\u00fcn",
  "reportYesterday": "D\u00fcn",
  "reportThisWeek": "Bu hafta",
  "reportPreviousWeek": "\u00d6nceki hafta",
  "reportThisMonth": "Bu ay",
  "reportPreviousMonth": "Ge\u00e7ti\u011fimiz ay",
  "reportDeviceName": "Cihaz ad\u0131",
  "reportAverageSpeed": "Ortalama s\u00fcrat",
  "reportMaximumSpeed": "Azami h\u0131z",
  "reportEngineHours": "Motor Saatleri",
  "reportDuration": "S\u00fcre",
  "reportStartDate": "Ba\u015flang\u0131\u00e7 \u200b\u200btarihi",
  "reportStartTime": "Ba\u015flang\u0131\u00e7 \u200b\u200bsaati",
  "reportStartAddress": "Ba\u015flang\u0131\u00e7 \u200b\u200bAdresi",
  "reportEndTime": "Biti\u015f zaman\u0131",
  "reportEndAddress": "Biti\u015f Adresi",
  "reportSpentFuel": "Kullan\u0131lm\u0131\u015f yak\u0131t",
  "reportStartOdometer": "Kilometre Sayac\u0131 Ba\u015flang\u0131\u00e7",
  "reportEndOdometer": "Kilometre Sayac\u0131 Sonu",
  "statisticsTitle": "\u0130statistik",
  "statisticsCaptureTime": "Yakalama S\u00fcresi",
  "statisticsActiveUsers": "Aktif Kullan\u0131c\u0131lar",
  "statisticsActiveDevices": "Aktif Cihazlar",
  "statisticsRequests": "\u0130stekler",
  "statisticsMessagesReceived": "Al\u0131nan Mesajlar",
  "statisticsMessagesStored": "Saklanan Mesajlar",
  "statisticsGeocoder": "Geocoder \u0130stekleri",
  "statisticsGeolocation": "Co\u011frafi Konum \u0130stekleri",
  "categoryArrow": "Ok",
  "categoryDefault": "Varsay\u0131lan",
  "categoryAnimal": "Hayvan",
  "categoryBicycle": "Bisiklet",
  "categoryBoat": "Bot",
  "categoryBus": "Otob\u00fcs",
  "categoryCar": "Araba",
  "categoryCrane": "Vin\u00e7",
  "categoryHelicopter": "Helikopter",
  "categoryMotorcycle": "Motosiklet",
  "categoryOffroad": "Offroad",
  "categoryPerson": "Ki\u015fi",
  "categoryPickup": "Toplamak",
  "categoryPlane": "U\u00e7ak",
  "categoryShip": "Gemi",
  "categoryTractor": "Trakt\u00f6r",
  "categoryTrain": "Tren",
  "categoryTram": "Tramvay",
  "categoryTrolleybus": "Troleyb\u00fcs",
  "categoryTruck": "kamyon",
  "categoryVan": "kamyonet",
  "categoryScooter": "Mobilet",
  "maintenanceStart": "Ba\u015flama",
  "maintenancePeriod": "D\u00f6nem"
}