{
  "sharedLoading": "\u0417\u0430\u0432\u0430\u043d\u0442\u0430\u0436\u0435\u043d\u043d\u044f...",
  "sharedHide": "\u0421\u0445\u043e\u0432\u0430\u0442\u0438",
  "sharedSave": "\u0437\u0431\u0435\u0440\u0435\u0433\u0442\u0438",
  "sharedSet": "\u0432\u0441\u0442\u0430\u043d\u043e\u0432\u0438\u0442\u0438",
  "sharedCancel": "\u0421\u043a\u0430\u0441\u0443\u0432\u0430\u0442\u0438",
  "sharedAdd": "\u0434\u043e\u0434\u0430\u0442\u0438",
  "sharedEdit": "\u0420\u0435\u0434\u0430\u0433\u0443\u0432\u0430\u0442\u0438",
  "sharedRemove": "\u0432\u0438\u0434\u0430\u043b\u0438\u0442\u0438",
  "sharedRemoveConfirm": "\u0412\u0438\u0434\u0430\u043b\u0438\u0442\u0438 \u0435\u043b\u0435\u043c\u0435\u043d\u0442?",
  "sharedNoData": "\u041d\u0435\u043c\u0430\u0454 \u0434\u0430\u043d\u0438\u0445",
  "sharedYes": "\u0422\u0430\u043a",
  "sharedNo": "\u041d\u0435\u043c\u0430\u0454",
  "sharedKm": "\u043a\u043c",
  "sharedMi": "\u043c\u0438\u043b\u044c",
  "sharedNmi": "nmi",
  "sharedMeters": "\u043c",
  "sharedFeet": "\u0444\u0443\u0442\u0456\u0432",
  "sharedKn": "\u043a\u043d",
  "sharedKmh": "\u043a\u043c/\u0433\u043e\u0434",
  "sharedMph": "\u043c\u0438\u043b\u044c/\u0433\u043e\u0434",
  "sharedHour": "\u0433\u043e\u0434\u0438\u043d\u0443",
  "sharedMinute": "\u0445\u0432\u0438\u043b\u0438\u043d\u0430",
  "sharedSecond": "\u0434\u0440\u0443\u0433\u0435",
  "sharedDays": "\u0434\u043d\u0456\u0432",
  "sharedHours": "\u0433\u043e\u0434\u0438\u043d\u0438",
  "sharedMinutes": "\u0445\u0432\u0438\u043b\u0438\u043d",
  "sharedDecimalDegrees": "\u0414\u0435\u0441\u044f\u0442\u043a\u043e\u0432\u0456 \u0433\u0440\u0430\u0434\u0443\u0441\u0438",
  "sharedDegreesDecimalMinutes": "\u0413\u0440\u0430\u0434\u0443\u0441\u0438, \u0434\u0435\u0441\u044f\u0442\u043a\u043e\u0432\u0456 \u0445\u0432\u0438\u043b\u0438\u043d\u0438",
  "sharedDegreesMinutesSeconds": "\u0413\u0440\u0430\u0434\u0443\u0441\u0438 \u0425\u0432\u0438\u043b\u0438\u043d\u0438 \u0421\u0435\u043a\u0443\u043d\u0434\u0438",
  "sharedName": "\u0406\u043c'\u044f",
  "sharedDescription": "\u043e\u043f\u0438\u0441",
  "sharedSearch": "\u041f\u043e\u0448\u0443\u043a",
  "sharedIconScale": "\u0428\u043a\u0430\u043b\u0430 \u043f\u0456\u043a\u0442\u043e\u0433\u0440\u0430\u043c",
  "sharedGeofence": "\u0413\u0435\u043e\u0437\u043e\u043d\u0430",
  "sharedGeofences": "\u0413\u0435\u043e\u0437\u043e\u043d\u0438",
  "sharedCreateGeofence": "\u0421\u0442\u0432\u043e\u0440\u0456\u0442\u044c \u0433\u0435\u043e\u0437\u043e\u043d\u0443",
  "sharedNotifications": "\u0421\u043f\u043e\u0432\u0456\u0449\u0435\u043d\u043d\u044f",
  "sharedNotification": "\u0421\u043f\u043e\u0432\u0456\u0449\u0435\u043d\u043d\u044f",
  "sharedAttributes": "\u0410\u0442\u0440\u0438\u0431\u0443\u0442\u0438",
  "sharedAttribute": "\u0410\u0442\u0440\u0438\u0431\u0443\u0442",
  "sharedDrivers": "\u0412\u043e\u0434\u0456\u0457",
  "sharedDriver": "\u0412\u043e\u0434\u0456\u0439",
  "sharedArea": "\u041f\u043b\u043e\u0449\u0430",
  "sharedSound": "\u0417\u0432\u0443\u043a \u0441\u043f\u043e\u0432\u0456\u0449\u0435\u043d\u043d\u044f",
  "sharedType": "\u0422\u0438\u043f",
  "sharedDistance": "\u0412\u0456\u0434\u0441\u0442\u0430\u043d\u044c",
  "sharedHourAbbreviation": "\u0447",
  "sharedMinuteAbbreviation": "\u043c",
  "sharedSecondAbbreviation": "\u0441",
  "sharedVoltAbbreviation": "\u0412",
  "sharedLiterAbbreviation": "\u043b",
  "sharedGallonAbbreviation": "\u0433\u0430\u043b",
  "sharedLiter": "\u043b\u0456\u0442\u0440",
  "sharedImpGallon": "Imp. \u0413\u0430\u043b\u043e\u043d",
  "sharedUsGallon": "\u0413\u0430\u043b\u043e\u043d \u0421\u0428\u0410",
  "sharedLiterPerHourAbbreviation": "\u043b/\u0433\u043e\u0434",
  "sharedGetMapState": "\u041e\u0442\u0440\u0438\u043c\u0430\u0442\u0438 \u0441\u0442\u0430\u043d \u043a\u0430\u0440\u0442\u0438",
  "sharedComputedAttribute": "\u041e\u0431\u0447\u0438\u0441\u043b\u0435\u043d\u0438\u0439 \u0430\u0442\u0440\u0438\u0431\u0443\u0442",
  "sharedComputedAttributes": "\u041e\u0431\u0447\u0438\u0441\u043b\u0435\u043d\u0456 \u0430\u0442\u0440\u0438\u0431\u0443\u0442\u0438",
  "sharedCheckComputedAttribute": "\u041f\u0435\u0440\u0435\u0432\u0456\u0440\u0442\u0435 \u043e\u0431\u0447\u0438\u0441\u043b\u0435\u043d\u0438\u0439 \u0430\u0442\u0440\u0438\u0431\u0443\u0442",
  "sharedExpression": "\u0435\u043a\u0441\u043f\u0440\u0435\u0441\u0456\u044f",
  "sharedDevice": "\u043f\u0440\u0438\u0441\u0442\u0440\u0456\u0439",
  "sharedTest": "\u0422\u0435\u0441\u0442",
  "sharedTestNotification": "\u041d\u0430\u0434\u0456\u0441\u043b\u0430\u0442\u0438 \u0442\u0435\u0441\u0442\u043e\u0432\u0435 \u0441\u043f\u043e\u0432\u0456\u0449\u0435\u043d\u043d\u044f",
  "sharedTestNotificators": "\u0422\u0435\u0441\u0442\u043e\u0432\u0456 \u043a\u0430\u043d\u0430\u043b\u0438",
  "sharedTestExpression": "\u0422\u0435\u0441\u0442\u043e\u0432\u0438\u0439 \u0432\u0438\u0440\u0430\u0437",
  "sharedCalendar": "\u041a\u0430\u043b\u0435\u043d\u0434\u0430\u0440",
  "sharedCalendars": "\u041a\u0430\u043b\u0435\u043d\u0434\u0430\u0440\u0456",
  "sharedFile": "\u0424\u0430\u0439\u043b",
  "sharedSearchDevices": "\u041f\u043e\u0448\u0443\u043a \u043f\u0440\u0438\u0441\u0442\u0440\u043e\u0457\u0432",
  "sharedSortBy": "\u0421\u043e\u0440\u0442\u0443\u0432\u0430\u0442\u0438 \u0437\u0430",
  "sharedFilterMap": "\u0424\u0456\u043b\u044c\u0442\u0440 \u043d\u0430 \u043a\u0430\u0440\u0442\u0456",
  "sharedSelectFile": "\u0412\u0438\u0431\u0435\u0440\u0456\u0442\u044c \u0424\u0430\u0439\u043b",
  "sharedPhone": "\u0422\u0435\u043b\u0435\u0444\u043e\u043d",
  "sharedRequired": "\u0432\u0438\u043c\u0430\u0433\u0430\u0454\u0442\u044c\u0441\u044f",
  "sharedPreferences": "\u0423\u043f\u043e\u0434\u043e\u0431\u0430\u043d\u043d\u044f",
  "sharedPermissions": "\u0414\u043e\u0437\u0432\u043e\u043b\u0438",
  "sharedConnections": "\u0417\u0432'\u044f\u0437\u043a\u0438",
  "sharedExtra": "\u0415\u043a\u0441\u0442\u0440\u0430",
  "sharedPrimary": "\u041f\u0435\u0440\u0432\u0438\u043d\u043d\u0438\u0439",
  "sharedSecondary": "\u0412\u0442\u043e\u0440\u0438\u043d\u043d\u0438\u0439",
  "sharedTypeString": "\u0420\u044f\u0434\u043e\u043a",
  "sharedTypeNumber": "\u041d\u043e\u043c\u0435\u0440",
  "sharedTypeBoolean": "\u041b\u043e\u0433\u0456\u0447\u043d\u0438\u0439",
  "sharedTimezone": "\u0427\u0430\u0441\u043e\u0432\u0438\u0439 \u043f\u043e\u044f\u0441",
  "sharedInfoTitle": "\u0406\u043d\u0444\u043e\u0440\u043c\u0430\u0446\u0456\u044f",
  "sharedSavedCommand": "\u0417\u0431\u0435\u0440\u0435\u0436\u0435\u043d\u0430 \u043a\u043e\u043c\u0430\u043d\u0434\u0430",
  "sharedSavedCommands": "\u0417\u0431\u0435\u0440\u0435\u0436\u0435\u043d\u0456 \u043a\u043e\u043c\u0430\u043d\u0434\u0438",
  "sharedNew": "\u041d\u043e\u0432\u0435...",
  "sharedShowAddress": "\u041f\u043e\u043a\u0430\u0437\u0430\u0442\u0438 \u0430\u0434\u0440\u0435\u0441\u0443",
  "sharedShowDetails": "\u0414\u0435\u0442\u0430\u043b\u044c\u043d\u0456\u0448\u0435",
  "sharedDisabled": "\u0412\u0438\u043c\u043a\u043d\u0435\u043d\u043e",
  "sharedMaintenance": "\u0422\u0435\u0445\u043d\u0456\u0447\u043d\u0435 \u043e\u0431\u0441\u043b\u0443\u0433\u043e\u0432\u0443\u0432\u0430\u043d\u043d\u044f",
  "sharedDeviceAccumulators": "\u0410\u043a\u0443\u043c\u0443\u043b\u044f\u0442\u043e\u0440\u0438",
  "sharedAlarms": "\u0421\u0438\u0433\u043d\u0430\u043b\u0456\u0437\u0430\u0446\u0456\u044f",
  "sharedLocation": "\u041c\u0456\u0441\u0446\u0435\u0437\u043d\u0430\u0445\u043e\u0434\u0436\u0435\u043d\u043d\u044f",
  "sharedImport": "\u0406\u043c\u043f\u043e\u0440\u0442",
  "sharedColumns": "\u0421\u0442\u043e\u0432\u043f\u0446\u0456",
  "sharedDropzoneText": "\u041f\u0435\u0440\u0435\u0442\u044f\u0433\u043d\u0456\u0442\u044c \u0444\u0430\u0439\u043b \u0441\u044e\u0434\u0438 \u0430\u0431\u043e \u043a\u043b\u0430\u0446\u043d\u0456\u0442\u044c",
  "calendarSimple": "\u043f\u0440\u043e\u0441\u0442\u043e",
  "calendarRecurrence": "\u041f\u043e\u0432\u0442\u043e\u0440\u044e\u0432\u0430\u043d\u0456\u0441\u0442\u044c",
  "calendarOnce": "\u041e\u0434\u0438\u043d \u0440\u0430\u0437",
  "calendarDaily": "\u0429\u043e\u0434\u043d\u044f",
  "calendarWeekly": "\u0429\u043e\u0442\u0438\u0436\u043d\u044f",
  "calendarMonthly": "\u0429\u043e\u043c\u0456\u0441\u044f\u0446\u044f",
  "calendarDays": "\u0434\u043d\u0456\u0432",
  "calendarSunday": "\u043d\u0435\u0434\u0456\u043b\u044f",
  "calendarMonday": "\u043f\u043e\u043d\u0435\u0434\u0456\u043b\u043e\u043a",
  "calendarTuesday": "\u0432\u0456\u0432\u0442\u043e\u0440\u043e\u043a",
  "calendarWednesday": "\u0421\u0435\u0440\u0435\u0434\u0430",
  "calendarThursday": "\u0447\u0435\u0442\u0432\u0435\u0440",
  "calendarFriday": "\u041f'\u044f\u0442\u043d\u0438\u0446\u044f",
  "calendarSaturday": "\u0421\u0443\u0431\u043e\u0442\u0430",
  "attributeShowGeofences": "\u041f\u043e\u043a\u0430\u0437\u0430\u0442\u0438 \u0433\u0435\u043e\u0437\u043e\u043d\u0438",
  "attributeSpeedLimit": "\u041e\u0431\u043c\u0435\u0436\u0435\u043d\u043d\u044f \u0448\u0432\u0438\u0434\u043a\u043e\u0441\u0442\u0456",
  "attributeFuelDropThreshold": "\u041f\u043e\u0440\u0456\u0433 \u043f\u0430\u0434\u0456\u043d\u043d\u044f \u043f\u0430\u043b\u0438\u0432\u0430",
  "attributeFuelIncreaseThreshold": "\u041f\u043e\u0440\u0456\u0433 \u043f\u0456\u0434\u0432\u0438\u0449\u0435\u043d\u043d\u044f \u043f\u0430\u043b\u0438\u0432\u0430",
  "attributePolylineDistance": "\u0412\u0456\u0434\u0441\u0442\u0430\u043d\u044c \u043f\u043e\u043b\u0456\u043b\u0456\u043d\u0456\u0457",
  "attributeReportIgnoreOdometer": "\u0417\u0432\u0456\u0442: \u0456\u0433\u043d\u043e\u0440\u0443\u0432\u0430\u0442\u0438 \u043e\u0434\u043e\u043c\u0435\u0442\u0440",
  "attributeWebReportColor": "\u0412\u0435\u0431: \u043a\u043e\u043b\u0456\u0440 \u0437\u0432\u0456\u0442\u0443",
  "attributeDevicePassword": "\u041f\u0430\u0440\u043e\u043b\u044c \u043f\u0440\u0438\u0441\u0442\u0440\u043e\u044e",
  "attributeDeviceImage": "\u0417\u043e\u0431\u0440\u0430\u0436\u0435\u043d\u043d\u044f \u043f\u0440\u0438\u0441\u0442\u0440\u043e\u044e",
  "attributeDeviceInactivityStart": "\u041f\u043e\u0447\u0430\u0442\u043e\u043a \u0431\u0435\u0437\u0434\u0456\u044f\u043b\u044c\u043d\u043e\u0441\u0442\u0456 \u043f\u0440\u0438\u0441\u0442\u0440\u043e\u044e",
  "attributeDeviceInactivityPeriod": "\u041f\u0435\u0440\u0456\u043e\u0434 \u0431\u0435\u0437\u0434\u0456\u044f\u043b\u044c\u043d\u043e\u0441\u0442\u0456 \u043f\u0440\u0438\u0441\u0442\u0440\u043e\u044e",
  "attributeProcessingCopyAttributes": "\u041e\u0431\u0440\u043e\u0431\u043a\u0430: \u043a\u043e\u043f\u0456\u044e\u0432\u0430\u043d\u043d\u044f \u0430\u0442\u0440\u0438\u0431\u0443\u0442\u0456\u0432",
  "attributeColor": "\u041a\u043e\u043b\u0456\u0440",
  "attributeWebLiveRouteLength": "\u0412\u0435\u0431: \u0434\u043e\u0432\u0436\u0438\u043d\u0430 \u043f\u043e\u0442\u043e\u0447\u043d\u043e\u0433\u043e \u043c\u0430\u0440\u0448\u0440\u0443\u0442\u0443",
  "attributeWebSelectZoom": "\u0412\u0435\u0431: \u0417\u0431\u0456\u043b\u044c\u0448\u0438\u0442\u0438 \u0412\u0438\u0431\u0435\u0440\u0456\u0442\u044c",
  "attributeWebMaxZoom": "\u0412\u0435\u0431: \u043c\u0430\u043a\u0441\u0438\u043c\u0430\u043b\u044c\u043d\u0435 \u0437\u0431\u0456\u043b\u044c\u0448\u0435\u043d\u043d\u044f",
  "attributeTelegramChatId": "\u0406\u0434\u0435\u043d\u0442\u0438\u0444\u0456\u043a\u0430\u0442\u043e\u0440 \u0447\u0430\u0442\u0443 Telegram",
  "attributePushoverUserKey": "\u041a\u043b\u044e\u0447 \u043a\u043e\u0440\u0438\u0441\u0442\u0443\u0432\u0430\u0447\u0430 Pushover",
  "attributePushoverDeviceNames": "\u041d\u0430\u0437\u0432\u0438 \u043f\u0440\u0438\u0441\u0442\u0440\u043e\u0457\u0432 Pushover",
  "attributeMailSmtpHost": "\u041f\u043e\u0448\u0442\u0430: \u0445\u043e\u0441\u0442 SMTP",
  "attributeMailSmtpPort": "\u041f\u043e\u0448\u0442\u0430: \u041f\u043e\u0440\u0442 SMTP",
  "attributeMailSmtpStarttlsEnable": "\u041f\u043e\u0448\u0442\u0430: SMTP STARTTLS \u0423\u0432\u0456\u043c\u043a\u043d\u0443\u0442\u0438",
  "attributeMailSmtpStarttlsRequired": "\u041f\u043e\u0448\u0442\u0430: \u043f\u043e\u0442\u0440\u0456\u0431\u0435\u043d SMTP STARTTLS",
  "attributeMailSmtpSslEnable": "\u041f\u043e\u0448\u0442\u0430: \u0443\u0432\u0456\u043c\u043a\u043d\u0443\u0442\u0438 SMTP SSL",
  "attributeMailSmtpSslTrust": "\u041f\u043e\u0448\u0442\u0430: SMTP SSL Trust",
  "attributeMailSmtpSslProtocols": "\u041f\u043e\u0448\u0442\u0430: \u043f\u0440\u043e\u0442\u043e\u043a\u043e\u043b\u0438 SMTP SSL",
  "attributeMailSmtpFrom": "\u041f\u043e\u0448\u0442\u0430: SMTP \u0412\u0456\u0434",
  "attributeMailSmtpAuth": "\u041f\u043e\u0448\u0442\u0430: \u0443\u0432\u0456\u043c\u043a\u043d\u0443\u0442\u0438 \u0430\u0432\u0442\u0435\u043d\u0442\u0438\u0444\u0456\u043a\u0430\u0446\u0456\u044e SMTP",
  "attributeMailSmtpUsername": "\u041f\u043e\u0448\u0442\u0430: \u0456\u043c'\u044f \u043a\u043e\u0440\u0438\u0441\u0442\u0443\u0432\u0430\u0447\u0430 SMTP",
  "attributeMailSmtpPassword": "\u041f\u043e\u0448\u0442\u0430: \u041f\u0430\u0440\u043e\u043b\u044c SMTP",
  "attributeUiDisableAttributes": "\u0406\u043d\u0442\u0435\u0440\u0444\u0435\u0439\u0441 \u043a\u043e\u0440\u0438\u0441\u0442\u0443\u0432\u0430\u0447\u0430: \u0412\u0438\u043c\u043a\u043d\u0443\u0442\u0438 \u0430\u0442\u0440\u0438\u0431\u0443\u0442\u0438",
  "attributeUiDisableGroups": "\u0406\u043d\u0442\u0435\u0440\u0444\u0435\u0439\u0441 \u043a\u043e\u0440\u0438\u0441\u0442\u0443\u0432\u0430\u0447\u0430: \u0412\u0438\u043c\u043a\u043d\u0443\u0442\u0438 \u0433\u0440\u0443\u043f\u0438",
  "attributeUiDisableEvents": "\u0406\u043d\u0442\u0435\u0440\u0444\u0435\u0439\u0441 \u043a\u043e\u0440\u0438\u0441\u0442\u0443\u0432\u0430\u0447\u0430: \u0412\u0438\u043c\u043a\u043d\u0443\u0442\u0438 \u043f\u043e\u0434\u0456\u0457",
  "attributeUiDisableVehicleFetures": "\u0406\u043d\u0442\u0435\u0440\u0444\u0435\u0439\u0441 \u043a\u043e\u0440\u0438\u0441\u0442\u0443\u0432\u0430\u0447\u0430: \u0432\u0438\u043c\u043a\u043d\u0443\u0442\u0438 \u0444\u0443\u043d\u043a\u0446\u0456\u0457 \u0430\u0432\u0442\u043e\u043c\u043e\u0431\u0456\u043b\u044f",
  "attributeUiDisableDrivers": "\u0406\u043d\u0442\u0435\u0440\u0444\u0435\u0439\u0441 \u043a\u043e\u0440\u0438\u0441\u0442\u0443\u0432\u0430\u0447\u0430: \u0412\u0438\u043c\u043a\u043d\u0443\u0442\u0438 \u0434\u0440\u0430\u0439\u0432\u0435\u0440\u0438",
  "attributeUiDisableComputedAttributes": "\u0406\u043d\u0442\u0435\u0440\u0444\u0435\u0439\u0441 \u043a\u043e\u0440\u0438\u0441\u0442\u0443\u0432\u0430\u0447\u0430: \u0412\u0438\u043c\u043a\u043d\u0443\u0442\u0438 \u043e\u0431\u0447\u0438\u0441\u043b\u0435\u043d\u0456 \u0430\u0442\u0440\u0438\u0431\u0443\u0442\u0438",
  "attributeUiDisableCalendars": "\u0406\u043d\u0442\u0435\u0440\u0444\u0435\u0439\u0441 \u043a\u043e\u0440\u0438\u0441\u0442\u0443\u0432\u0430\u0447\u0430: \u0412\u0438\u043c\u043a\u043d\u0443\u0442\u0438 \u043a\u0430\u043b\u0435\u043d\u0434\u0430\u0440\u0456",
  "attributeUiDisableMaintenance": "\u0406\u043d\u0442\u0435\u0440\u0444\u0435\u0439\u0441 \u043a\u043e\u0440\u0438\u0441\u0442\u0443\u0432\u0430\u0447\u0430: \u0412\u0438\u043c\u043a\u043d\u0443\u0442\u0438 \u0442\u0435\u0445\u043d\u0456\u0447\u043d\u0435 \u043e\u0431\u0441\u043b\u0443\u0433\u043e\u0432\u0443\u0432\u0430\u043d\u043d\u044f",
  "attributeUiHidePositionAttributes": "\u0406\u043d\u0442\u0435\u0440\u0444\u0435\u0439\u0441 \u043a\u043e\u0440\u0438\u0441\u0442\u0443\u0432\u0430\u0447\u0430: \u043f\u0440\u0438\u0445\u043e\u0432\u0430\u0442\u0438 \u0430\u0442\u0440\u0438\u0431\u0443\u0442\u0438 \u043f\u043e\u0437\u0438\u0446\u0456\u0457",
  "attributeUiDisableLoginLanguage": "\u0406\u043d\u0442\u0435\u0440\u0444\u0435\u0439\u0441 \u043a\u043e\u0440\u0438\u0441\u0442\u0443\u0432\u0430\u0447\u0430: \u0412\u0438\u043c\u043a\u043d\u0443\u0442\u0438 \u043c\u043e\u0432\u0443 \u0432\u0445\u043e\u0434\u0443",
  "attributeNotificationTokens": "\u0416\u0435\u0442\u043e\u043d\u0438 \u0441\u043f\u043e\u0432\u0456\u0449\u0435\u043d\u044c",
  "attributePopupInfo": "\u0406\u043d\u0444\u043e\u0440\u043c\u0430\u0446\u0456\u044f \u043f\u0440\u043e \u0441\u043f\u043b\u0438\u0432\u0430\u044e\u0447\u0435 \u0432\u0456\u043a\u043d\u043e",
  "errorTitle": "\u041f\u043e\u043c\u0438\u043b\u043a\u0430",
  "errorGeneral": "\u041d\u0435\u0434\u0456\u0439\u0441\u043d\u0456 \u043f\u0430\u0440\u0430\u043c\u0435\u0442\u0440\u0438 \u0430\u0431\u043e \u043f\u043e\u0440\u0443\u0448\u0435\u043d\u043d\u044f \u043e\u0431\u043c\u0435\u0436\u0435\u043d\u044c",
  "errorConnection": "\u041f\u043e\u043c\u0438\u043b\u043a\u0430 \u0437'\u0454\u0434\u043d\u0430\u043d\u043d\u044f",
  "errorSocket": "\u041f\u043e\u043c\u0438\u043b\u043a\u0430 \u043f\u0456\u0434\u043a\u043b\u044e\u0447\u0435\u043d\u043d\u044f \u0447\u0435\u0440\u0435\u0437 \u0432\u0435\u0431-\u0441\u043e\u043a\u0435\u0442",
  "errorZero": "\u041d\u0435 \u043c\u043e\u0436\u0435 \u0431\u0443\u0442\u0438 \u043d\u0443\u043b\u044c\u043e\u0432\u0438\u043c",
  "userEmail": "\u0415\u043b\u0435\u043a\u0442\u0440\u043e\u043d\u043d\u0430 \u043f\u043e\u0448\u0442\u0430",
  "userPassword": "\u041f\u0430\u0440\u043e\u043b\u044c",
  "userAdmin": "\u0430\u0434\u043c\u0456\u043d",
  "userRemember": "\u041f\u0430\u043c'\u044f\u0442\u0430\u0439\u0442\u0435",
  "userExpirationTime": "\u0422\u0435\u0440\u043c\u0456\u043d \u0434\u0456\u0457",
  "userDeviceLimit": "\u041e\u0431\u043c\u0435\u0436\u0435\u043d\u043d\u044f \u043f\u0440\u0438\u0441\u0442\u0440\u043e\u044e",
  "userUserLimit": "\u041b\u0456\u043c\u0456\u0442 \u043a\u043e\u0440\u0438\u0441\u0442\u0443\u0432\u0430\u0447\u0456\u0432",
  "userDeviceReadonly": "\u041f\u0440\u0438\u0441\u0442\u0440\u0456\u0439 \u043b\u0438\u0448\u0435 \u0434\u043b\u044f \u0447\u0438\u0442\u0430\u043d\u043d\u044f",
  "userLimitCommands": "\u041a\u043e\u043c\u0430\u043d\u0434\u0438 \u043e\u0431\u043c\u0435\u0436\u0435\u043d\u044c",
  "userDisableReports": "\u0412\u0438\u043c\u043a\u043d\u0443\u0442\u0438 \u0437\u0432\u0456\u0442\u0438",
  "userFixedEmail": "\u0411\u0435\u0437 \u0437\u043c\u0456\u043d\u0438 \u0435\u043b\u0435\u043a\u0442\u0440\u043e\u043d\u043d\u043e\u0457 \u043f\u043e\u0448\u0442\u0438",
  "userToken": "\u0422\u043e\u043a\u0435\u043d",
  "userDeleteAccount": "\u0412\u0438\u0434\u0430\u043b\u0438\u0442\u0438 \u0430\u043a\u043a\u0430\u0443\u043d\u0442",
  "loginTitle": "\u041b\u043e\u0433\u0456\u043d",
  "loginLanguage": "\u041c\u043e\u0432\u0443",
  "loginReset": "\u0421\u043a\u0438\u043d\u0443\u0442\u0438 \u043f\u0430\u0440\u043e\u043b\u044c",
  "loginRegister": "\u0437\u0430\u0440\u0435\u0454\u0441\u0442\u0440\u0443\u0432\u0430\u0442\u0438\u0441\u044f",
  "loginLogin": "\u041b\u043e\u0433\u0456\u043d",
  "loginFailed": "\u041d\u0435\u043f\u0440\u0430\u0432\u0438\u043b\u044c\u043d\u0430 \u0430\u0434\u0440\u0435\u0441\u0430 \u0435\u043b\u0435\u043a\u0442\u0440\u043e\u043d\u043d\u043e\u0457 \u043f\u043e\u0448\u0442\u0438 \u0430\u0431\u043e \u043f\u0430\u0440\u043e\u043b\u044c",
  "loginCreated": "\u0417\u0430\u0440\u0435\u0454\u0441\u0442\u0440\u043e\u0432\u0430\u043d\u043e \u043d\u043e\u0432\u043e\u0433\u043e \u043a\u043e\u0440\u0438\u0441\u0442\u0443\u0432\u0430\u0447\u0430",
  "loginResetSuccess": "\u041f\u0435\u0440\u0435\u0432\u0456\u0440\u0438\u0442\u0438 \u0441\u0432\u043e\u044e \u0435\u043b\u0435\u043a\u0442\u0440\u043e\u043d\u043d\u0443 \u043f\u043e\u0448\u0442\u0443",
  "loginUpdateSuccess": "\u0412\u0441\u0442\u0430\u043d\u043e\u0432\u043b\u0435\u043d\u043e \u043d\u043e\u0432\u0438\u0439 \u043f\u0430\u0440\u043e\u043b\u044c",
  "loginLogout": "\u0412\u0438\u0439\u0442\u0438",
  "loginLogo": "\u043b\u043e\u0433\u043e\u0442\u0438\u043f",
  "devicesAndState": "\u041f\u0440\u0438\u0441\u0442\u0440\u043e\u0457 \u0442\u0430 \u0441\u0442\u0430\u043d",
  "deviceSelected": "\u0412\u0438\u0431\u0440\u0430\u043d\u0438\u0439 \u043f\u0440\u0438\u0441\u0442\u0440\u0456\u0439",
  "deviceTitle": "\u041f\u0440\u0438\u0441\u0442\u0440\u043e\u0457",
  "devicePrimaryInfo": "\u041d\u0430\u0437\u0432\u0430 \u043f\u0440\u0438\u0441\u0442\u0440\u043e\u044e",
  "deviceSecondaryInfo": "\u0414\u0435\u0442\u0430\u043b\u0456 \u043f\u0440\u0438\u0441\u0442\u0440\u043e\u044e",
  "deviceIdentifier": "\u0406\u0434\u0435\u043d\u0442\u0438\u0444\u0456\u043a\u0430\u0442\u043e\u0440",
  "deviceModel": "\u041c\u043e\u0434\u0435\u043b\u044c",
  "deviceContact": "\u043a\u043e\u043d\u0442\u0430\u043a\u0442",
  "deviceCategory": "\u041a\u0430\u0442\u0435\u0433\u043e\u0440\u0456\u044f",
  "deviceLastUpdate": "\u041e\u0441\u0442\u0430\u043d\u043d\u0454 \u043e\u043d\u043e\u0432\u043b\u0435\u043d\u043d\u044f",
  "deviceCommand": "\u041a\u043e\u043c\u0430\u043d\u0434\u0430",
  "deviceFollow": "\u0421\u043b\u0456\u0434\u0443\u0439\u0442\u0435",
  "deviceTotalDistance": "\u0417\u0430\u0433\u0430\u043b\u044c\u043d\u0430 \u0432\u0456\u0434\u0441\u0442\u0430\u043d\u044c",
  "deviceStatus": "\u0421\u0442\u0430\u0442\u0443\u0441",
  "deviceStatusOnline": "\u041e\u043d\u043b\u0430\u0439\u043d",
  "deviceStatusOffline": "\u041e\u0444\u043b\u0430\u0439\u043d",
  "deviceStatusUnknown": "\u041d\u0435\u0432\u0456\u0434\u043e\u043c\u0438\u0439",
  "groupDialog": "\u0413\u0440\u0443\u043f\u0430",
  "groupParent": "\u0413\u0440\u0443\u043f\u0430",
  "groupNoGroup": "\u041d\u0435\u043c\u0430\u0454 \u0433\u0440\u0443\u043f\u0438",
  "settingsTitle": "\u041d\u0430\u043b\u0430\u0448\u0442\u0443\u0432\u0430\u043d\u043d\u044f",
  "settingsUser": "\u041e\u0431\u043b\u0456\u043a\u043e\u0432\u0438\u0439 \u0437\u0430\u043f\u0438\u0441",
  "settingsGroups": "\u0413\u0440\u0443\u043f\u0438",
  "settingsServer": "\u0421\u0435\u0440\u0432\u0435\u0440",
  "settingsUsers": "\u041a\u043e\u0440\u0438\u0441\u0442\u0443\u0432\u0430\u0447\u0456",
  "settingsDistanceUnit": "\u041e\u0434\u0438\u043d\u0438\u0446\u044f \u0432\u0456\u0434\u0441\u0442\u0430\u043d\u0456",
  "settingsAltitudeUnit": "\u041e\u0434\u0438\u043d\u0438\u0446\u044f \u0432\u0438\u0441\u043e\u0442\u0438",
  "settingsSpeedUnit": "\u041e\u0434\u0438\u043d\u0438\u0446\u044f \u0448\u0432\u0438\u0434\u043a\u043e\u0441\u0442\u0456",
  "settingsVolumeUnit": "\u041e\u0434\u0438\u043d\u0438\u0446\u044f \u043e\u0431'\u0454\u043c\u0443",
  "settingsTwelveHourFormat": "12-\u0433\u043e\u0434\u0438\u043d\u043d\u0438\u0439 \u0444\u043e\u0440\u043c\u0430\u0442",
  "settingsCoordinateFormat": "\u0424\u043e\u0440\u043c\u0430\u0442 \u043a\u043e\u043e\u0440\u0434\u0438\u043d\u0430\u0442",
  "settingsServerVersion": "\u0412\u0435\u0440\u0441\u0456\u044f \u0441\u0435\u0440\u0432\u0435\u0440\u0430",
  "settingsAppVersion": "\u0412\u0435\u0440\u0441\u0456\u044f \u043f\u0440\u043e\u0433\u0440\u0430\u043c\u0438",
  "settingsConnection": "\u041f\u0456\u0434\u043a\u043b\u044e\u0447\u0435\u043d\u043d\u044f",
  "reportTitle": "\u0417\u0432\u0456\u0442\u0438",
  "reportDevice": "\u043f\u0440\u0438\u0441\u0442\u0440\u0456\u0439",
  "reportGroup": "\u0413\u0440\u0443\u043f\u0430",
  "reportFrom": "\u0412\u0456\u0434",
  "reportTo": "\u0434\u043e",
  "reportShow": "\u041f\u043e\u043a\u0430\u0437\u0430\u0442\u0438",
  "reportClear": "\u044f\u0441\u043d\u043e",
  "linkGoogleMaps": "\u0413\u0443\u0433\u043b-\u043c\u0430\u043f\u0438",
  "linkAppleMaps": "\u041a\u0430\u0440\u0442\u0438 Apple",
  "linkStreetView": "\u041f\u0435\u0440\u0435\u0433\u043b\u044f\u0434 \u0432\u0443\u043b\u0438\u0446\u044c",
  "positionFixTime": "\u0412\u0438\u043f\u0440\u0430\u0432\u0438\u0442\u0438 \u0447\u0430\u0441",
  "positionDeviceTime": "\u0427\u0430\u0441 \u043f\u0440\u0438\u0441\u0442\u0440\u043e\u044e",
  "positionServerTime": "\u0427\u0430\u0441 \u0441\u0435\u0440\u0432\u0435\u0440\u0430",
  "positionValid": "\u0414\u0456\u0439\u0441\u043d\u0438\u0439",
  "positionAccuracy": "\u0422\u043e\u0447\u043d\u0456\u0441\u0442\u044c",
  "positionLatitude": "\u0428\u0438\u0440\u043e\u0442\u0430",
  "positionLongitude": "\u0414\u043e\u0432\u0433\u043e\u0442\u0430",
  "positionAltitude": "\u0412\u0438\u0441\u043e\u0442\u0430",
  "positionSpeed": "\u0448\u0432\u0438\u0434\u043a\u0456\u0441\u0442\u044c",
  "positionCourse": "\u043a\u0443\u0440\u0441",
  "positionAddress": "\u0410\u0434\u0440\u0435\u0441\u0430",
  "positionProtocol": "\u041f\u0440\u043e\u0442\u043e\u043a\u043e\u043b",
  "positionDistance": "\u0412\u0456\u0434\u0441\u0442\u0430\u043d\u044c",
  "positionRpm": "RPM",
  "positionFuel": "\u043f\u0430\u043b\u0438\u0432\u043e",
  "positionPower": "\u043f\u043e\u0442\u0443\u0436\u043d\u0456\u0441\u0442\u044c",
  "positionBattery": "\u0410\u043a\u0443\u043c\u0443\u043b\u044f\u0442\u043e\u0440",
  "positionRaw": "\u0421\u0438\u0440\u0438\u0439",
  "positionIndex": "\u0406\u043d\u0434\u0435\u043a\u0441",
  "positionHdop": "HDOP",
  "positionVdop": "\u0412\u0414\u041e\u041f",
  "positionPdop": "PDOP",
  "positionSat": "\u0421\u0443\u043f\u0443\u0442\u043d\u0438\u043a\u0438",
  "positionSatVisible": "\u0412\u0438\u0434\u0438\u043c\u0456 \u0441\u0443\u043f\u0443\u0442\u043d\u0438\u043a\u0438",
  "positionRssi": "RSSI",
  "positionGps": "GPS",
  "positionRoaming": "\u0420\u043e\u0443\u043c\u0456\u043d\u0433",
  "positionEvent": "\u041f\u043e\u0434\u0456\u044f",
  "positionAlarm": "\u0441\u0438\u0433\u043d\u0430\u043b\u0456\u0437\u0430\u0446\u0456\u044f",
  "positionStatus": "\u0421\u0442\u0430\u0442\u0443\u0441",
  "positionOdometer": "\u041e\u0434\u043e\u043c\u0435\u0442\u0440",
  "positionServiceOdometer": "\u0421\u0435\u0440\u0432\u0456\u0441\u043d\u0438\u0439 \u043e\u0434\u043e\u043c\u0435\u0442\u0440",
  "positionTripOdometer": "\u041e\u0434\u043e\u043c\u0435\u0442\u0440",
  "positionHours": "\u0433\u043e\u0434\u0438\u043d\u0438",
  "positionSteps": "\u041a\u0440\u043e\u043a\u0438",
  "positionInput": "\u0412\u0432\u0435\u0434\u0435\u043d\u043d\u044f",
  "positionOutput": "\u0412\u0438\u0445\u0456\u0434",
  "positionBatteryLevel": "\u0420\u0456\u0432\u0435\u043d\u044c \u0437\u0430\u0440\u044f\u0434\u0443 \u0431\u0430\u0442\u0430\u0440\u0435\u0457",
  "positionFuelConsumption": "\u0412\u0438\u0442\u0440\u0430\u0442\u0430 \u043f\u0430\u043b\u0438\u0432\u0430",
  "positionRfid": "RFID",
  "positionVersionFw": "\u0412\u0435\u0440\u0441\u0456\u044f \u043c\u0456\u043a\u0440\u043e\u043f\u0440\u043e\u0433\u0440\u0430\u043c\u0438",
  "positionVersionHw": "\u0410\u043f\u0430\u0440\u0430\u0442\u043d\u0430 \u0432\u0435\u0440\u0441\u0456\u044f",
  "positionIgnition": "\u0437\u0430\u043f\u0430\u043b\u044e\u0432\u0430\u043d\u043d\u044f",
  "positionFlags": "\u041f\u0440\u0430\u043f\u043e\u0440\u0438",
  "positionCharge": "\u0417\u0430\u0440\u044f\u0434\u0438\u0442\u0438",
  "positionIp": "IP",
  "positionArchive": "\u0410\u0440\u0445\u0456\u0432",
  "positionVin": "VIN \u043d\u043e\u043c\u0435\u0440",
  "positionApproximate": "\u041f\u0440\u0438\u0431\u043b\u0438\u0437\u043d\u0438\u0439",
  "positionThrottle": "\u0434\u0440\u043e\u0441\u0435\u043b\u044c",
  "positionMotion": "\u0420\u0443\u0445",
  "positionArmed": "\u041e\u0437\u0431\u0440\u043e\u0454\u043d\u0438\u0439",
  "positionAcceleration": "\u041f\u0440\u0438\u0441\u043a\u043e\u0440\u0435\u043d\u043d\u044f",
  "positionTemp": "\u0422\u0435\u043c\u043f\u0435\u0440\u0430\u0442\u0443\u0440\u0430",
  "positionDeviceTemp": "\u0422\u0435\u043c\u043f\u0435\u0440\u0430\u0442\u0443\u0440\u0430 \u043f\u0440\u0438\u0441\u0442\u0440\u043e\u044e",
  "positionOperator": "\u041e\u043f\u0435\u0440\u0430\u0442\u043e\u0440",
  "positionCommand": "\u041a\u043e\u043c\u0430\u043d\u0434\u0430",
  "positionBlocked": "\u0437\u0430\u0431\u043b\u043e\u043a\u043e\u0432\u0430\u043d\u043e",
  "positionDtcs": "DTC",
  "positionObdSpeed": "\u0428\u0432\u0438\u0434\u043a\u0456\u0441\u0442\u044c OBD",
  "positionObdOdometer": "\u041e\u0434\u043e\u043c\u0435\u0442\u0440 OBD",
  "positionDriverUniqueId": "\u0423\u043d\u0456\u043a\u0430\u043b\u044c\u043d\u0438\u0439 \u0456\u0434\u0435\u043d\u0442\u0438\u0444\u0456\u043a\u0430\u0442\u043e\u0440 \u0432\u043e\u0434\u0456\u044f",
  "positionImage": "\u0417\u043e\u0431\u0440\u0430\u0436\u0435\u043d\u043d\u044f",
  "positionVideo": "\u0432\u0456\u0434\u0435\u043e",
  "positionAudio": "\u0410\u0443\u0434\u0456\u043e",
  "serverTitle": "\u041d\u0430\u043b\u0430\u0448\u0442\u0443\u0432\u0430\u043d\u043d\u044f \u0441\u0435\u0440\u0432\u0435\u0440\u0430",
  "serverZoom": "\u0417\u0431\u0456\u043b\u044c\u0448\u0438\u0442\u0438",
  "serverRegistration": "\u0420\u0435\u0454\u0441\u0442\u0440\u0430\u0446\u0456\u044f",
  "serverReadonly": "\u041b\u0438\u0448\u0435 \u0434\u043b\u044f \u0447\u0438\u0442\u0430\u043d\u043d\u044f",
  "serverForceSettings": "\u041f\u0440\u0438\u043c\u0443\u0441\u043e\u0432\u0456 \u043d\u0430\u043b\u0430\u0448\u0442\u0443\u0432\u0430\u043d\u043d\u044f",
  "serverAnnouncement": "\u041e\u0433\u043e\u043b\u043e\u0448\u0435\u043d\u043d\u044f",
  "mapTitle": "\u041a\u0430\u0440\u0442\u0430",
  "mapActive": "\u0410\u043a\u0442\u0438\u0432\u043d\u0456 \u043a\u0430\u0440\u0442\u0438",
  "mapOverlay": "\u041d\u0430\u043a\u043b\u0430\u0434\u0430\u043d\u043d\u044f \u043a\u0430\u0440\u0442\u0438",
  "mapOverlayCustom": "\u0421\u043f\u0435\u0446\u0456\u0430\u043b\u044c\u043d\u0435 \u043d\u0430\u043a\u043b\u0430\u0434\u0430\u043d\u043d\u044f",
  "mapOpenSeaMap": "OpenSeaMap",
  "mapOpenWeatherKey": "\u041a\u043b\u044e\u0447 API OpenWeather",
  "mapOpenWeatherClouds": "\u0425\u043c\u0430\u0440\u0438 OpenWeather",
  "mapOpenWeatherPrecipitation": "OpenWeather \u041e\u043f\u0430\u0434\u0438",
  "mapOpenWeatherPressure": "OpenWeather Pressure",
  "mapOpenWeatherWind": "OpenWeather Wind",
  "mapOpenWeatherTemperature": "OpenWeather \u0422\u0435\u043c\u043f\u0435\u0440\u0430\u0442\u0443\u0440\u0430",
  "mapLayer": "\u0428\u0430\u0440 \u043a\u0430\u0440\u0442\u0438",
  "mapCustom": "\u0421\u043f\u0435\u0446\u0456\u0430\u043b\u044c\u043d\u0438\u0439 (XYZ)",
  "mapCustomArcgis": "\u0421\u043f\u0435\u0446\u0456\u0430\u043b\u044c\u043d\u0438\u0439 (ArcGIS)",
  "mapCustomLabel": "\u0421\u043f\u0435\u0446\u0456\u0430\u043b\u044c\u043d\u0430 \u043a\u0430\u0440\u0442\u0430",
  "mapCarto": "\u0411\u0430\u0437\u043e\u0432\u0456 \u043a\u0430\u0440\u0442\u0438 Carto",
  "mapOsm": "OpenStreetMap",
  "mapGoogleRoad": "Google Road",
  "mapGoogleHybrid": "Google Hybrid",
  "mapGoogleSatellite": "Google Satellite",
  "mapOpenTopoMap": "OpenTopoMap",
  "mapBingKey": "\u041a\u043b\u044e\u0447 \u043a\u0430\u0440\u0442 Bing",
  "mapBingRoad": "Bing Maps Road",
  "mapBingAerial": "Bing Maps Aerial",
  "mapBingHybrid": "\u0413\u0456\u0431\u0440\u0438\u0434 \u043a\u0430\u0440\u0442 Bing",
  "mapBaidu": "Baidu",
  "mapAutoNavi": "AutoNavi",
  "mapYandexMap": "\u042f\u043d\u0434\u0435\u043a\u0441 \u041a\u0430\u0440\u0442\u0430",
  "mapYandexSat": "\u042f\u043d\u0434\u0435\u043a\u0441 \u0441\u0443\u043f\u0443\u0442\u043d\u0438\u043a",
  "mapWikimedia": "Wikimedia Commons",
  "mapOrdnanceSurvey": "\u041e\u0431\u0441\u0442\u0435\u0436\u0435\u043d\u043d\u044f \u0431\u043e\u0454\u043f\u0440\u0438\u043f\u0430\u0441\u0456\u0432",
  "mapMapboxStreets": "Mapbox Streets",
  "mapMapboxOutdoors": "Mapbox Outdoors",
  "mapMapboxSatellite": "Mapbox Satellite",
  "mapMapboxKey": "\u041c\u0430\u0440\u043a\u0435\u0440 \u0434\u043e\u0441\u0442\u0443\u043f\u0443 Mapbox",
  "mapMapTilerBasic": "MapTiler Basic",
  "mapMapTilerHybrid": "\u0413\u0456\u0431\u0440\u0438\u0434 MapTiler",
  "mapMapTilerKey": "\u041a\u043b\u044e\u0447 API MapTiler",
  "mapLocationIqStreets": "LocationIQ \u0412\u0443\u043b\u0438\u0446\u0456",
  "mapLocationIqKey": "\u041c\u0430\u0440\u043a\u0435\u0440 \u0434\u043e\u0441\u0442\u0443\u043f\u0443 LocationIQ",
  "mapTomTomBasic": "TomTom Basic",
  "mapTomTomFlow": "TomTom Traffic Flow",
  "mapTomTomIncidents": "\u0414\u043e\u0440\u043e\u0436\u043d\u0456 \u043f\u043e\u0434\u0456\u0457 TomTom",
  "mapTomTomKey": "\u041a\u043b\u044e\u0447 API TomTom",
  "mapHereBasic": "\u0422\u0443\u0442 Basic",
  "mapHereHybrid": "\u041e\u0441\u044c \u0413\u0456\u0431\u0440\u0438\u0434",
  "mapHereSatellite": "\u0422\u0443\u0442 \u0441\u0443\u043f\u0443\u0442\u043d\u0438\u043a",
  "mapHereFlow": "\u041e\u0441\u044c \u0442\u0440\u0430\u0444\u0456\u043a",
  "mapHereKey": "\u041e\u0441\u044c \u043a\u043b\u044e\u0447 API",
  "mapShapePolygon": "\u0411\u0430\u0433\u0430\u0442\u043e\u043a\u0443\u0442\u043d\u0438\u043a",
  "mapShapeCircle": "\u041a\u043e\u043b\u043e",
  "mapShapePolyline": "\u041b\u043e\u043c\u0430\u043d\u0430 \u043b\u0456\u043d\u0456\u044f",
  "mapLiveRoutes": "\u0416\u0438\u0432\u0456 \u043c\u0430\u0440\u0448\u0440\u0443\u0442\u0438",
  "mapCurrentLocation": "\u041f\u043e\u0442\u043e\u0447\u043d\u0435 \u043c\u0456\u0441\u0446\u0435\u0437\u043d\u0430\u0445\u043e\u0434\u0436\u0435\u043d\u043d\u044f",
  "mapPoiLayer": "\u0428\u0430\u0440\u0438 POI",
  "mapClustering": "\u041a\u043b\u0430\u0441\u0442\u0435\u0440\u0438\u0437\u0430\u0446\u0456\u044f \u043c\u0430\u0440\u043a\u0435\u0440\u0456\u0432",
  "mapOnSelect": "\u041f\u043e\u043a\u0430\u0437\u0430\u0442\u0438 \u043a\u0430\u0440\u0442\u0443 \u043f\u0456\u0434 \u0447\u0430\u0441 \u0432\u0438\u0431\u043e\u0440\u0443",
  "mapDefault": "\u041a\u0430\u0440\u0442\u0430 \u0437\u0430 \u0437\u0430\u043c\u043e\u0432\u0447\u0443\u0432\u0430\u043d\u043d\u044f\u043c",
  "stateTitle": "\u0414\u0435\u0440\u0436\u0430\u0432\u0430",
  "stateName": "\u0410\u0442\u0440\u0438\u0431\u0443\u0442",
  "stateValue": "\u0417\u043d\u0430\u0447\u0435\u043d\u043d\u044f",
  "commandTitle": "\u041a\u043e\u043c\u0430\u043d\u0434\u0430",
  "commandSend": "\u041d\u0430\u0434\u0456\u0441\u043b\u0430\u0442\u0438",
  "commandSent": "\u041a\u043e\u043c\u0430\u043d\u0434\u0430 \u043d\u0430\u0434\u0456\u0441\u043b\u0430\u043d\u0430",
  "commandQueued": "\u041a\u043e\u043c\u0430\u043d\u0434\u0430 \u0432 \u0447\u0435\u0440\u0437\u0456",
  "commandUnit": "\u043e\u0434\u0438\u043d\u0438\u0446\u044f",
  "commandCustom": "\u0421\u043f\u0435\u0446\u0456\u0430\u043b\u044c\u043d\u0430 \u043a\u043e\u043c\u0430\u043d\u0434\u0430",
  "commandDeviceIdentification": "\u0406\u0434\u0435\u043d\u0442\u0438\u0444\u0456\u043a\u0430\u0446\u0456\u044f \u043f\u0440\u0438\u0441\u0442\u0440\u043e\u044e",
  "commandPositionSingle": "\u0404\u0434\u0438\u043d\u0430 \u0437\u0432\u0456\u0442\u043d\u0456\u0441\u0442\u044c",
  "commandPositionPeriodic": "\u041f\u0435\u0440\u0456\u043e\u0434\u0438\u0447\u043d\u0430 \u0437\u0432\u0456\u0442\u043d\u0456\u0441\u0442\u044c",
  "commandPositionStop": "\u0417\u0443\u043f\u0438\u043d\u0438\u0442\u0438 \u0437\u0432\u0456\u0442\u0443\u0432\u0430\u043d\u043d\u044f",
  "commandEngineStop": "\u0417\u0443\u043f\u0438\u043d\u043a\u0430 \u0434\u0432\u0438\u0433\u0443\u043d\u0430",
  "commandEngineResume": "\u0420\u0435\u0437\u044e\u043c\u0435 \u0434\u0432\u0438\u0433\u0443\u043d\u0430",
  "commandAlarmArm": "\u043e\u043f\u043e\u0432\u0456\u0449\u0435\u043d\u043d\u044f \u043f\u0440\u043e \u0440\u0443\u043a\u0443",
  "commandAlarmDisarm": "\u0417\u043d\u044f\u0442\u0438 \u0441\u0438\u0433\u043d\u0430\u043b\u0456\u0437\u0430\u0446\u0456\u044e",
  "commandAlarmDismiss": "\u0412\u0438\u043c\u043a\u043d\u0443\u0442\u0438 \u0431\u0443\u0434\u0438\u043b\u044c\u043d\u0438\u043a",
  "commandSetTimezone": "\u0423\u0441\u0442\u0430\u043d\u043e\u0432\u0438\u0442\u0438 \u0447\u0430\u0441\u043e\u0432\u0438\u0439 \u043f\u043e\u044f\u0441",
  "commandRequestPhoto": "\u0417\u0430\u043f\u0438\u0442 \u0444\u043e\u0442\u043e",
  "commandPowerOff": "\u0412\u0438\u043c\u043a\u043d\u0443\u0442\u0438 \u043f\u0440\u0438\u0441\u0442\u0440\u0456\u0439",
  "commandRebootDevice": "\u041f\u0435\u0440\u0435\u0437\u0430\u0432\u0430\u043d\u0442\u0430\u0436\u0442\u0435 \u043f\u0440\u0438\u0441\u0442\u0440\u0456\u0439",
  "commandFactoryReset": "\u0417\u0430\u0432\u043e\u0434\u0441\u044c\u043a\u0456 \u043d\u0430\u043b\u0430\u0448\u0442\u0443\u0432\u0430\u043d\u043d\u044f",
  "commandSendSms": "\u041d\u0430\u0434\u0456\u0441\u043b\u0430\u0442\u0438 SMS",
  "commandSendUssd": "\u041d\u0430\u0434\u0456\u0441\u043b\u0430\u0442\u0438 USSD",
  "commandSosNumber": "\u0412\u0441\u0442\u0430\u043d\u043e\u0432\u0456\u0442\u044c \u043d\u043e\u043c\u0435\u0440 SOS",
  "commandSilenceTime": "\u0412\u0441\u0442\u0430\u043d\u043e\u0432\u0456\u0442\u044c \u0447\u0430\u0441 \u0442\u0438\u0448\u0456",
  "commandSetPhonebook": "\u041d\u0430\u043b\u0430\u0448\u0442\u0443\u0432\u0430\u0442\u0438 \u0442\u0435\u043b\u0435\u0444\u043e\u043d\u043d\u0443 \u043a\u043d\u0438\u0433\u0443",
  "commandVoiceMessage": "\u0413\u043e\u043b\u043e\u0441\u043e\u0432\u0435 \u043f\u043e\u0432\u0456\u0434\u043e\u043c\u043b\u0435\u043d\u043d\u044f",
  "commandOutputControl": "\u0412\u0438\u0445\u0456\u0434\u043d\u0438\u0439 \u043a\u043e\u043d\u0442\u0440\u043e\u043b\u044c",
  "commandVoiceMonitoring": "\u041c\u043e\u043d\u0456\u0442\u043e\u0440\u0438\u043d\u0433 \u0433\u043e\u043b\u043e\u0441\u0443",
  "commandSetAgps": "\u0412\u0441\u0442\u0430\u043d\u043e\u0432\u0438\u0442\u0438 AGPS",
  "commandSetIndicator": "\u0412\u0441\u0442\u0430\u043d\u043e\u0432\u0438\u0442\u0438 \u0456\u043d\u0434\u0438\u043a\u0430\u0442\u043e\u0440",
  "commandConfiguration": "\u041a\u043e\u043d\u0444\u0456\u0433\u0443\u0440\u0430\u0446\u0456\u044f",
  "commandGetVersion": "\u041e\u0442\u0440\u0438\u043c\u0430\u0442\u0438 \u0432\u0435\u0440\u0441\u0456\u044e",
  "commandFirmwareUpdate": "\u041e\u043d\u043e\u0432\u043b\u0435\u043d\u043d\u044f \u043f\u0440\u043e\u0448\u0438\u0432\u043a\u0438",
  "commandSetConnection": "\u0412\u0441\u0442\u0430\u043d\u043e\u0432\u0438\u0442\u0438 \u043f\u0456\u0434\u043a\u043b\u044e\u0447\u0435\u043d\u043d\u044f",
  "commandSetOdometer": "\u0412\u0441\u0442\u0430\u043d\u043e\u0432\u0438\u0442\u0438 \u043e\u0434\u043e\u043c\u0435\u0442\u0440",
  "commandGetModemStatus": "\u041e\u0442\u0440\u0438\u043c\u0430\u0442\u0438 \u0441\u0442\u0430\u0442\u0443\u0441 \u043c\u043e\u0434\u0435\u043c\u0443",
  "commandGetDeviceStatus": "\u041e\u0442\u0440\u0438\u043c\u0430\u0442\u0438 \u0441\u0442\u0430\u0442\u0443\u0441 \u043f\u0440\u0438\u0441\u0442\u0440\u043e\u044e",
  "commandSetSpeedLimit": "\u0412\u0441\u0442\u0430\u043d\u043e\u0432\u0438\u0442\u0438 \u043e\u0431\u043c\u0435\u0436\u0435\u043d\u043d\u044f \u0448\u0432\u0438\u0434\u043a\u043e\u0441\u0442\u0456",
  "commandModePowerSaving": "\u0420\u0435\u0436\u0438\u043c \u0435\u043d\u0435\u0440\u0433\u043e\u0437\u0431\u0435\u0440\u0435\u0436\u0435\u043d\u043d\u044f",
  "commandModeDeepSleep": "\u0420\u0435\u0436\u0438\u043c \u0433\u043b\u0438\u0431\u043e\u043a\u043e\u0433\u043e \u0441\u043d\u0443",
  "commandAlarmGeofence": "\u0412\u0441\u0442\u0430\u043d\u043e\u0432\u0456\u0442\u044c \u0441\u0438\u0433\u043d\u0430\u043b\u0456\u0437\u0430\u0446\u0456\u044e \u0433\u0435\u043e\u0437\u043e\u043d\u0438",
  "commandAlarmBattery": "\u0412\u0441\u0442\u0430\u043d\u043e\u0432\u0438\u0442\u0438 \u0441\u0438\u0433\u043d\u0430\u043b\u0456\u0437\u0430\u0446\u0456\u044e \u0437\u0430\u0440\u044f\u0434\u0443 \u0431\u0430\u0442\u0430\u0440\u0435\u0457",
  "commandAlarmSos": "\u0412\u0441\u0442\u0430\u043d\u043e\u0432\u0456\u0442\u044c SOS Alarm",
  "commandAlarmRemove": "\u041d\u0430\u043b\u0430\u0448\u0442\u0443\u0439\u0442\u0435 \u0432\u0438\u0434\u0430\u043b\u0435\u043d\u043d\u044f \u0431\u0443\u0434\u0438\u043b\u044c\u043d\u0438\u043a\u0430",
  "commandAlarmClock": "\u0412\u0441\u0442\u0430\u043d\u043e\u0432\u0438\u0442\u0438 \u0431\u0443\u0434\u0438\u043b\u044c\u043d\u0438\u043a",
  "commandAlarmSpeed": "\u0412\u0441\u0442\u0430\u043d\u043e\u0432\u0438\u0442\u0438 \u0441\u0438\u0433\u043d\u0430\u043b \u0448\u0432\u0438\u0434\u043a\u043e\u0441\u0442\u0456",
  "commandAlarmFall": "\u0412\u0441\u0442\u0430\u043d\u043e\u0432\u0438\u0442\u0438 \u043e\u0441\u0456\u043d\u043d\u044e \u0441\u0438\u0433\u043d\u0430\u043b\u0456\u0437\u0430\u0446\u0456\u044e",
  "commandAlarmVibration": "\u0412\u0441\u0442\u0430\u043d\u043e\u0432\u0456\u0442\u044c \u0432\u0456\u0431\u0440\u0430\u0446\u0456\u044e",
  "commandFrequency": "\u0427\u0430\u0441\u0442\u043e\u0442\u0430",
  "commandTimezone": "\u0417\u0441\u0443\u0432 \u0447\u0430\u0441\u043e\u0432\u043e\u0433\u043e \u043f\u043e\u044f\u0441\u0443",
  "commandMessage": "\u043f\u043e\u0432\u0456\u0434\u043e\u043c\u043b\u0435\u043d\u043d\u044f",
  "commandRadius": "\u0420\u0430\u0434\u0456\u0443\u0441",
  "commandEnable": "\u0423\u0432\u0456\u043c\u043a\u043d\u0443\u0442\u0438",
  "commandData": "\u0434\u0430\u043d\u0456",
  "commandIndex": "\u0406\u043d\u0434\u0435\u043a\u0441",
  "commandPhone": "\u0422\u0435\u043b\u0435\u0444\u043e\u043d\u043d\u0438\u0439 \u043d\u043e\u043c\u0435\u0440",
  "commandServer": "\u0421\u0435\u0440\u0432\u0435\u0440",
  "commandPort": "\u041f\u043e\u0440\u0442",
  "eventAll": "\u0412\u0441\u0456 \u043f\u043e\u0434\u0456\u0457",
  "eventDeviceOnline": "\u0421\u0442\u0430\u0442\u0443\u0441 \u043e\u043d\u043b\u0430\u0439\u043d",
  "eventDeviceUnknown": "\u0421\u0442\u0430\u0442\u0443\u0441 \u043d\u0435\u0432\u0456\u0434\u043e\u043c\u0438\u0439",
  "eventDeviceOffline": "\u0421\u0442\u0430\u0442\u0443\u0441 \u043e\u0444\u043b\u0430\u0439\u043d",
  "eventDeviceInactive": "\u041f\u0440\u0438\u0441\u0442\u0440\u0456\u0439 \u043d\u0435\u0430\u043a\u0442\u0438\u0432\u043d\u0438\u0439",
  "eventDeviceMoving": "\u041f\u0435\u0440\u0435\u043c\u0456\u0449\u0435\u043d\u043d\u044f \u043f\u0440\u0438\u0441\u0442\u0440\u043e\u044e",
  "eventDeviceStopped": "\u041f\u0440\u0438\u0441\u0442\u0440\u0456\u0439 \u0437\u0443\u043f\u0438\u043d\u0435\u043d\u043e",
  "eventDeviceOverspeed": "\u041f\u0435\u0440\u0435\u0432\u0438\u0449\u0435\u043d\u043e \u043e\u0431\u043c\u0435\u0436\u0435\u043d\u043d\u044f \u0448\u0432\u0438\u0434\u043a\u043e\u0441\u0442\u0456",
  "eventDeviceFuelDrop": "\u041f\u0430\u0434\u0456\u043d\u043d\u044f \u043f\u0430\u043b\u0438\u0432\u0430",
  "eventDeviceFuelIncrease": "\u0417\u0431\u0456\u043b\u044c\u0448\u0435\u043d\u043d\u044f \u043f\u0430\u043b\u0438\u0432\u0430",
  "eventCommandResult": "\u0420\u0435\u0437\u0443\u043b\u044c\u0442\u0430\u0442 \u043a\u043e\u043c\u0430\u043d\u0434\u0438",
  "eventGeofenceEnter": "\u0412\u0432\u0435\u0434\u0435\u043d\u043e \u0433\u0435\u043e\u0437\u043e\u043d\u0443",
  "eventGeofenceExit": "\u0412\u0438\u043c\u043a\u043d\u0435\u043d\u043e \u0433\u0435\u043e\u0437\u043e\u043d\u0443",
  "eventAlarm": "\u0441\u0438\u0433\u043d\u0430\u043b\u0456\u0437\u0430\u0446\u0456\u044f",
  "eventIgnitionOn": "\u0417\u0430\u043f\u0430\u043b\u044e\u0432\u0430\u043d\u043d\u044f \u0432\u043a\u043b\u044e\u0447\u0435\u043d\u043e",
  "eventIgnitionOff": "\u0412\u0438\u043c\u043a\u043d\u0435\u043d\u0435 \u0437\u0430\u043f\u0430\u043b\u044e\u0432\u0430\u043d\u043d\u044f",
  "eventMaintenance": "\u041f\u043e\u0442\u0440\u0456\u0431\u043d\u0435 \u0442\u0435\u0445\u043d\u0456\u0447\u043d\u0435 \u043e\u0431\u0441\u043b\u0443\u0433\u043e\u0432\u0443\u0432\u0430\u043d\u043d\u044f",
  "eventTextMessage": "\u0422\u0435\u043a\u0441\u0442\u043e\u0432\u0435 \u043f\u043e\u0432\u0456\u0434\u043e\u043c\u043b\u0435\u043d\u043d\u044f \u043e\u0442\u0440\u0438\u043c\u0430\u043d\u043e",
  "eventDriverChanged": "\u0412\u043e\u0434\u0456\u0439 \u0437\u043c\u0456\u043d\u0435\u043d\u0438\u0439",
  "eventMedia": "\u0417\u041c\u0406",
  "eventsScrollToLast": "\u041f\u0440\u043e\u043a\u0440\u0443\u0442\u0456\u0442\u044c \u0434\u043e \u043e\u0441\u0442\u0430\u043d\u043d\u044c\u043e\u0433\u043e",
  "eventsSoundEvents": "\u0417\u0432\u0443\u043a\u043e\u0432\u0456 \u043f\u043e\u0434\u0456\u0457",
  "eventsSoundAlarms": "\u0417\u0432\u0443\u043a\u043e\u0432\u0456 \u0441\u0438\u0433\u043d\u0430\u043b\u0438",
  "alarmGeneral": "\u0417\u0430\u0433\u0430\u043b\u044c\u043d\u0438\u0439",
  "alarmSos": "SOS",
  "alarmVibration": "\u0412\u0456\u0431\u0440\u0430\u0446\u0456\u044f",
  "alarmMovement": "\u0420\u0443\u0445",
  "alarmLowspeed": "\u041d\u0438\u0437\u044c\u043a\u0430 \u0448\u0432\u0438\u0434\u043a\u0456\u0441\u0442\u044c",
  "alarmOverspeed": "\u041f\u0435\u0440\u0435\u0432\u0438\u0449\u0435\u043d\u043d\u044f \u0448\u0432\u0438\u0434\u043a\u043e\u0441\u0442\u0456",
  "alarmFallDown": "\u0412\u043f\u0430\u0441\u0442\u0438",
  "alarmLowPower": "\u041d\u0438\u0437\u044c\u043a\u0430 \u043f\u043e\u0442\u0443\u0436\u043d\u0456\u0441\u0442\u044c",
  "alarmLowBattery": "\u041d\u0438\u0437\u044c\u043a\u0438\u0439 \u0437\u0430\u0440\u044f\u0434 \u0431\u0430\u0442\u0430\u0440\u0435\u0457",
  "alarmFault": "\u041d\u0435\u0441\u043f\u0440\u0430\u0432\u043d\u0456\u0441\u0442\u044c",
  "alarmPowerOff": "\u0412\u0438\u043c\u043a\u043d\u0435\u043d\u043d\u044f",
  "alarmPowerOn": "\u0423\u0432\u0456\u043c\u043a\u043d\u0435\u043d\u043d\u044f",
  "alarmDoor": "\u0434\u0432\u0435\u0440\u0456",
  "alarmLock": "\u0417\u0430\u043c\u043e\u043a",
  "alarmUnlock": "\u0420\u043e\u0437\u0431\u043b\u043e\u043a\u0443\u0432\u0430\u0442\u0438",
  "alarmGeofence": "\u0413\u0435\u043e\u0437\u043e\u043d\u0430",
  "alarmGeofenceEnter": "\u0413\u0435\u043e\u0437\u043e\u043d\u0430 \u0412\u0432\u0435\u0434\u0456\u0442\u044c",
  "alarmGeofenceExit": "\u0412\u0438\u0445\u0456\u0434 \u0437 \u0433\u0435\u043e\u0437\u043e\u043d\u0438",
  "alarmGpsAntennaCut": "\u0412\u0438\u0440\u0456\u0437\u0430\u043d\u043d\u044f \u0430\u043d\u0442\u0435\u043d\u0438 GPS",
  "alarmAccident": "\u0414\u0422\u041f",
  "alarmTow": "\u0431\u0443\u043a\u0441\u0438\u0440\u0443\u0432\u0430\u043d\u043d\u044f",
  "alarmIdle": "\u0411\u0435\u0437\u0434\u0456\u044f\u043b\u044c\u043d\u0456\u0441\u0442\u044c",
  "alarmHighRpm": "\u0412\u0438\u0441\u043e\u043a\u0456 \u043e\u0431\u0435\u0440\u0442\u0438",
  "alarmHardAcceleration": "\u0416\u043e\u0440\u0441\u0442\u043a\u0435 \u043f\u0440\u0438\u0441\u043a\u043e\u0440\u0435\u043d\u043d\u044f",
  "alarmHardBraking": "\u0420\u0456\u0437\u043a\u0435 \u0433\u0430\u043b\u044c\u043c\u0443\u0432\u0430\u043d\u043d\u044f",
  "alarmHardCornering": "\u0416\u043e\u0440\u0441\u0442\u043a\u0438\u0439 \u043f\u043e\u0432\u043e\u0440\u043e\u0442",
  "alarmLaneChange": "\u0417\u043c\u0456\u043d\u0430 \u0441\u043c\u0443\u0433\u0438 \u0440\u0443\u0445\u0443",
  "alarmFatigueDriving": "\u0412\u0442\u043e\u043c\u0430 \u0432\u043e\u0434\u0456\u043d\u043d\u044f",
  "alarmPowerCut": "\u0412\u0456\u0434\u043a\u043b\u044e\u0447\u0435\u043d\u043d\u044f \u0436\u0438\u0432\u043b\u0435\u043d\u043d\u044f",
  "alarmPowerRestored": "\u0416\u0438\u0432\u043b\u0435\u043d\u043d\u044f \u0432\u0456\u0434\u043d\u043e\u0432\u043b\u0435\u043d\u043e",
  "alarmJamming": "\u0433\u043b\u0443\u0448\u0456\u043d\u043d\u044f",
  "alarmTemperature": "\u0442\u0435\u043c\u043f\u0435\u0440\u0430\u0442\u0443\u0440\u0430",
  "alarmParking": "\u041f\u0430\u0440\u043a\u0456\u043d\u0433",
  "alarmBonnet": "\u041a\u0430\u043f\u043e\u0442",
  "alarmFootBrake": "\u041d\u043e\u0436\u043d\u0435 \u0433\u0430\u043b\u044c\u043c\u043e",
  "alarmFuelLeak": "\u0412\u0438\u0442\u0456\u043a \u043f\u0430\u043b\u0438\u0432\u0430",
  "alarmTampering": "\u0444\u0430\u043b\u044c\u0441\u0438\u0444\u0456\u043a\u0430\u0446\u0456\u044f",
  "alarmRemoving": "\u0412\u0438\u0434\u0430\u043b\u0435\u043d\u043d\u044f",
  "notificationType": "\u0422\u0438\u043f \u043f\u043e\u0432\u0456\u0434\u043e\u043c\u043b\u0435\u043d\u043d\u044f",
  "notificationAlways": "\u0423\u0441\u0456 \u043f\u0440\u0438\u0441\u0442\u0440\u043e\u0457",
  "notificationNotificators": "\u041a\u0430\u043d\u0430\u043b\u0438",
  "notificatorWeb": "\u0406\u043d\u0442\u0435\u0440\u043d\u0435\u0442",
  "notificatorMail": "\u041f\u043e\u0448\u0442\u0430",
  "notificatorSms": "\u0421\u041c\u0421",
  "notificatorFirebase": "Firebase",
  "notificatorTraccar": "\u0422\u0440\u0435\u043a",
  "notificatorTelegram": "\u0422\u0435\u043b\u0435\u0433\u0440\u0430\u043c\u0430",
  "notificatorPushover": "Pushover",
  "reportReplay": "\u041f\u043e\u0432\u0442\u043e\u0440",
  "reportRoute": "\u041c\u0430\u0440\u0448\u0440\u0443\u0442",
  "reportEvents": "\u041f\u043e\u0434\u0456\u0457",
  "reportTrips": "\u041f\u043e\u0457\u0437\u0434\u043a\u0438",
  "reportStops": "\u0417\u0443\u043f\u0438\u043d\u043a\u0438",
  "reportSummary": "\u0420\u0435\u0437\u044e\u043c\u0435",
  "reportDaily": "\u0429\u043e\u0434\u0435\u043d\u043d\u0438\u0439 \u043f\u0456\u0434\u0441\u0443\u043c\u043e\u043a",
  "reportChart": "\u0414\u0456\u0430\u0433\u0440\u0430\u043c\u0430",
  "reportConfigure": "\u041d\u0430\u043b\u0430\u0448\u0442\u0443\u0432\u0430\u0442\u0438",
  "reportEventTypes": "\u0422\u0438\u043f\u0438 \u043f\u043e\u0434\u0456\u0439",
  "reportChartType": "\u0422\u0438\u043f \u0434\u0456\u0430\u0433\u0440\u0430\u043c\u0438",
  "reportShowMarkers": "\u041f\u043e\u043a\u0430\u0437\u0430\u0442\u0438 \u043c\u0430\u0440\u043a\u0435\u0440\u0438",
  "reportExport": "\u0415\u043a\u0441\u043f\u043e\u0440\u0442",
  "reportEmail": "\u0417\u0432\u0456\u0442 \u0435\u043b\u0435\u043a\u0442\u0440\u043e\u043d\u043d\u043e\u044e \u043f\u043e\u0448\u0442\u043e\u044e",
  "reportPeriod": "\u041a\u0440\u0430\u043f\u043a\u0430",
  "reportCustom": "Custom",
  "reportToday": "\u0421\u044c\u043e\u0433\u043e\u0434\u043d\u0456",
  "reportYesterday": "\u0432\u0447\u043e\u0440\u0430",
  "reportThisWeek": "\u0426\u044c\u043e\u0433\u043e \u0442\u0438\u0436\u043d\u044f",
  "reportPreviousWeek": "\u041f\u043e\u043f\u0435\u0440\u0435\u0434\u043d\u0456\u0439 \u0442\u0438\u0436\u0434\u0435\u043d\u044c",
  "reportThisMonth": "\u0426\u044c\u043e\u0433\u043e \u043c\u0456\u0441\u044f\u0446\u044f",
  "reportPreviousMonth": "\u041f\u043e\u043f\u0435\u0440\u0435\u0434\u043d\u0456\u0439 \u043c\u0456\u0441\u044f\u0446\u044c",
  "reportDeviceName": "\u0406\u043c'\u044f \u043f\u0440\u0438\u0441\u0442\u0440\u043e\u044e",
  "reportAverageSpeed": "\u0421\u0435\u0440\u0435\u0434\u043d\u044f \u0448\u0432\u0438\u0434\u043a\u0456\u0441\u0442\u044c",
  "reportMaximumSpeed": "\u041c\u0430\u043a\u0441\u0438\u043c\u0430\u043b\u044c\u043d\u0430 \u0448\u0432\u0438\u0434\u043a\u0456\u0441\u0442\u044c",
  "reportEngineHours": "\u0427\u0430\u0441 \u0440\u043e\u0431\u043e\u0442\u0438 \u0434\u0432\u0438\u0433\u0443\u043d\u0430",
  "reportDuration": "\u0422\u0440\u0438\u0432\u0430\u043b\u0456\u0441\u0442\u044c",
  "reportStartDate": "\u0414\u0430\u0442\u0430 \u043f\u043e\u0447\u0430\u0442\u043a\u0443",
  "reportStartTime": "\u0427\u0430\u0441 \u043f\u043e\u0447\u0430\u0442\u043a\u0443",
  "reportStartAddress": "\u041f\u043e\u0447\u0430\u0442\u043a\u043e\u0432\u0430 \u0430\u0434\u0440\u0435\u0441\u0430",
  "reportEndTime": "\u0427\u0430\u0441 \u0437\u0430\u043a\u0456\u043d\u0447\u0435\u043d\u043d\u044f",
  "reportEndAddress": "\u041a\u0456\u043d\u0446\u0435\u0432\u0430 \u0430\u0434\u0440\u0435\u0441\u0430",
  "reportSpentFuel": "\u0412\u0456\u0434\u043f\u0440\u0430\u0446\u044c\u043e\u0432\u0430\u043d\u0435 \u043f\u0430\u043b\u0438\u0432\u043e",
  "reportStartOdometer": "\u041f\u0443\u0441\u043a \u043e\u0434\u043e\u043c\u0435\u0442\u0440\u0430",
  "reportEndOdometer": "\u041a\u0456\u043d\u0435\u0446\u044c \u043e\u0434\u043e\u043c\u0435\u0442\u0440\u0430",
  "statisticsTitle": "\u0421\u0442\u0430\u0442\u0438\u0441\u0442\u0438\u043a\u0430",
  "statisticsCaptureTime": "\u0427\u0430\u0441 \u0437\u0430\u0445\u043e\u043f\u043b\u0435\u043d\u043d\u044f",
  "statisticsActiveUsers": "\u0410\u043a\u0442\u0438\u0432\u043d\u0456 \u043a\u043e\u0440\u0438\u0441\u0442\u0443\u0432\u0430\u0447\u0456",
  "statisticsActiveDevices": "\u0410\u043a\u0442\u0438\u0432\u043d\u0456 \u043f\u0440\u0438\u0441\u0442\u0440\u043e\u0457",
  "statisticsRequests": "\u0417\u0430\u043f\u0438\u0442\u0438",
  "statisticsMessagesReceived": "\u041e\u0442\u0440\u0438\u043c\u0430\u043d\u0456 \u043f\u043e\u0432\u0456\u0434\u043e\u043c\u043b\u0435\u043d\u043d\u044f",
  "statisticsMessagesStored": "\u041f\u043e\u0432\u0456\u0434\u043e\u043c\u043b\u0435\u043d\u043d\u044f \u0437\u0431\u0435\u0440\u0435\u0436\u0435\u043d\u0456",
  "statisticsGeocoder": "\u0417\u0430\u043f\u0438\u0442\u0438 \u0433\u0435\u043e\u043a\u043e\u0434\u0435\u0440\u0430",
  "statisticsGeolocation": "\u0417\u0430\u043f\u0438\u0442\u0438 \u043d\u0430 \u0433\u0435\u043e\u043b\u043e\u043a\u0430\u0446\u0456\u044e",
  "categoryArrow": "\u0421\u0442\u0440\u0456\u043b\u043a\u0430",
  "categoryDefault": "\u0417\u0430 \u0437\u0430\u043c\u043e\u0432\u0447\u0443\u0432\u0430\u043d\u043d\u044f\u043c",
  "categoryAnimal": "\u0422\u0432\u0430\u0440\u0438\u043d\u0430",
  "categoryBicycle": "\u0432\u0435\u043b\u043e\u0441\u0438\u043f\u0435\u0434",
  "categoryBoat": "\u0427\u043e\u0432\u0435\u043d",
  "categoryBus": "\u0410\u0432\u0442\u043e\u0431\u0443\u0441",
  "categoryCar": "\u0430\u0432\u0442\u043e\u043c\u043e\u0431\u0456\u043b\u044c",
  "categoryCrane": "\u0416\u0443\u0440\u0430\u0432\u0435\u043b\u044c",
  "categoryHelicopter": "\u0412\u0435\u0440\u0442\u043e\u043b\u0456\u0442",
  "categoryMotorcycle": "\u043c\u043e\u0442\u043e\u0446\u0438\u043a\u043b",
  "categoryOffroad": "\u0411\u0435\u0437\u0434\u043e\u0440\u0456\u0436\u0436\u044f",
  "categoryPerson": "\u043e\u0441\u043e\u0431\u0430",
  "categoryPickup": "\u041f\u0456\u043a\u0430\u043f",
  "categoryPlane": "\u041b\u0456\u0442\u0430\u043a",
  "categoryShip": "\u041a\u043e\u0440\u0430\u0431\u0435\u043b\u044c",
  "categoryTractor": "\u0422\u0440\u0430\u043a\u0442\u043e\u0440",
  "categoryTrain": "\u043f\u043e\u0457\u0437\u0434",
  "categoryTram": "\u0422\u0440\u0430\u043c\u0432\u0430\u0439",
  "categoryTrolleybus": "\u0422\u0440\u043e\u043b\u0435\u0439\u0431\u0443\u0441",
  "categoryTruck": "\u0412\u0430\u043d\u0442\u0430\u0436\u0456\u0432\u043a\u0430",
  "categoryVan": "\u0424\u0443\u0440\u0433\u043e\u043d",
  "categoryScooter": "\u0421\u043a\u0443\u0442\u0435\u0440",
  "maintenanceStart": "\u041f\u043e\u0447\u043d\u0456\u0442\u044c",
  "maintenancePeriod": "\u041a\u0440\u0430\u043f\u043a\u0430"
}