{
  "sharedLoading": "Iyalayisha...",
  "sharedHide": "Fihla",
  "sharedSave": "Gcina",
  "sharedSet": "Seta",
  "sharedCancel": "Rhoxisa",
  "sharedAdd": "Yongeza",
  "sharedEdit": "Hlela",
  "sharedRemove": "Susa",
  "sharedRemoveConfirm": "Susa into?",
  "sharedNoData": "Akukho datha",
  "sharedYes": "Ewe",
  "sharedNo": "Hayi",
  "sharedKm": "km",
  "sharedMi": "mi",
  "sharedNmi": "nmi",
  "sharedMeters": "m",
  "sharedFeet": "ft",
  "sharedKn": "kn",
  "sharedKmh": "km/h",
  "sharedMph": "mph",
  "sharedHour": "Yure",
  "sharedMinute": "Mzuzu",
  "sharedSecond": "Isibini",
  "sharedDays": "iintsuku",
  "sharedHours": "iiyure",
  "sharedMinutes": "imizuzu",
  "sharedDecimalDegrees": "Izidanga zedesimali",
  "sharedDegreesDecimalMinutes": "Izidanga kwiMizuzu yeDesimali",
  "sharedDegreesMinutesSeconds": "Izidanga Imizuzu Imizuzwana",
  "sharedName": "Igama",
  "sharedDescription": "Inkcazo",
  "sharedSearch": "Khangela",
  "sharedIconScale": "Isikali somfanekiso",
  "sharedGeofence": "Geofence",
  "sharedGeofences": "Geofences",
  "sharedCreateGeofence": "Yenza i-Geofence",
  "sharedNotifications": "Izaziso",
  "sharedNotification": "Isaziso",
  "sharedAttributes": "Iimpawu",
  "sharedAttribute": "Uphawu lophawu",
  "sharedDrivers": "Abaqhubi",
  "sharedDriver": "Umqhubi",
  "sharedArea": "Indawo",
  "sharedSound": "Isandi sesaziso",
  "sharedType": "Uhlobo",
  "sharedDistance": "Umgama",
  "sharedHourAbbreviation": "h",
  "sharedMinuteAbbreviation": "m",
  "sharedSecondAbbreviation": "s",
  "sharedVoltAbbreviation": "V",
  "sharedLiterAbbreviation": "l",
  "sharedGallonAbbreviation": "gal",
  "sharedLiter": "Ilitha",
  "sharedImpGallon": "Imp. IGallon",
  "sharedUsGallon": "U.S. Gallon",
  "sharedLiterPerHourAbbreviation": "l/h",
  "sharedGetMapState": "Fumana iMephu State",
  "sharedComputedAttribute": "Uphawu loyelelwano olubaliweyo",
  "sharedComputedAttributes": "Iimpawu ezibaliweyo",
  "sharedCheckComputedAttribute": "Jonga uphawu loyelelwano olubaliweyo",
  "sharedExpression": "Ukuvakalisa",
  "sharedDevice": "Isixhobo",
  "sharedTest": "Uvavanyo",
  "sharedTestNotification": "Thumela Isaziso soVavanyo",
  "sharedTestNotificators": "Iitshaneli zovavanyo",
  "sharedTestExpression": "UVavanyo Ukuvakaliswa",
  "sharedCalendar": "Ikhalenda",
  "sharedCalendars": "Iikhalenda",
  "sharedFile": "Ifayile",
  "sharedSearchDevices": "Khangela izixhobo",
  "sharedSortBy": "Misa nge",
  "sharedFilterMap": "Hluza kwiMaphu",
  "sharedSelectFile": "Khetha Ifayile",
  "sharedPhone": "Ifowuni",
  "sharedRequired": "Kufuneka",
  "sharedPreferences": "Ezikhethwayo",
  "sharedPermissions": "Iimvume",
  "sharedConnections": "Uqhagamshelwano",
  "sharedExtra": "Okongeziweyo",
  "sharedPrimary": "Amabanga aphantsi",
  "sharedSecondary": "Eyesibini",
  "sharedTypeString": "Umtya",
  "sharedTypeNumber": "Inani",
  "sharedTypeBoolean": "Boolean",
  "sharedTimezone": "Ixesha lendawo",
  "sharedInfoTitle": "Ulwazi",
  "sharedSavedCommand": "Umyalelo ogciniweyo",
  "sharedSavedCommands": "Imiyalelo egciniweyo",
  "sharedNew": "Entsha\u00e2\u20ac\u00a6",
  "sharedShowAddress": "Bonisa idilesi",
  "sharedShowDetails": "Iinkcukacha ezingakumbi",
  "sharedDisabled": "Kukhubazekile",
  "sharedMaintenance": "Isondlo",
  "sharedDeviceAccumulators": "Ii-accumulators",
  "sharedAlarms": "Iialamu",
  "sharedLocation": "Indawo",
  "sharedImport": "Ngenisa ngaphandle",
  "sharedColumns": "Imihlathi",
  "sharedDropzoneText": "Tsala kwaye ulahle ifayile apha okanye ucofe",
  "calendarSimple": "Elula",
  "calendarRecurrence": "Ukuphindaphinda",
  "calendarOnce": "Kanye",
  "calendarDaily": "Yonke imihla",
  "calendarWeekly": "Rhoqo ngeveki",
  "calendarMonthly": "Ngenyanga",
  "calendarDays": "Iintsuku",
  "calendarSunday": "iCawe",
  "calendarMonday": "uMvulo",
  "calendarTuesday": "uLwesibini",
  "calendarWednesday": "uLwesithathu",
  "calendarThursday": "uLwesine",
  "calendarFriday": "uLwesihlanu",
  "calendarSaturday": "uMgqibelo",
  "attributeShowGeofences": "Bonisa iiGeofences",
  "attributeSpeedLimit": "Ukuphala kwesantya",
  "attributeFuelDropThreshold": "I-Fuel Drop Threshold",
  "attributeFuelIncreaseThreshold": "IFuel Ukwandiswa Threshold",
  "attributePolylineDistance": "Umgama wePolyline",
  "attributeReportIgnoreOdometer": "Ingxelo: Ungayihoyi i-Odometer",
  "attributeWebReportColor": "Web: Ingxelo Umbala",
  "attributeDevicePassword": "Iphasiwedi yesixhobo",
  "attributeDeviceImage": "Umfanekiso wesixhobo",
  "attributeDeviceInactivityStart": "Ukungasebenzi kwesixhobo Qala",
  "attributeDeviceInactivityPeriod": "Ixesha lokungasebenzi kwesixhobo",
  "attributeProcessingCopyAttributes": "Ukuqhubekeka: Khuphela iimpawu",
  "attributeColor": "Umbala",
  "attributeWebLiveRouteLength": "Uthungelwano: Ubude beNdlela eBomi",
  "attributeWebSelectZoom": "Web: Sondeza Khetha",
  "attributeWebMaxZoom": "Web: Ukwandisa kakhulu",
  "attributeTelegramChatId": "I-ID yeNcoko yeTelegram",
  "attributePushoverUserKey": "Pushover User Key",
  "attributePushoverDeviceNames": "Pushover Device Amagama",
  "attributeMailSmtpHost": "Imeyile: Umamkeli weSMTP",
  "attributeMailSmtpPort": "Imeyile: SMTP Port",
  "attributeMailSmtpStarttlsEnable": "Imeyile: SMTP STARTTLS Vulela",
  "attributeMailSmtpStarttlsRequired": "Imeyile: SMTP STARTTLS iyafuneka",
  "attributeMailSmtpSslEnable": "Imeyile: SMTP SSL Vulela",
  "attributeMailSmtpSslTrust": "Imeyile: SMTP SSL Trust",
  "attributeMailSmtpSslProtocols": "Imeyile: IiProtokholi ze-SMTP SSL",
  "attributeMailSmtpFrom": "Imeyile: SMTP Ukusuka",
  "attributeMailSmtpAuth": "Imeyile: SMTP Auth Vulela",
  "attributeMailSmtpUsername": "Imeyile: SMTP Igama lomsebenzisi",
  "attributeMailSmtpPassword": "Imeyile: Igama lokugqithisa le-SMTP",
  "attributeUiDisableAttributes": "I-UI: Khubaza iimpawu",
  "attributeUiDisableGroups": "UI: Khubaza Amaqela",
  "attributeUiDisableEvents": "UI: Khubaza iMisitho",
  "attributeUiDisableVehicleFetures": "I-UI: Khubaza iiFeatures zeMoto",
  "attributeUiDisableDrivers": "UI: Khubaza Abaqhubi",
  "attributeUiDisableComputedAttributes": "I-UI: Khubaza iimpawu eziBaliweyo",
  "attributeUiDisableCalendars": "UI: Khubaza iiKhalenda",
  "attributeUiDisableMaintenance": "UI: Khubaza uLondolozo",
  "attributeUiHidePositionAttributes": "I-UI: Fihla iimpawu zeNdawo",
  "attributeUiDisableLoginLanguage": "I-UI: Khubaza uLwimi lokuNgena",
  "attributeNotificationTokens": "Iimpawu zesaziso",
  "attributePopupInfo": "Ulwazi oluvelelayo",
  "errorTitle": "Impazamo",
  "errorGeneral": "Iiparamitha ezingasebenziyo okanye ukunyhashwa kwemiqobo",
  "errorConnection": "Impazamo yoqhagamshelwano",
  "errorSocket": "Impazamo yoqhagamshelwano lwesokethi yewebhu",
  "errorZero": "Ayikwazi ukuba nguziro",
  "userEmail": "I-imeyile",
  "userPassword": "Inombolo yokuvula",
  "userAdmin": "Admin",
  "userRemember": "Khumbula",
  "userExpirationTime": "Ukuphelelwa lixesha",
  "userDeviceLimit": "Umda wesixhobo",
  "userUserLimit": "Umlinganiselo womsebenzisi",
  "userDeviceReadonly": "Isixhobo Sokufunda Kuphela",
  "userLimitCommands": "Mida imiyalelo",
  "userDisableReports": "Khubaza iiNgxelo",
  "userFixedEmail": "Akukho tshintsho lwe-imeyile",
  "userToken": "Umqondiso",
  "userDeleteAccount": "Cima iAkhawunti",
  "loginTitle": "Ngema",
  "loginLanguage": "Ulwimi",
  "loginReset": "Lungisa Igama Lokugqithisa",
  "loginRegister": "Bhalisa",
  "loginLogin": "Ngema",
  "loginFailed": "Idilesi ye-imeyile okanye igama eliyimfihlo elingalunganga",
  "loginCreated": "Umsebenzisi omtsha ubhalisiwe",
  "loginResetSuccess": "Jonga i-imeyile yakho",
  "loginUpdateSuccess": "Iphasiwedi entsha isetiwe",
  "loginLogout": "Phuma",
  "loginLogo": "Ilogo",
  "devicesAndState": "Izixhobo kunye noRhulumente",
  "deviceSelected": "Isixhobo esikhethiweyo",
  "deviceTitle": "Izixhobo",
  "devicePrimaryInfo": "Isihloko sesixhobo",
  "deviceSecondaryInfo": "Iinkcukacha zesixhobo",
  "deviceIdentifier": "Isichongi",
  "deviceModel": "Umzekelo",
  "deviceContact": "Qhagamshelana",
  "deviceCategory": "Udidi",
  "deviceLastUpdate": "Uhlaziyo lokugqibela",
  "deviceCommand": "Umyalelo",
  "deviceFollow": "Landela",
  "deviceTotalDistance": "Umgama uwonke",
  "deviceStatus": "Ubume",
  "deviceStatusOnline": "Kwi-intanethi",
  "deviceStatusOffline": "Ngaphandle kweintanethi",
  "deviceStatusUnknown": "Akwaziwa",
  "groupDialog": "Iqela",
  "groupParent": "Iqela",
  "groupNoGroup": "Akukho Qela",
  "settingsTitle": "Iisetingi",
  "settingsUser": "Iakhawunti",
  "settingsGroups": "Amaqela",
  "settingsServer": "Iseva",
  "settingsUsers": "Abasebenzisi",
  "settingsDistanceUnit": "Iyunithi yomgama",
  "settingsAltitudeUnit": "IYunithi yoMphakamo",
  "settingsSpeedUnit": "Iyunithi yesantya",
  "settingsVolumeUnit": "Umthamo weyunithi",
  "settingsTwelveHourFormat": "Iiyure ezili-12 ifomathi",
  "settingsCoordinateFormat": "Ulungelelwaniso lweFomathi",
  "settingsServerVersion": "Uguqulelo lomncedisi",
  "settingsAppVersion": "Inguqulelo ye-App",
  "settingsConnection": "Uqhagamshelwano",
  "reportTitle": "Iingxelo",
  "reportDevice": "Isixhobo",
  "reportGroup": "Iqela",
  "reportFrom": "Ukusuka",
  "reportTo": "Ukuya",
  "reportShow": "Bonisa",
  "reportClear": "Cacileyo",
  "linkGoogleMaps": "iimaphu zikagoogle",
  "linkAppleMaps": "Apple Maps",
  "linkStreetView": "Ujongo lwesitrato",
  "positionFixTime": "Lungisa Ixesha",
  "positionDeviceTime": "Ixesha lesixhobo",
  "positionServerTime": "Ixesha leseva",
  "positionValid": "Iyasebenza",
  "positionAccuracy": "Ukuchaneka",
  "positionLatitude": "Ububanzi",
  "positionLongitude": "Ubude",
  "positionAltitude": "Ukuphakama",
  "positionSpeed": "Isantya",
  "positionCourse": "Ikhosi",
  "positionAddress": "Idilesi",
  "positionProtocol": "Umgaqo-nkqubo",
  "positionDistance": "Umgama",
  "positionRpm": "RPM",
  "positionFuel": "Isibaso",
  "positionPower": "Amandla",
  "positionBattery": "Ibhetri",
  "positionRaw": "Ekrwada",
  "positionIndex": "Isalathiso",
  "positionHdop": "HDOP",
  "positionVdop": "VDOP",
  "positionPdop": "PDOP",
  "positionSat": "Iisathelayithi",
  "positionSatVisible": "IiSathelayithi ezibonakalayo",
  "positionRssi": "I-RSSI",
  "positionGps": "IGPS",
  "positionRoaming": "Iyagquma",
  "positionEvent": "Isiganeko",
  "positionAlarm": "Ialarm",
  "positionStatus": "Ubume",
  "positionOdometer": "Odometer",
  "positionServiceOdometer": "Inkonzo yeOdometer",
  "positionTripOdometer": "Uhambo Odometer",
  "positionHours": "Iiyure",
  "positionSteps": "Amanyathelo",
  "positionInput": "Igalelo",
  "positionOutput": "Isiphumo",
  "positionBatteryLevel": "Inqanaba lebhetri",
  "positionFuelConsumption": "Ukusetyenziswa kwamafutha",
  "positionRfid": "I-RFID",
  "positionVersionFw": "Inguqulelo yeFirmware",
  "positionVersionHw": "Hardware Version",
  "positionIgnition": "Umlilo",
  "positionFlags": "Iiflegi",
  "positionCharge": "Ukuhlawulisa",
  "positionIp": "IP",
  "positionArchive": "Gcina",
  "positionVin": "VIN",
  "positionApproximate": "Uqikelelo",
  "positionThrottle": "Umcephe",
  "positionMotion": "Intshukumo",
  "positionArmed": "Sixhobile",
  "positionAcceleration": "Ukukhawulezisa",
  "positionTemp": "Ubushushu",
  "positionDeviceTemp": "Ubushushu besixhobo",
  "positionOperator": "Umsebenzisi",
  "positionCommand": "Umyalelo",
  "positionBlocked": "Ivaliwe",
  "positionDtcs": "Ii-DTCs",
  "positionObdSpeed": "Isantya se-OBD",
  "positionObdOdometer": "OBD Odometer",
  "positionDriverUniqueId": "Umqhubi Unique Id",
  "positionImage": "Umfanekiso",
  "positionVideo": "Ividiyo",
  "positionAudio": "Umsindo",
  "serverTitle": "Iisetingi zeseva",
  "serverZoom": "Sondeza",
  "serverRegistration": "Ubhaliso",
  "serverReadonly": "Funda uqhubeleke",
  "serverForceSettings": "Nyanzelisa Izicwangciso",
  "serverAnnouncement": "Isibhengezo",
  "mapTitle": "Imephu",
  "mapActive": "Iimephu ezisebenzayo",
  "mapOverlay": "Isalekene semephu",
  "mapOverlayCustom": "Custom Ukwaleka",
  "mapOpenSeaMap": "I-OpenSeaMap",
  "mapOpenWeatherKey": "I-OpenWeather API Key",
  "mapOpenWeatherClouds": "Amafu e-OpenWeather",
  "mapOpenWeatherPrecipitation": "Imvula yeOpenWeather",
  "mapOpenWeatherPressure": "Uxinzelelo lweOpenWeather",
  "mapOpenWeatherWind": "Umoya weOpenWeather",
  "mapOpenWeatherTemperature": "Ubushushu beOpenWeather",
  "mapLayer": "Uluhlu lweMaphu",
  "mapCustom": "Ngokwesiqhelo (XYZ)",
  "mapCustomArcgis": "Ngokwesiqhelo (ArcGIS)",
  "mapCustomLabel": "imephu Custom",
  "mapCarto": "Iimephu zeCarto",
  "mapOsm": "I-OpenStreetMap",
  "mapGoogleRoad": "Indlela kaGoogle",
  "mapGoogleHybrid": "Google Hybrid",
  "mapGoogleSatellite": "ISathelayithi kaGoogle",
  "mapOpenTopoMap": "I-OpenTopoMap",
  "mapBingKey": "Isitshixo seemephu ze-Bing",
  "mapBingRoad": "Indlela yeemephu ze-Bing",
  "mapBingAerial": "Iimephu ze-Bing zasemoyeni",
  "mapBingHybrid": "Iimephu ze-Bing Hybrid",
  "mapBaidu": "Baidu",
  "mapAutoNavi": "AutoNavi",
  "mapYandexMap": "Imephu yeYandex",
  "mapYandexSat": "Yandex Satellite",
  "mapWikimedia": "Wikimedia Commons",
  "mapOrdnanceSurvey": "Uvavanyo lwe-Ordnance",
  "mapMapboxStreets": "Izitalato zebhokisi yeeMaphu",
  "mapMapboxOutdoors": "Ibhokisi yemephu Ngaphandle",
  "mapMapboxSatellite": "Ibhokisi yeSathelayithi yeMaphu",
  "mapMapboxKey": "IMaphu yoFikelelo uphawu",
  "mapMapTilerBasic": "ImephuTiler Esisiseko",
  "mapMapTilerHybrid": "I-MapTiler Hybrid",
  "mapMapTilerKey": "MapTiler API Key",
  "mapLocationIqStreets": "IndawoIQ Izitalato",
  "mapLocationIqKey": "IndawoIQ Access Token",
  "mapTomTomBasic": "TomTom Basic",
  "mapTomTomFlow": "TomTom Traffic Flow",
  "mapTomTomIncidents": "Izehlo zeTrafikhi zaseTomTom",
  "mapTomTomKey": "I-TomTom API Key",
  "mapHereBasic": "Apha Basic",
  "mapHereHybrid": "Apha iHybrid",
  "mapHereSatellite": "Apha Satellite",
  "mapHereFlow": "Apha ukuHamba kweTrafikhi",
  "mapHereKey": "Apha API Key",
  "mapShapePolygon": "Ipolygon",
  "mapShapeCircle": "Isangqa",
  "mapShapePolyline": "Polyline",
  "mapLiveRoutes": "Imizila ephilayo",
  "mapCurrentLocation": "Indawo yangoku",
  "mapPoiLayer": "POI Layers",
  "mapClustering": "Amanqaku Adibanisayo",
  "mapOnSelect": "Bonisa iMaphu ekuKhethweni",
  "mapDefault": "Imephu ehlala ikho",
  "stateTitle": "Umbuso",
  "stateName": "Uphawu lophawu",
  "stateValue": "Ixabiso",
  "commandTitle": "Umyalelo",
  "commandSend": "Thumela",
  "commandSent": "Umyalelo uthunyelwe",
  "commandQueued": "Umyalelo usemgceni",
  "commandUnit": "Iyunithi",
  "commandCustom": "Umyalelo wesiko",
  "commandDeviceIdentification": "Ukuchongwa kwesixhobo",
  "commandPositionSingle": "Ingxelo enye",
  "commandPositionPeriodic": "Ingxelo ngamaxesha athile",
  "commandPositionStop": "Yeka ukuNika iNgxelo",
  "commandEngineStop": "Injini yokumisa",
  "commandEngineResume": "I-Engine Resume",
  "commandAlarmArm": "ingalo isilumkiso",
  "commandAlarmDisarm": "Ukuphelisa iAlarm",
  "commandAlarmDismiss": "Cima iAlam",
  "commandSetTimezone": "Seta ummandla wexesha",
  "commandRequestPhoto": "Cela ifoto",
  "commandPowerOff": "Cima Isixhobo",
  "commandRebootDevice": "Qalisa kwakhona isixhobo",
  "commandFactoryReset": "Ukuphindisela kwisetingi sefetri",
  "commandSendSms": "Thumela iSMS",
  "commandSendUssd": "Thumela i-USSD",
  "commandSosNumber": "Seta inombolo ye-SOS",
  "commandSilenceTime": "Misela Ixesha Lokuthula",
  "commandSetPhonebook": "Seta Incwadi Yeefowuni",
  "commandVoiceMessage": "Umyalezo welizwi",
  "commandOutputControl": "Ulawulo Lweziphumo",
  "commandVoiceMonitoring": "Voice Monitoring",
  "commandSetAgps": "Seta i-AGPS",
  "commandSetIndicator": "Seta isalathisi",
  "commandConfiguration": "Uqwalaselo",
  "commandGetVersion": "Fumana inguqulelo",
  "commandFirmwareUpdate": "Hlaziya iFirmware",
  "commandSetConnection": "Seta uQhagamshelwano",
  "commandSetOdometer": "Seta iOdometer",
  "commandGetModemStatus": "Fumana imo yeModem",
  "commandGetDeviceStatus": "Fumana ubume besixhobo",
  "commandSetSpeedLimit": "Cwangcisa umlinganiselo wesantya",
  "commandModePowerSaving": "Imo yokuGcina Amandla",
  "commandModeDeepSleep": "Imowudi yokuLala nzulu",
  "commandAlarmGeofence": "Seta i-Alarm ye-Geofence",
  "commandAlarmBattery": "Seta iAlam yebhetri",
  "commandAlarmSos": "Seta i-Alarm ye-SOS",
  "commandAlarmRemove": "Seta Susa iAlam",
  "commandAlarmClock": "Seta iAlam yeKloko",
  "commandAlarmSpeed": "Seta iAlam yesantya",
  "commandAlarmFall": "Cwangcisa iAlam yokuwa",
  "commandAlarmVibration": "Seta iAlam yokungcangcazela",
  "commandFrequency": "Ukuphindaphinda",
  "commandTimezone": "Ixesha lezowuni ye-Offset",
  "commandMessage": "Umyalezo",
  "commandRadius": "Irediyasi",
  "commandEnable": "Vulela",
  "commandData": "Idatha",
  "commandIndex": "Isalathiso",
  "commandPhone": "Inombolo yomnxeba",
  "commandServer": "Iseva",
  "commandPort": "Izibuko",
  "eventAll": "Yonke imisitho",
  "eventDeviceOnline": "Ubume kwi-intanethi",
  "eventDeviceUnknown": "Ubume ayaziwa",
  "eventDeviceOffline": "Imo ngaphandle kweintanethi",
  "eventDeviceInactive": "Isixhobo asisebenzi",
  "eventDeviceMoving": "Isixhobo siyahamba",
  "eventDeviceStopped": "Isixhobo simisiwe",
  "eventDeviceOverspeed": "Umda wesantya ugqithisiwe",
  "eventDeviceFuelDrop": "Ukwehla kwamafutha",
  "eventDeviceFuelIncrease": "Ukunyuka kwamafutha",
  "eventCommandResult": "Isiphumo somyalelo",
  "eventGeofenceEnter": "Kwangena iGeofence",
  "eventGeofenceExit": "I-Geofence iphumile",
  "eventAlarm": "Ialarm",
  "eventIgnitionOn": "Ukulayita kuvuliwe",
  "eventIgnitionOff": "Umlilo ucimile",
  "eventMaintenance": "Ugcino luyafuneka",
  "eventTextMessage": "Umyalezo obhaliweyo ufunyenwe",
  "eventDriverChanged": "Umqhubi utshintshile",
  "eventMedia": "Media",
  "eventsScrollToLast": "Skrolela UkuGqibela",
  "eventsSoundEvents": "Iziganeko zesandi",
  "eventsSoundAlarms": "Iialamu zesandi",
  "alarmGeneral": "Ngokubanzi",
  "alarmSos": "SOS",
  "alarmVibration": "Ukungcangcazela",
  "alarmMovement": "Intshukumo",
  "alarmLowspeed": "Isantya esiphantsi",
  "alarmOverspeed": "Isantya esiphezulu",
  "alarmFallDown": "Yiwa phantsi",
  "alarmLowPower": "Amandla aphantsi",
  "alarmLowBattery": "Ibhetri elisezantsi",
  "alarmFault": "Impazamo",
  "alarmPowerOff": "Umbane ucimile",
  "alarmPowerOn": "Vula amandla",
  "alarmDoor": "Umnyango",
  "alarmLock": "Tshixa",
  "alarmUnlock": "Vula",
  "alarmGeofence": "Geofence",
  "alarmGeofenceEnter": "Geofence Ngena",
  "alarmGeofenceExit": "Phuma ngeGeofence",
  "alarmGpsAntennaCut": "GPS Antenna Sika",
  "alarmAccident": "Ingozi",
  "alarmTow": "Ukutsala",
  "alarmIdle": "Ungenzi nto",
  "alarmHighRpm": "I-RPM ephezulu",
  "alarmHardAcceleration": "Ukukhawulezisa nzima",
  "alarmHardBraking": "Ukunyathela nzima",
  "alarmHardCornering": "Hard Cornering",
  "alarmLaneChange": "Ukutshintsha kwendlela",
  "alarmFatigueDriving": "Ukudinwa Ukuqhuba",
  "alarmPowerCut": "Ukusika Amandla",
  "alarmPowerRestored": "Amandla abuyiselwe",
  "alarmJamming": "UkuJamming",
  "alarmTemperature": "Ubushushu",
  "alarmParking": "Ukupaka",
  "alarmBonnet": "Ibhonethi",
  "alarmFootBrake": "I-Foot Brake",
  "alarmFuelLeak": "Ukuvuza kweFuel",
  "alarmTampering": "Ukubhuqa",
  "alarmRemoving": "Iyasusa",
  "notificationType": "Uhlobo lweSaziso",
  "notificationAlways": "Zonke izixhobo",
  "notificationNotificators": "Imijelo",
  "notificatorWeb": "Web",
  "notificatorMail": "Imeyile",
  "notificatorSms": "i-SMS",
  "notificatorFirebase": "I-Firebase",
  "notificatorTraccar": "Umkhondo",
  "notificatorTelegram": "ITelegram",
  "notificatorPushover": "Pushover",
  "reportReplay": "Phinda udlale",
  "reportRoute": "Indlela",
  "reportEvents": "Iziganeko",
  "reportTrips": "Iihambo",
  "reportStops": "Yima",
  "reportSummary": "Isishwankathelo",
  "reportDaily": "IsiShwankathelo semihla ngemihla",
  "reportChart": "Itshathi",
  "reportConfigure": "Qwalasela",
  "reportEventTypes": "Iintlobo zesiganeko",
  "reportChartType": "Uhlobo lweTshati",
  "reportShowMarkers": "Bonisa Amanqaku",
  "reportExport": "Thumela ngaphandle",
  "reportEmail": "Ingxelo ye-imeyile",
  "reportPeriod": "Ixesha",
  "reportCustom": "Isiko",
  "reportToday": "Namhlanje",
  "reportYesterday": "Izolo",
  "reportThisWeek": "Kule veki",
  "reportPreviousWeek": "Iveki edlulileyo",
  "reportThisMonth": "Kule nyanga",
  "reportPreviousMonth": "Inyanga edlulileyo",
  "reportDeviceName": "Igama Lesixhobo",
  "reportAverageSpeed": "Isantya esiphakathi",
  "reportMaximumSpeed": "Isantya esiphezulu",
  "reportEngineHours": "Iiyure zeNjini",
  "reportDuration": "Ubude bexesha",
  "reportStartDate": "Umhla wokuqala",
  "reportStartTime": "Ixesha Lokuqalisa",
  "reportStartAddress": "Qala Idilesi",
  "reportEndTime": "Ixesha lokuphela",
  "reportEndAddress": "Idilesi Yesiphelo",
  "reportSpentFuel": "IFuel echithiweyo",
  "reportStartOdometer": "Ukuqala kwe-Odometer",
  "reportEndOdometer": "Ukuphela kweOdometer",
  "statisticsTitle": "Amanani",
  "statisticsCaptureTime": "Thatha ixesha",
  "statisticsActiveUsers": "Abasebenzisi Abasebenzayo",
  "statisticsActiveDevices": "Izixhobo ezisebenzayo",
  "statisticsRequests": "Izicelo",
  "statisticsMessagesReceived": "Imiyalezo efunyenweyo",
  "statisticsMessagesStored": "Imiyalezo egciniweyo",
  "statisticsGeocoder": "Izicelo zeGeocoder",
  "statisticsGeolocation": "Izicelo zeGeolocation",
  "categoryArrow": "Utolo",
  "categoryDefault": "Ukuhlala kukho",
  "categoryAnimal": "Isilwanyana",
  "categoryBicycle": "Ibhayisekile",
  "categoryBoat": "Isikhephe",
  "categoryBus": "Ibhasi",
  "categoryCar": "Imoto",
  "categoryCrane": "I-Crane",
  "categoryHelicopter": "IHelikopta",
  "categoryMotorcycle": "Isithuthuthu",
  "categoryOffroad": "Ngaphandle kwendlela",
  "categoryPerson": "Umntu",
  "categoryPickup": "Phakamisa",
  "categoryPlane": "Inqwelomoya",
  "categoryShip": "Ngenqanawa",
  "categoryTractor": "Itrektara",
  "categoryTrain": "Uloliwe",
  "categoryTram": "Tram",
  "categoryTrolleybus": "Ibhasi yetroli",
  "categoryTruck": "Ilori",
  "categoryVan": "Van",
  "categoryScooter": "Isikuta",
  "maintenanceStart": "Qala",
  "maintenancePeriod": "Ixesha"
}